EESchema Schematic File Version 4
EELAYER 30 0
EELAYER END
$Descr A4 11693 8268
encoding utf-8
Sheet 1 1
Title ""
Date ""
Rev ""
Comp ""
Comment1 ""
Comment2 ""
Comment3 ""
Comment4 ""
$EndDescr
Wire Wire Line
	9800 3200 9600 3200
Wire Wire Line
	9600 3200 9600 2900
Text Label 9600 3000 0    70   ~ 0
VCC
Wire Wire Line
	9800 4100 9500 4100
Text Label 9500 4100 0    70   ~ 0
VCC
Wire Wire Line
	9800 4200 9500 4200
Text Label 9500 4200 0    70   ~ 0
RXD0
Wire Wire Line
	5500 4100 6900 4100
Wire Wire Line
	6900 4100 7100 4300
Wire Wire Line
	7100 4300 7300 4300
Wire Wire Line
	7300 4300 8100 4300
Connection ~ 7300 4300
Text Label 8100 4300 0    70   ~ 0
RXD0
Wire Wire Line
	9800 4300 9500 4300
Text Label 9500 4300 0    70   ~ 0
TXD0
Wire Wire Line
	5500 4000 7100 4000
Wire Wire Line
	7100 4000 7300 4200
Wire Wire Line
	7300 4200 8100 4200
Connection ~ 7300 4200
Text Label 8100 4200 0    70   ~ 0
TXD0
Wire Wire Line
	9900 2600 10300 2600
Wire Wire Line
	10100 1900 10300 1900
Wire Wire Line
	10300 1900 10300 2600
Wire Wire Line
	10100 3200 10300 3200
Wire Wire Line
	10300 3200 10300 2600
Text Label 10100 2600 0    70   ~ 0
GND
Connection ~ 10300 2600
Wire Wire Line
	9800 3900 9500 3900
Text Label 9500 3900 0    70   ~ 0
GND
Wire Wire Line
	1800 3600 1900 3600
Wire Wire Line
	1900 3600 1900 3400
Wire Wire Line
	1900 3400 2200 3400
Connection ~ 1900 3600
Text Label 2200 3400 0    70   ~ 0
GND
Wire Wire Line
	4100 3700 3800 3400
Wire Wire Line
	3800 3400 3600 3400
Text Label 3600 3400 0    70   ~ 0
GND
Wire Wire Line
	9700 5600 9300 5600
Text Label 9300 5600 0    70   ~ 0
GND
Wire Wire Line
	7300 3900 7100 3700
Wire Wire Line
	7100 3700 6000 3700
Wire Wire Line
	6000 3700 5500 3700
Wire Wire Line
	6000 3700 6000 3500
Connection ~ 6000 3700
Text Label 6000 3500 0    70   ~ 0
GND
Wire Wire Line
	5300 2100 5800 2100
Text Label 5700 2100 0    70   ~ 0
GND
Wire Wire Line
	5300 2600 5800 2600
Text Label 5700 2600 0    70   ~ 0
GND
Wire Wire Line
	1600 4700 1300 4700
Text Label 1300 4700 0    70   ~ 0
GND
Wire Wire Line
	9600 2300 9600 1900
Wire Wire Line
	9600 1900 9800 1900
Wire Wire Line
	9700 2300 9600 2300
Text Label 9600 2100 0    70   ~ 0
3.3
Connection ~ 9600 2300
Wire Wire Line
	2300 4300 2400 4300
Text Label 2400 4300 0    70   ~ 0
3.3
Wire Wire Line
	4100 3800 3900 3600
Wire Wire Line
	3900 3600 3600 3600
Text Label 3600 3600 0    70   ~ 0
3.3
Wire Wire Line
	7300 3800 7000 3500
Wire Wire Line
	7000 3500 6700 3500
Text Label 6700 3500 0    70   ~ 0
3.3
Wire Wire Line
	4300 2100 3800 2100
Text Label 3800 2100 0    70   ~ 0
3.3
Wire Wire Line
	1900 4700 2100 4700
Text Label 2100 4700 0    70   ~ 0
3.3
Wire Wire Line
	5500 5000 5800 5000
Text Label 5700 5000 0    70   ~ 0
PROG
Wire Wire Line
	9700 5400 9300 5400
Text Label 9300 5400 0    70   ~ 0
PROG
Wire Wire Line
	2900 4000 4100 4000
Wire Wire Line
	2900 4100 4100 4100
Wire Wire Line
	2900 4200 4100 4200
Wire Wire Line
	2900 4300 4100 4300
Wire Wire Line
	2900 4400 4100 4400
Wire Wire Line
	2900 4500 4100 4500
Wire Wire Line
	2900 4600 4100 4600
Wire Wire Line
	2900 4700 4100 4700
Wire Wire Line
	2900 4800 4100 4800
Wire Wire Line
	2900 4900 4100 4900
Wire Wire Line
	2900 5000 4100 5000
Wire Wire Line
	4100 3900 3700 3900
Wire Wire Line
	3700 3900 3600 3800
Text Label 3600 3800 0    70   ~ 0
RESET
Wire Wire Line
	1900 4300 1900 4100
Wire Wire Line
	1900 4100 1900 4000
Wire Wire Line
	1800 4000 1900 4000
Wire Wire Line
	1900 4100 1800 4200
Wire Wire Line
	1800 4200 1500 4200
Connection ~ 1900 4000
Connection ~ 1900 4100
Text Label 1500 4200 0    70   ~ 0
RESET
Wire Wire Line
	4100 5400 3700 5400
Wire Wire Line
	3700 5400 3700 5800
Wire Wire Line
	3700 5800 4400 6500
Wire Wire Line
	4100 5500 3800 5500
Wire Wire Line
	3800 5500 3800 5800
Wire Wire Line
	3800 5800 4500 6500
Wire Wire Line
	4100 5600 3900 5600
Wire Wire Line
	3900 5600 3900 5800
Wire Wire Line
	3900 5800 4600 6500
Wire Wire Line
	5500 5600 5100 6000
Wire Wire Line
	5100 6000 4700 6000
Wire Wire Line
	4700 6000 4700 6500
Wire Wire Line
	4800 6500 4800 6400
Wire Wire Line
	4800 6400 5600 5600
Wire Wire Line
	5600 5600 5600 5500
Wire Wire Line
	5600 5500 5500 5500
Wire Wire Line
	5500 5400 5700 5400
Wire Wire Line
	5700 5400 5700 5700
Wire Wire Line
	5700 5700 4900 6500
Wire Wire Line
	5000 6500 5800 5700
Wire Wire Line
	5800 5700 5800 5300
Wire Wire Line
	5800 5300 5500 5300
Wire Wire Line
	5500 5200 5900 5200
Wire Wire Line
	5900 5200 5900 5800
Wire Wire Line
	5900 5800 5200 6500
Wire Wire Line
	5200 6500 5100 6500
Wire Wire Line
	5500 4900 6900 4900
Wire Wire Line
	6900 4900 7000 5000
Wire Wire Line
	7000 5000 7300 5000
Wire Wire Line
	5500 4800 6900 4800
Wire Wire Line
	6900 4800 7000 4900
Wire Wire Line
	7000 4900 7300 4900
Wire Wire Line
	5500 4700 6900 4700
Wire Wire Line
	6900 4700 7000 4800
Wire Wire Line
	7000 4800 7300 4800
Wire Wire Line
	5500 4600 6900 4600
Wire Wire Line
	6900 4600 7000 4700
Wire Wire Line
	7000 4700 7300 4700
Wire Wire Line
	5500 4500 6900 4500
Wire Wire Line
	6900 4500 7000 4600
Wire Wire Line
	7000 4600 7300 4600
Wire Wire Line
	5500 4400 6900 4400
Wire Wire Line
	6900 4400 7000 4500
Wire Wire Line
	7000 4500 7300 4500
Wire Wire Line
	5500 4200 6300 4200
Wire Wire Line
	6300 4200 6400 4300
Wire Wire Line
	6400 4300 6900 4300
Wire Wire Line
	6900 4300 7000 4400
Wire Wire Line
	7000 4400 7300 4400
Wire Wire Line
	7300 4100 7100 3900
Wire Wire Line
	7100 3900 5500 3900
Wire Wire Line
	5500 3800 7100 3800
Wire Wire Line
	7100 3800 7300 4000
Wire Wire Line
	4700 2100 5000 2100
Wire Wire Line
	4700 2600 5000 2600
Wire Wire Line
	4300 2600 3800 2600
Text Label 3800 2600 0    70   ~ 0
LEDPIN
Wire Wire Line
	4100 5300 3500 5300
Wire Wire Line
	3500 5300 3500 5700
Wire Wire Line
	3500 5700 4300 6500
Wire Wire Line
	4300 6500 4300 6800
Connection ~ 4300 6500
Text Label 4300 6500 0    70   ~ 0
LEDPIN
$Comp
L esp32-eagle-import:ESP-WROOM-32 U1
U 1 1 94FABF20
P 4800 4700
F 0 "U1" H 4300 3600 59  0000 L BNN
F 1 "ESP-WROOM-32" H 5300 3600 59  0000 R BNN
F 2 "esp32:ESP-WROOM-32" H 4800 4700 50  0001 C CNN
F 3 "" H 4800 4700 50  0001 C CNN
	1    4800 4700
	1    0    0    -1  
$EndComp
$Comp
L esp32-eagle-import:FTDI-SMD-HEADER U$1
U 1 1 89E33A62
P 9800 4400
F 0 "U$1" H 9800 4400 50  0001 C CNN
F 1 "FTDI-SMD-HEADER" H 9800 4400 50  0001 C CNN
F 2 "esp32:1X06SMD" H 9800 4400 50  0001 C CNN
F 3 "" H 9800 4400 50  0001 C CNN
	1    9800 4400
	1    0    0    -1  
$EndComp
$Comp
L esp32-eagle-import:V_REG_LM1117SOT223 U2
U 1 1 4E0AB7A9
P 9600 2600
F 0 "U2" H 9700 2300 70  0000 L BNN
F 1 "V_REG_LM1117SOT223" H 9700 2200 70  0000 L BNN
F 2 "esp32:SOT223" H 9600 2600 50  0001 C CNN
F 3 "" H 9600 2600 50  0001 C CNN
	1    9600 2600
	0    -1   -1   0   
$EndComp
$Comp
L esp32-eagle-import:SPDTSWITCH U$2
U 1 1 87B7DF34
P 9700 5400
F 0 "U$2" H 9400 5705 59  0000 L BNN
F 1 "SPDTSWITCH" H 9400 5030 59  0000 L BNN
F 2 "esp32:SPDTSWITCH" H 9700 5400 50  0001 C CNN
F 3 "" H 9700 5400 50  0001 C CNN
	1    9700 5400
	-1   0    0    1   
$EndComp
$Comp
L esp32-eagle-import:6MM_SWITCH6MM_SWITCH S1
U 1 1 788C9994
P 1800 3800
F 0 "S1" V 1550 3700 59  0000 L BNN
F 1 "6MM_SWITCH6MM_SWITCH" V 1650 3925 59  0000 L BNN
F 2 "esp32:6MM_SWITCH" H 1800 3800 50  0001 C CNN
F 3 "" H 1800 3800 50  0001 C CNN
	1    1800 3800
	1    0    0    -1  
$EndComp
$Comp
L esp32-eagle-import:RES-US1206 R1
U 1 1 5FC72806
P 2100 4300
F 0 "R1" H 1950 4359 59  0000 L BNN
F 1 "10k" H 1950 4170 59  0000 L BNN
F 2 "esp32:R1206" H 2100 4300 50  0001 C CNN
F 3 "" H 2100 4300 50  0001 C CNN
	1    2100 4300
	-1   0    0    1   
$EndComp
$Comp
L esp32-eagle-import:CAP-UNPOLARIZED C1
U 1 1 F27BBEF3
P 1800 4700
F 0 "C1" H 1650 4800 59  0000 L BNN
F 1 "0.1uf" H 1650 4550 59  0000 L BNN
F 2 "esp32:C1206" H 1800 4700 50  0001 C CNN
F 3 "" H 1800 4700 50  0001 C CNN
	1    1800 4700
	1    0    0    -1  
$EndComp
$Comp
L esp32-eagle-import:CAP-UNPOLARIZED C3
U 1 1 3C337A71
P 10000 1900
F 0 "C3" H 9850 2000 59  0000 L BNN
F 1 "10uf" H 9850 1750 59  0000 L BNN
F 2 "esp32:C1206" H 10000 1900 50  0001 C CNN
F 3 "" H 10000 1900 50  0001 C CNN
	1    10000 1900
	1    0    0    -1  
$EndComp
$Comp
L esp32-eagle-import:PINHD-1X11 JP1
U 1 1 0B60073D
P 2800 4500
F 0 "JP1" H 2550 5125 59  0000 L BNN
F 1 "PINHD-1X11" H 2550 3800 59  0000 L BNN
F 2 "esp32:1X11" H 2800 4500 50  0001 C CNN
F 3 "" H 2800 4500 50  0001 C CNN
	1    2800 4500
	-1   0    0    1   
$EndComp
$Comp
L esp32-eagle-import:PINHD-1X9 JP3
U 1 1 8182258E
P 4700 6600
F 0 "JP3" H 4450 7125 59  0000 L BNN
F 1 "PINHD-1X9" H 4450 6000 59  0000 L BNN
F 2 "esp32:1X09" H 4700 6600 50  0001 C CNN
F 3 "" H 4700 6600 50  0001 C CNN
	1    4700 6600
	0    1    1    0   
$EndComp
$Comp
L esp32-eagle-import:PINHD-1X13 JP4
U 1 1 193933AB
P 7400 4400
F 0 "JP4" H 7150 5125 59  0000 L BNN
F 1 "PINHD-1X13" H 7150 3600 59  0000 L BNN
F 2 "esp32:1X13" H 7400 4400 50  0001 C CNN
F 3 "" H 7400 4400 50  0001 C CNN
	1    7400 4400
	1    0    0    -1  
$EndComp
$Comp
L esp32-eagle-import:RES-US1206 R2
U 1 1 8EFFCFBB
P 4500 2100
F 0 "R2" H 4350 2159 59  0000 L BNN
F 1 "10k" H 4350 1970 59  0000 L BNN
F 2 "esp32:R1206" H 4500 2100 50  0001 C CNN
F 3 "" H 4500 2100 50  0001 C CNN
	1    4500 2100
	-1   0    0    1   
$EndComp
$Comp
L esp32-eagle-import:LED U$3
U 1 1 6E1B97F5
P 5200 2100
F 0 "U$3" V 5340 2020 59  0000 L BNN
F 1 "LED" V 5425 2020 59  0000 L BNN
F 2 "esp32:LED1206" H 5200 2100 50  0001 C CNN
F 3 "" H 5200 2100 50  0001 C CNN
	1    5200 2100
	0    -1   -1   0   
$EndComp
$Comp
L esp32-eagle-import:RES-US1206 R3
U 1 1 ABABC248
P 4500 2600
F 0 "R3" H 4350 2659 59  0000 L BNN
F 1 "10k" H 4350 2470 59  0000 L BNN
F 2 "esp32:R1206" H 4500 2600 50  0001 C CNN
F 3 "" H 4500 2600 50  0001 C CNN
	1    4500 2600
	-1   0    0    1   
$EndComp
$Comp
L esp32-eagle-import:LED U$4
U 1 1 649D799B
P 5200 2600
F 0 "U$4" V 5340 2520 59  0000 L BNN
F 1 "LED" V 5425 2520 59  0000 L BNN
F 2 "esp32:LED1206" H 5200 2600 50  0001 C CNN
F 3 "" H 5200 2600 50  0001 C CNN
	1    5200 2600
	0    -1   -1   0   
$EndComp
Text GLabel 4100 5200 0    10   BiDi ~ 0
GND
Text GLabel 5500 4300 0    10   BiDi ~ 0
GND
$Comp
L Interface_USB:FT230XS U3
U 1 1 5E6B9177
P 2300 1350
F 0 "U3" H 2300 2231 50  0000 C CNN
F 1 "FT230XS" H 2300 2140 50  0000 C CNN
F 2 "Package_SO:SSOP-16_3.9x4.9mm_P0.635mm" H 3300 750 50  0001 C CNN
F 3 "https://www.ftdichip.com/Support/Documents/DataSheets/ICs/DS_FT230X.pdf" H 2300 1350 50  0001 C CNN
	1    2300 1350
	1    0    0    -1  
$EndComp
$Comp
L fab:MICRO-USB_ORIG M1
U 1 1 5E6BA6D5
P 4650 1200
F 0 "M1" H 4928 1300 45  0000 L CNN
F 1 "MICRO-USB_ORIG" H 4928 1216 45  0000 L CNN
F 2 "fab-DX4R005HJ5" H 4680 1350 20  0001 C CNN
F 3 "" H 4650 1200 50  0001 C CNN
	1    4650 1200
	1    0    0    -1  
$EndComp
$Comp
L fab:RES-US1206FAB R4
U 1 1 5E6BB3CC
P 6450 450
F 0 "R4" H 6450 644 45  0000 C CNN
F 1 "49" H 6450 560 45  0000 C CNN
F 2 "fab-R1206FAB" H 6480 600 20  0001 C CNN
F 3 "" H 6450 450 50  0001 C CNN
	1    6450 450 
	1    0    0    -1  
$EndComp
$Comp
L fab:RES-US1206FAB R5
U 1 1 5E6BB6FE
P 6450 800
F 0 "R5" H 6450 994 45  0000 C CNN
F 1 "49" H 6450 910 45  0000 C CNN
F 2 "fab-R1206FAB" H 6480 950 20  0001 C CNN
F 3 "" H 6450 800 50  0001 C CNN
	1    6450 800 
	1    0    0    -1  
$EndComp
$Comp
L fab:CAP-UNPOLARIZEDFAB C4
U 1 1 5E6BBE2A
P 6500 1250
F 0 "C4" H 6450 1464 45  0000 C CNN
F 1 "10PF" H 6450 1380 45  0000 C CNN
F 2 "fab-C1206FAB" H 6530 1400 20  0001 C CNN
F 3 "" H 6500 1250 50  0001 C CNN
	1    6500 1250
	1    0    0    -1  
$EndComp
$Comp
L fab:CAP-UNPOLARIZEDFAB C5
U 1 1 5E6BC184
P 6500 1600
F 0 "C5" H 6450 1814 45  0000 C CNN
F 1 "10PF" H 6450 1730 45  0000 C CNN
F 2 "fab-C1206FAB" H 6530 1750 20  0001 C CNN
F 3 "" H 6500 1600 50  0001 C CNN
	1    6500 1600
	1    0    0    -1  
$EndComp
Text GLabel 2200 450  1    50   Input ~ 0
VCC
Text GLabel 2400 450  1    50   Input ~ 0
3V3F
Text GLabel 1450 950  0    50   Input ~ 0
3V3F
Text GLabel 3150 1050 2    50   Input ~ 0
TXD0
Text GLabel 1450 1550 0    50   Input ~ 0
3V3F
Text GLabel 1450 1350 0    50   Input ~ 0
USP
Text GLabel 1450 1250 0    50   Input ~ 0
USM
Text GLabel 2200 2150 3    50   Input ~ 0
GND
Text GLabel 2400 2150 3    50   Input ~ 0
GND
Text GLabel 3150 950  2    50   Input ~ 0
RXD0
Wire Wire Line
	2200 450  2200 650 
Wire Wire Line
	2400 450  2400 650 
Wire Wire Line
	3000 950  3150 950 
Wire Wire Line
	3150 1050 3000 1050
Wire Wire Line
	1450 950  1600 950 
Wire Wire Line
	1600 1250 1450 1250
Wire Wire Line
	1450 1350 1600 1350
Wire Wire Line
	1600 1550 1450 1550
Wire Wire Line
	2200 2050 2200 2150
Wire Wire Line
	2400 2050 2400 2150
Text GLabel 4550 850  1    50   Input ~ 0
GND
Text GLabel 4650 850  1    50   Input ~ 0
VCC
Text GLabel 4750 850  1    50   Input ~ 0
D-
Text GLabel 4850 850  1    50   Input ~ 0
D+
Wire Wire Line
	4550 850  4550 1000
Wire Wire Line
	4650 850  4650 1000
Wire Wire Line
	4750 850  4750 1000
Wire Wire Line
	4850 850  4850 1000
Text GLabel 6150 450  0    50   Input ~ 0
USM
Text GLabel 6150 800  0    50   Input ~ 0
USP
Text GLabel 6800 800  2    50   Input ~ 0
D+
Text GLabel 6800 450  2    50   Input ~ 0
D-
Text GLabel 6150 1250 0    50   Input ~ 0
GND
Text GLabel 6150 1600 0    50   Input ~ 0
GND
Text GLabel 6750 1600 2    50   Input ~ 0
D+
Text GLabel 6750 1250 2    50   Input ~ 0
D-
Wire Wire Line
	6150 450  6250 450 
Wire Wire Line
	6650 450  6800 450 
Wire Wire Line
	6800 800  6650 800 
Wire Wire Line
	6250 800  6150 800 
Wire Wire Line
	6150 1250 6300 1250
Wire Wire Line
	6600 1250 6750 1250
Wire Wire Line
	6750 1600 6600 1600
Wire Wire Line
	6150 1600 6300 1600
$Comp
L fab:CAP-UNPOLARIZEDFAB C6
U 1 1 5E742451
P 8000 600
F 0 "C6" H 7950 814 45  0000 C CNN
F 1 "1UF" H 7950 730 45  0000 C CNN
F 2 "fab-C1206FAB" H 8030 750 20  0001 C CNN
F 3 "" H 8000 600 50  0001 C CNN
	1    8000 600 
	1    0    0    -1  
$EndComp
Text GLabel 7650 600  0    50   Input ~ 0
VCC
Text GLabel 8250 600  2    50   Input ~ 0
GND
Wire Wire Line
	7650 600  7800 600 
Wire Wire Line
	8100 600  8250 600 
$Comp
L fab:CAP-UNPOLARIZEDFAB C2
U 1 1 5E777C43
P 10000 3200
F 0 "C2" H 9950 3414 45  0000 C CNN
F 1 "10UF" H 9950 3330 45  0000 C CNN
F 2 "fab-C1206FAB" H 10030 3350 20  0001 C CNN
F 3 "" H 10000 3200 50  0001 C CNN
	1    10000 3200
	1    0    0    -1  
$EndComp
$Comp
L fab:RES-US1206FAB R6
U 1 1 5E79F740
P 7950 1200
F 0 "R6" H 7950 1394 45  0000 C CNN
F 1 "0" H 7950 1310 45  0000 C CNN
F 2 "fab-R1206FAB" H 7980 1350 20  0001 C CNN
F 3 "" H 7950 1200 50  0001 C CNN
	1    7950 1200
	1    0    0    -1  
$EndComp
Text GLabel 7600 1200 0    50   Input ~ 0
RXD0
Text GLabel 8300 1200 2    50   Input ~ 0
RXD0
Wire Wire Line
	7600 1200 7750 1200
Wire Wire Line
	8150 1200 8300 1200
$Comp
L fab:RES-US1206FAB R7
U 1 1 5E7B2D1B
P 7950 1700
F 0 "R7" H 7950 1894 45  0000 C CNN
F 1 "0" H 7950 1810 45  0000 C CNN
F 2 "fab-R1206FAB" H 7980 1850 20  0001 C CNN
F 3 "" H 7950 1700 50  0001 C CNN
	1    7950 1700
	1    0    0    -1  
$EndComp
Text GLabel 7600 1700 0    50   Input ~ 0
D+
Text GLabel 8300 1700 2    50   Input ~ 0
D+
Wire Wire Line
	7600 1700 7750 1700
Wire Wire Line
	8150 1700 8300 1700
$EndSCHEMATC
