"Id";"Designator";"Package";"Quantity";"Designation";"Supplier and ref";
1;"D1";"fab-SOD123";1;"D_Schottky";;;
2;"U1";"fab-ESP32-WROOM";1;"ESP32-WROOM";;;
3;"U3";"fab-SOT223";1;"REG";;;
4;"U2";"SSOP-16_3.9x4.9mm_P0.635mm";1;"FT230XS";;;
5;"M5";"fab-1X09";1;"PINHD-1x09-HEADER";;;
6;"M3";"fab-1X13";1;"PINHD-1x13-HEADER";;;
7;"M6";"fab-1X12";1;"PINHD-1x12-HEADER";;;
8;"C1,C2";"fab-C1206FAB";2;"10pF";;;
9;"C3";"fab-C1206FAB";1;"1uF";;;
10;"M2";"fab-LED1206FAB";1;"RED";;;
11;"R1";"fab-R1206FAB";1;"10kΩ";;;
12;"R2,R3";"fab-R1206FAB";2;"49Ω";;;
13;"R4";"fab-R1206FAB";1;"220Ω";;;
14;"S1";"fab-AYZ0102AGRLC";1;"PROG";;;
15;"S2";"fab-6MM_SWITCH";1;"RST";;;
16;"J1";"USB_Micro-B_Molex-105017-0001";1;"USB_B_Micro";;;
