EESchema Schematic File Version 4
EELAYER 26 0
EELAYER END
$Descr A4 11693 8268
encoding utf-8
Sheet 1 1
Title ""
Date ""
Rev ""
Comp ""
Comment1 ""
Comment2 ""
Comment3 ""
Comment4 ""
$EndDescr
Wire Wire Line
	9800 3200 9600 3200
Wire Wire Line
	9600 3200 9600 2900
Text Label 9600 3000 0    70   ~ 0
VCC
Wire Wire Line
	9800 4100 9500 4100
Text Label 9500 4100 0    70   ~ 0
VCC
Wire Wire Line
	9800 4200 9500 4200
Text Label 9500 4200 0    70   ~ 0
RXD0
Wire Wire Line
	5500 4100 6900 4100
Wire Wire Line
	6900 4100 7100 4300
Wire Wire Line
	7100 4300 7300 4300
Wire Wire Line
	7300 4300 8100 4300
Connection ~ 7300 4300
Text Label 8100 4300 0    70   ~ 0
RXD0
Wire Wire Line
	9800 4300 9500 4300
Text Label 9500 4300 0    70   ~ 0
TXD0
Wire Wire Line
	5500 4000 7100 4000
Wire Wire Line
	7100 4000 7300 4200
Wire Wire Line
	7300 4200 8100 4200
Connection ~ 7300 4200
Text Label 8100 4200 0    70   ~ 0
TXD0
Wire Wire Line
	9900 2600 10300 2600
Wire Wire Line
	10100 1900 10300 1900
Wire Wire Line
	10300 1900 10300 2600
Wire Wire Line
	10100 3200 10300 3200
Wire Wire Line
	10300 3200 10300 2600
Text Label 10100 2600 0    70   ~ 0
GND
Connection ~ 10300 2600
Wire Wire Line
	9800 3900 9500 3900
Text Label 9500 3900 0    70   ~ 0
GND
Wire Wire Line
	1800 3600 1900 3600
Wire Wire Line
	1900 3600 1900 3400
Wire Wire Line
	1900 3400 2200 3400
Connection ~ 1900 3600
Text Label 2200 3400 0    70   ~ 0
GND
Wire Wire Line
	4100 3700 3800 3400
Wire Wire Line
	3800 3400 3600 3400
Text Label 3600 3400 0    70   ~ 0
GND
Wire Wire Line
	9700 5600 9300 5600
Text Label 9300 5600 0    70   ~ 0
GND
Wire Wire Line
	7300 3900 7100 3700
Wire Wire Line
	7100 3700 6000 3700
Wire Wire Line
	6000 3700 5500 3700
Wire Wire Line
	6000 3700 6000 3500
Connection ~ 6000 3700
Text Label 6000 3500 0    70   ~ 0
GND
Wire Wire Line
	5300 2100 5800 2100
Text Label 5700 2100 0    70   ~ 0
GND
Wire Wire Line
	5300 2600 5800 2600
Text Label 5700 2600 0    70   ~ 0
GND
Wire Wire Line
	1600 4700 1300 4700
Text Label 1300 4700 0    70   ~ 0
GND
Wire Wire Line
	9600 2300 9600 1900
Wire Wire Line
	9600 1900 9800 1900
Wire Wire Line
	9700 2300 9600 2300
Text Label 9600 2100 0    70   ~ 0
3.3
Connection ~ 9600 2300
Wire Wire Line
	2300 4300 2400 4300
Text Label 2400 4300 0    70   ~ 0
3.3
Wire Wire Line
	4100 3800 3900 3600
Wire Wire Line
	3900 3600 3600 3600
Text Label 3600 3600 0    70   ~ 0
3.3
Wire Wire Line
	7300 3800 7000 3500
Wire Wire Line
	7000 3500 6700 3500
Text Label 6700 3500 0    70   ~ 0
3.3
Wire Wire Line
	4300 2100 3800 2100
Text Label 3800 2100 0    70   ~ 0
3.3
Wire Wire Line
	1900 4700 2100 4700
Text Label 2100 4700 0    70   ~ 0
3.3
Wire Wire Line
	5500 5000 5800 5000
Text Label 5700 5000 0    70   ~ 0
PROG
Wire Wire Line
	9700 5400 9300 5400
Text Label 9300 5400 0    70   ~ 0
PROG
Wire Wire Line
	2900 4000 4100 4000
Wire Wire Line
	2900 4100 4100 4100
Wire Wire Line
	2900 4200 4100 4200
Wire Wire Line
	2900 4300 4100 4300
Wire Wire Line
	2900 4400 4100 4400
Wire Wire Line
	2900 4500 4100 4500
Wire Wire Line
	2900 4600 4100 4600
Wire Wire Line
	2900 4700 4100 4700
Wire Wire Line
	2900 4800 4100 4800
Wire Wire Line
	2900 4900 4100 4900
Wire Wire Line
	2900 5000 4100 5000
Wire Wire Line
	4100 3900 3700 3900
Wire Wire Line
	3700 3900 3600 3800
Text Label 3600 3800 0    70   ~ 0
RESET
Wire Wire Line
	1900 4300 1900 4100
Wire Wire Line
	1900 4100 1900 4000
Wire Wire Line
	1800 4000 1900 4000
Wire Wire Line
	1900 4100 1800 4200
Wire Wire Line
	1800 4200 1500 4200
Connection ~ 1900 4000
Connection ~ 1900 4100
Text Label 1500 4200 0    70   ~ 0
RESET
Wire Wire Line
	4100 5400 3700 5400
Wire Wire Line
	3700 5400 3700 5800
Wire Wire Line
	3700 5800 4400 6500
Wire Wire Line
	4100 5500 3800 5500
Wire Wire Line
	3800 5500 3800 5800
Wire Wire Line
	3800 5800 4500 6500
Wire Wire Line
	4100 5600 3900 5600
Wire Wire Line
	3900 5600 3900 5800
Wire Wire Line
	3900 5800 4600 6500
Wire Wire Line
	5500 5600 5100 6000
Wire Wire Line
	5100 6000 4700 6000
Wire Wire Line
	4700 6000 4700 6500
Wire Wire Line
	4800 6500 4800 6400
Wire Wire Line
	4800 6400 5600 5600
Wire Wire Line
	5600 5600 5600 5500
Wire Wire Line
	5600 5500 5500 5500
Wire Wire Line
	5500 5400 5700 5400
Wire Wire Line
	5700 5400 5700 5700
Wire Wire Line
	5700 5700 4900 6500
Wire Wire Line
	5000 6500 5800 5700
Wire Wire Line
	5800 5700 5800 5300
Wire Wire Line
	5800 5300 5500 5300
Wire Wire Line
	5500 5200 5900 5200
Wire Wire Line
	5900 5200 5900 5800
Wire Wire Line
	5900 5800 5200 6500
Wire Wire Line
	5200 6500 5100 6500
Wire Wire Line
	5500 4900 6900 4900
Wire Wire Line
	6900 4900 7000 5000
Wire Wire Line
	7000 5000 7300 5000
Wire Wire Line
	5500 4800 6900 4800
Wire Wire Line
	6900 4800 7000 4900
Wire Wire Line
	7000 4900 7300 4900
Wire Wire Line
	5500 4700 6900 4700
Wire Wire Line
	6900 4700 7000 4800
Wire Wire Line
	7000 4800 7300 4800
Wire Wire Line
	5500 4600 6900 4600
Wire Wire Line
	6900 4600 7000 4700
Wire Wire Line
	7000 4700 7300 4700
Wire Wire Line
	5500 4500 6900 4500
Wire Wire Line
	6900 4500 7000 4600
Wire Wire Line
	7000 4600 7300 4600
Wire Wire Line
	5500 4400 6900 4400
Wire Wire Line
	6900 4400 7000 4500
Wire Wire Line
	7000 4500 7300 4500
Wire Wire Line
	5500 4200 6300 4200
Wire Wire Line
	6300 4200 6400 4300
Wire Wire Line
	6400 4300 6900 4300
Wire Wire Line
	6900 4300 7000 4400
Wire Wire Line
	7000 4400 7300 4400
Wire Wire Line
	7300 4100 7100 3900
Wire Wire Line
	7100 3900 5500 3900
Wire Wire Line
	5500 3800 7100 3800
Wire Wire Line
	7100 3800 7300 4000
Wire Wire Line
	4700 2100 5000 2100
Wire Wire Line
	4700 2600 5000 2600
Wire Wire Line
	4300 2600 3800 2600
Text Label 3800 2600 0    70   ~ 0
LEDPIN
Wire Wire Line
	4100 5300 3500 5300
Wire Wire Line
	3500 5300 3500 5700
Wire Wire Line
	3500 5700 4300 6500
Wire Wire Line
	4300 6500 4300 6800
Connection ~ 4300 6500
Text Label 4300 6500 0    70   ~ 0
LEDPIN
$Comp
L esp32-eagle-import:ESP-WROOM-32 U1
U 1 0 94FABF20
P 4800 4700
F 0 "U1" H 4300 3600 59  0000 L BNN
F 1 "ESP-WROOM-32" H 5300 3600 59  0000 R BNN
F 2 "esp32:ESP-WROOM-32" H 4800 4700 50  0001 C CNN
F 3 "" H 4800 4700 50  0001 C CNN
	1    4800 4700
	1    0    0    -1  
$EndComp
$Comp
L esp32-eagle-import:FTDI-SMD-HEADER U$1
U 1 0 89E33A62
P 9800 4400
F 0 "U$1" H 9800 4400 50  0001 C CNN
F 1 "FTDI-SMD-HEADER" H 9800 4400 50  0001 C CNN
F 2 "esp32:1X06SMD" H 9800 4400 50  0001 C CNN
F 3 "" H 9800 4400 50  0001 C CNN
	1    9800 4400
	1    0    0    -1  
$EndComp
$Comp
L esp32-eagle-import:V_REG_LM1117SOT223 U2
U 1 0 4E0AB7A9
P 9600 2600
F 0 "U2" H 9700 2300 70  0000 L BNN
F 1 "V_REG_LM1117SOT223" H 9700 2200 70  0000 L BNN
F 2 "esp32:SOT223" H 9600 2600 50  0001 C CNN
F 3 "" H 9600 2600 50  0001 C CNN
	1    9600 2600
	0    -1   -1   0   
$EndComp
$Comp
L esp32-eagle-import:SPDTSWITCH U$2
U 1 0 87B7DF34
P 9700 5400
F 0 "U$2" H 9400 5705 59  0000 L BNN
F 1 "SPDTSWITCH" H 9400 5030 59  0000 L BNN
F 2 "esp32:SPDTSWITCH" H 9700 5400 50  0001 C CNN
F 3 "" H 9700 5400 50  0001 C CNN
	1    9700 5400
	-1   0    0    1   
$EndComp
$Comp
L esp32-eagle-import:6MM_SWITCH6MM_SWITCH S1
U 1 0 788C9994
P 1800 3800
F 0 "S1" V 1550 3700 59  0000 L BNN
F 1 "6MM_SWITCH6MM_SWITCH" V 1650 3925 59  0000 L BNN
F 2 "esp32:6MM_SWITCH" H 1800 3800 50  0001 C CNN
F 3 "" H 1800 3800 50  0001 C CNN
	1    1800 3800
	1    0    0    -1  
$EndComp
$Comp
L esp32-eagle-import:RES-US1206 R1
U 1 0 5FC72806
P 2100 4300
F 0 "R1" H 1950 4359 59  0000 L BNN
F 1 "10k" H 1950 4170 59  0000 L BNN
F 2 "esp32:R1206" H 2100 4300 50  0001 C CNN
F 3 "" H 2100 4300 50  0001 C CNN
	1    2100 4300
	-1   0    0    1   
$EndComp
$Comp
L esp32-eagle-import:CAP-UNPOLARIZED C1
U 1 0 F27BBEF3
P 1800 4700
F 0 "C1" H 1650 4800 59  0000 L BNN
F 1 "0.1uf" H 1650 4550 59  0000 L BNN
F 2 "esp32:C1206" H 1800 4700 50  0001 C CNN
F 3 "" H 1800 4700 50  0001 C CNN
	1    1800 4700
	1    0    0    -1  
$EndComp
$Comp
L esp32-eagle-import:CAP-UNPOLARIZED C2
U 1 0 7C89F369
P 10000 3200
F 0 "C2" H 9850 3300 59  0000 L BNN
F 1 "10uf" H 9850 3050 59  0000 L BNN
F 2 "esp32:C1206" H 10000 3200 50  0001 C CNN
F 3 "" H 10000 3200 50  0001 C CNN
	1    10000 3200
	1    0    0    -1  
$EndComp
$Comp
L esp32-eagle-import:CAP-UNPOLARIZED C3
U 1 0 3C337A71
P 10000 1900
F 0 "C3" H 9850 2000 59  0000 L BNN
F 1 "10uf" H 9850 1750 59  0000 L BNN
F 2 "esp32:C1206" H 10000 1900 50  0001 C CNN
F 3 "" H 10000 1900 50  0001 C CNN
	1    10000 1900
	1    0    0    -1  
$EndComp
$Comp
L esp32-eagle-import:PINHD-1X11 JP1
U 1 0 0B60073D
P 2800 4500
F 0 "JP1" H 2550 5125 59  0000 L BNN
F 1 "PINHD-1X11" H 2550 3800 59  0000 L BNN
F 2 "esp32:1X11" H 2800 4500 50  0001 C CNN
F 3 "" H 2800 4500 50  0001 C CNN
	1    2800 4500
	-1   0    0    1   
$EndComp
$Comp
L esp32-eagle-import:PINHD-1X9 JP3
U 1 0 8182258E
P 4700 6600
F 0 "JP3" H 4450 7125 59  0000 L BNN
F 1 "PINHD-1X9" H 4450 6000 59  0000 L BNN
F 2 "esp32:1X09" H 4700 6600 50  0001 C CNN
F 3 "" H 4700 6600 50  0001 C CNN
	1    4700 6600
	0    1    1    0   
$EndComp
$Comp
L esp32-eagle-import:PINHD-1X13 JP4
U 1 0 193933AB
P 7400 4400
F 0 "JP4" H 7150 5125 59  0000 L BNN
F 1 "PINHD-1X13" H 7150 3600 59  0000 L BNN
F 2 "esp32:1X13" H 7400 4400 50  0001 C CNN
F 3 "" H 7400 4400 50  0001 C CNN
	1    7400 4400
	1    0    0    -1  
$EndComp
$Comp
L esp32-eagle-import:RES-US1206 R2
U 1 0 8EFFCFBB
P 4500 2100
F 0 "R2" H 4350 2159 59  0000 L BNN
F 1 "10k" H 4350 1970 59  0000 L BNN
F 2 "esp32:R1206" H 4500 2100 50  0001 C CNN
F 3 "" H 4500 2100 50  0001 C CNN
	1    4500 2100
	-1   0    0    1   
$EndComp
$Comp
L esp32-eagle-import:LED U$3
U 1 0 6E1B97F5
P 5200 2100
F 0 "U$3" V 5340 2020 59  0000 L BNN
F 1 "LED" V 5425 2020 59  0000 L BNN
F 2 "esp32:LED1206" H 5200 2100 50  0001 C CNN
F 3 "" H 5200 2100 50  0001 C CNN
	1    5200 2100
	0    -1   -1   0   
$EndComp
$Comp
L esp32-eagle-import:RES-US1206 R3
U 1 0 ABABC248
P 4500 2600
F 0 "R3" H 4350 2659 59  0000 L BNN
F 1 "10k" H 4350 2470 59  0000 L BNN
F 2 "esp32:R1206" H 4500 2600 50  0001 C CNN
F 3 "" H 4500 2600 50  0001 C CNN
	1    4500 2600
	-1   0    0    1   
$EndComp
$Comp
L esp32-eagle-import:LED U$4
U 1 0 649D799B
P 5200 2600
F 0 "U$4" V 5340 2520 59  0000 L BNN
F 1 "LED" V 5425 2520 59  0000 L BNN
F 2 "esp32:LED1206" H 5200 2600 50  0001 C CNN
F 3 "" H 5200 2600 50  0001 C CNN
	1    5200 2600
	0    -1   -1   0   
$EndComp
Text GLabel 4100 5200 0    10   BiDi ~ 0
GND
Text GLabel 5500 4300 0    10   BiDi ~ 0
GND
$EndSCHEMATC
