G04 #@! TF.GenerationSoftware,KiCad,Pcbnew,(5.1.5-0-10_14)*
G04 #@! TF.CreationDate,2020-09-21T09:42:30+02:00*
G04 #@! TF.ProjectId,BarDuino2.2.micro,42617244-7569-46e6-9f32-2e322e6d6963,rev?*
G04 #@! TF.SameCoordinates,Original*
G04 #@! TF.FileFunction,Legend,Top*
G04 #@! TF.FilePolarity,Positive*
%FSLAX46Y46*%
G04 Gerber Fmt 4.6, Leading zero omitted, Abs format (unit mm)*
G04 Created by KiCad (PCBNEW (5.1.5-0-10_14)) date 2020-09-21 09:42:30*
%MOMM*%
%LPD*%
G04 APERTURE LIST*
%ADD10C,0.120000*%
%ADD11C,0.300000*%
%ADD12C,0.150000*%
%ADD13C,0.100000*%
%ADD14C,0.203200*%
%ADD15C,0.101600*%
%ADD16C,0.050800*%
%ADD17C,0.066040*%
%ADD18C,0.500000*%
%ADD19C,0.152400*%
%ADD20C,0.127000*%
%ADD21C,0.076200*%
%ADD22C,0.025400*%
%ADD23C,0.120650*%
%ADD24C,0.200000*%
G04 APERTURE END LIST*
D10*
X151376586Y-85710000D02*
G75*
G03X151376586Y-85710000I-276586J0D01*
G01*
D11*
X146497142Y-81481428D02*
X146497142Y-80338571D01*
X141228571Y-78827142D02*
X142371428Y-78827142D01*
D12*
X152879047Y-111137619D02*
X153640952Y-111137619D01*
D13*
X152300476Y-85060000D02*
X152224285Y-85021904D01*
X152110000Y-85021904D01*
X151995714Y-85060000D01*
X151919523Y-85136190D01*
X151881428Y-85212380D01*
X151843333Y-85364761D01*
X151843333Y-85479047D01*
X151881428Y-85631428D01*
X151919523Y-85707619D01*
X151995714Y-85783809D01*
X152110000Y-85821904D01*
X152186190Y-85821904D01*
X152300476Y-85783809D01*
X152338571Y-85745714D01*
X152338571Y-85479047D01*
X152186190Y-85479047D01*
X152681428Y-85821904D02*
X152681428Y-85021904D01*
X153138571Y-85821904D01*
X153138571Y-85021904D01*
X153519523Y-85821904D02*
X153519523Y-85021904D01*
X153710000Y-85021904D01*
X153824285Y-85060000D01*
X153900476Y-85136190D01*
X153938571Y-85212380D01*
X153976666Y-85364761D01*
X153976666Y-85479047D01*
X153938571Y-85631428D01*
X153900476Y-85707619D01*
X153824285Y-85783809D01*
X153710000Y-85821904D01*
X153519523Y-85821904D01*
X152977619Y-82441904D02*
X152596666Y-82441904D01*
X152558571Y-82822857D01*
X152596666Y-82784761D01*
X152672857Y-82746666D01*
X152863333Y-82746666D01*
X152939523Y-82784761D01*
X152977619Y-82822857D01*
X153015714Y-82899047D01*
X153015714Y-83089523D01*
X152977619Y-83165714D01*
X152939523Y-83203809D01*
X152863333Y-83241904D01*
X152672857Y-83241904D01*
X152596666Y-83203809D01*
X152558571Y-83165714D01*
X153244285Y-82441904D02*
X153510952Y-83241904D01*
X153777619Y-82441904D01*
X151384761Y-88152857D02*
X151118095Y-88152857D01*
X151118095Y-88571904D02*
X151118095Y-87771904D01*
X151499047Y-87771904D01*
X151689523Y-87771904D02*
X152146666Y-87771904D01*
X151918095Y-88571904D02*
X151918095Y-87771904D01*
X152375238Y-87848095D02*
X152413333Y-87810000D01*
X152489523Y-87771904D01*
X152680000Y-87771904D01*
X152756190Y-87810000D01*
X152794285Y-87848095D01*
X152832380Y-87924285D01*
X152832380Y-88000476D01*
X152794285Y-88114761D01*
X152337142Y-88571904D01*
X152832380Y-88571904D01*
X153099047Y-87771904D02*
X153594285Y-87771904D01*
X153327619Y-88076666D01*
X153441904Y-88076666D01*
X153518095Y-88114761D01*
X153556190Y-88152857D01*
X153594285Y-88229047D01*
X153594285Y-88419523D01*
X153556190Y-88495714D01*
X153518095Y-88533809D01*
X153441904Y-88571904D01*
X153213333Y-88571904D01*
X153137142Y-88533809D01*
X153099047Y-88495714D01*
X154089523Y-87771904D02*
X154165714Y-87771904D01*
X154241904Y-87810000D01*
X154280000Y-87848095D01*
X154318095Y-87924285D01*
X154356190Y-88076666D01*
X154356190Y-88267142D01*
X154318095Y-88419523D01*
X154280000Y-88495714D01*
X154241904Y-88533809D01*
X154165714Y-88571904D01*
X154089523Y-88571904D01*
X154013333Y-88533809D01*
X153975238Y-88495714D01*
X153937142Y-88419523D01*
X153899047Y-88267142D01*
X153899047Y-88076666D01*
X153937142Y-87924285D01*
X153975238Y-87848095D01*
X154013333Y-87810000D01*
X154089523Y-87771904D01*
X154622857Y-87771904D02*
X155156190Y-88571904D01*
X155156190Y-87771904D02*
X154622857Y-88571904D01*
X155422857Y-88533809D02*
X155537142Y-88571904D01*
X155727619Y-88571904D01*
X155803809Y-88533809D01*
X155841904Y-88495714D01*
X155880000Y-88419523D01*
X155880000Y-88343333D01*
X155841904Y-88267142D01*
X155803809Y-88229047D01*
X155727619Y-88190952D01*
X155575238Y-88152857D01*
X155499047Y-88114761D01*
X155460952Y-88076666D01*
X155422857Y-88000476D01*
X155422857Y-87924285D01*
X155460952Y-87848095D01*
X155499047Y-87810000D01*
X155575238Y-87771904D01*
X155765714Y-87771904D01*
X155880000Y-87810000D01*
D12*
X136983333Y-125954098D02*
X136983333Y-126620764D01*
X136745238Y-125573145D02*
X136507142Y-126287431D01*
X137126190Y-126287431D01*
X137697619Y-125620764D02*
X137792857Y-125620764D01*
X137888095Y-125668384D01*
X137935714Y-125716003D01*
X137983333Y-125811241D01*
X138030952Y-126001717D01*
X138030952Y-126239812D01*
X137983333Y-126430288D01*
X137935714Y-126525526D01*
X137888095Y-126573145D01*
X137792857Y-126620764D01*
X137697619Y-126620764D01*
X137602380Y-126573145D01*
X137554761Y-126525526D01*
X137507142Y-126430288D01*
X137459523Y-126239812D01*
X137459523Y-126001717D01*
X137507142Y-125811241D01*
X137554761Y-125716003D01*
X137602380Y-125668384D01*
X137697619Y-125620764D01*
X138459523Y-126525526D02*
X138507142Y-126573145D01*
X138459523Y-126620764D01*
X138411904Y-126573145D01*
X138459523Y-126525526D01*
X138459523Y-126620764D01*
X139459523Y-126620764D02*
X138888095Y-126620764D01*
X139173809Y-126620764D02*
X139173809Y-125620764D01*
X139078571Y-125763622D01*
X138983333Y-125858860D01*
X138888095Y-125906479D01*
X140078571Y-125620764D02*
X140173809Y-125620764D01*
X140269047Y-125668384D01*
X140316666Y-125716003D01*
X140364285Y-125811241D01*
X140411904Y-126001717D01*
X140411904Y-126239812D01*
X140364285Y-126430288D01*
X140316666Y-126525526D01*
X140269047Y-126573145D01*
X140173809Y-126620764D01*
X140078571Y-126620764D01*
X139983333Y-126573145D01*
X139935714Y-126525526D01*
X139888095Y-126430288D01*
X139840476Y-126239812D01*
X139840476Y-126001717D01*
X139888095Y-125811241D01*
X139935714Y-125716003D01*
X139983333Y-125668384D01*
X140078571Y-125620764D01*
X141030952Y-125620764D02*
X141126190Y-125620764D01*
X141221428Y-125668384D01*
X141269047Y-125716003D01*
X141316666Y-125811241D01*
X141364285Y-126001717D01*
X141364285Y-126239812D01*
X141316666Y-126430288D01*
X141269047Y-126525526D01*
X141221428Y-126573145D01*
X141126190Y-126620764D01*
X141030952Y-126620764D01*
X140935714Y-126573145D01*
X140888095Y-126525526D01*
X140840476Y-126430288D01*
X140792857Y-126239812D01*
X140792857Y-126001717D01*
X140840476Y-125811241D01*
X140888095Y-125716003D01*
X140935714Y-125668384D01*
X141030952Y-125620764D01*
X142554761Y-126620764D02*
X142554761Y-125954098D01*
X142554761Y-126049336D02*
X142602380Y-126001717D01*
X142697619Y-125954098D01*
X142840476Y-125954098D01*
X142935714Y-126001717D01*
X142983333Y-126096955D01*
X142983333Y-126620764D01*
X142983333Y-126096955D02*
X143030952Y-126001717D01*
X143126190Y-125954098D01*
X143269047Y-125954098D01*
X143364285Y-126001717D01*
X143411904Y-126096955D01*
X143411904Y-126620764D01*
X143888095Y-126620764D02*
X143888095Y-125954098D01*
X143888095Y-126049336D02*
X143935714Y-126001717D01*
X144030952Y-125954098D01*
X144173809Y-125954098D01*
X144269047Y-126001717D01*
X144316666Y-126096955D01*
X144316666Y-126620764D01*
X144316666Y-126096955D02*
X144364285Y-126001717D01*
X144459523Y-125954098D01*
X144602380Y-125954098D01*
X144697619Y-126001717D01*
X144745238Y-126096955D01*
X144745238Y-126620764D01*
D10*
X160700000Y-124898384D02*
X120600000Y-124898384D01*
X160700000Y-119400000D02*
X160700000Y-125484805D01*
X120600000Y-119400000D02*
X120600000Y-125484805D01*
X120600000Y-124898384D02*
X121726504Y-124311963D01*
X120600000Y-124898384D02*
X121726504Y-125484805D01*
X160700000Y-124898384D02*
X159573496Y-124311963D01*
X160700000Y-124898384D02*
X159573496Y-125484805D01*
D12*
X172714429Y-87880952D02*
X172714429Y-87404761D01*
X172238238Y-87357142D01*
X172285857Y-87404761D01*
X172333476Y-87500000D01*
X172333476Y-87738095D01*
X172285857Y-87833333D01*
X172238238Y-87880952D01*
X172143000Y-87928571D01*
X171904905Y-87928571D01*
X171809667Y-87880952D01*
X171762048Y-87833333D01*
X171714429Y-87738095D01*
X171714429Y-87500000D01*
X171762048Y-87404761D01*
X171809667Y-87357142D01*
X172714429Y-88547619D02*
X172714429Y-88642857D01*
X172666810Y-88738095D01*
X172619190Y-88785714D01*
X172523952Y-88833333D01*
X172333476Y-88880952D01*
X172095381Y-88880952D01*
X171904905Y-88833333D01*
X171809667Y-88785714D01*
X171762048Y-88738095D01*
X171714429Y-88642857D01*
X171714429Y-88547619D01*
X171762048Y-88452380D01*
X171809667Y-88404761D01*
X171904905Y-88357142D01*
X172095381Y-88309523D01*
X172333476Y-88309523D01*
X172523952Y-88357142D01*
X172619190Y-88404761D01*
X172666810Y-88452380D01*
X172714429Y-88547619D01*
X171809667Y-89309523D02*
X171762048Y-89357142D01*
X171714429Y-89309523D01*
X171762048Y-89261904D01*
X171809667Y-89309523D01*
X171714429Y-89309523D01*
X172714429Y-89976190D02*
X172714429Y-90071428D01*
X172666810Y-90166666D01*
X172619190Y-90214285D01*
X172523952Y-90261904D01*
X172333476Y-90309523D01*
X172095381Y-90309523D01*
X171904905Y-90261904D01*
X171809667Y-90214285D01*
X171762048Y-90166666D01*
X171714429Y-90071428D01*
X171714429Y-89976190D01*
X171762048Y-89880952D01*
X171809667Y-89833333D01*
X171904905Y-89785714D01*
X172095381Y-89738095D01*
X172333476Y-89738095D01*
X172523952Y-89785714D01*
X172619190Y-89833333D01*
X172666810Y-89880952D01*
X172714429Y-89976190D01*
X172714429Y-90928571D02*
X172714429Y-91023809D01*
X172666810Y-91119047D01*
X172619190Y-91166666D01*
X172523952Y-91214285D01*
X172333476Y-91261904D01*
X172095381Y-91261904D01*
X171904905Y-91214285D01*
X171809667Y-91166666D01*
X171762048Y-91119047D01*
X171714429Y-91023809D01*
X171714429Y-90928571D01*
X171762048Y-90833333D01*
X171809667Y-90785714D01*
X171904905Y-90738095D01*
X172095381Y-90690476D01*
X172333476Y-90690476D01*
X172523952Y-90738095D01*
X172619190Y-90785714D01*
X172666810Y-90833333D01*
X172714429Y-90928571D01*
X172714429Y-91880952D02*
X172714429Y-91976190D01*
X172666810Y-92071428D01*
X172619190Y-92119047D01*
X172523952Y-92166666D01*
X172333476Y-92214285D01*
X172095381Y-92214285D01*
X171904905Y-92166666D01*
X171809667Y-92119047D01*
X171762048Y-92071428D01*
X171714429Y-91976190D01*
X171714429Y-91880952D01*
X171762048Y-91785714D01*
X171809667Y-91738095D01*
X171904905Y-91690476D01*
X172095381Y-91642857D01*
X172333476Y-91642857D01*
X172523952Y-91690476D01*
X172619190Y-91738095D01*
X172666810Y-91785714D01*
X172714429Y-91880952D01*
X171714429Y-93404761D02*
X172381095Y-93404761D01*
X172285857Y-93404761D02*
X172333476Y-93452380D01*
X172381095Y-93547619D01*
X172381095Y-93690476D01*
X172333476Y-93785714D01*
X172238238Y-93833333D01*
X171714429Y-93833333D01*
X172238238Y-93833333D02*
X172333476Y-93880952D01*
X172381095Y-93976190D01*
X172381095Y-94119047D01*
X172333476Y-94214285D01*
X172238238Y-94261904D01*
X171714429Y-94261904D01*
X171714429Y-94738095D02*
X172381095Y-94738095D01*
X172285857Y-94738095D02*
X172333476Y-94785714D01*
X172381095Y-94880952D01*
X172381095Y-95023809D01*
X172333476Y-95119047D01*
X172238238Y-95166666D01*
X171714429Y-95166666D01*
X172238238Y-95166666D02*
X172333476Y-95214285D01*
X172381095Y-95309523D01*
X172381095Y-95452380D01*
X172333476Y-95547619D01*
X172238238Y-95595238D01*
X171714429Y-95595238D01*
D10*
X170896810Y-66500000D02*
X170896810Y-116500000D01*
X160700000Y-66500000D02*
X171483231Y-66500000D01*
X160700000Y-116500000D02*
X171483231Y-116500000D01*
X170896810Y-116500000D02*
X170310389Y-115373496D01*
X170896810Y-116500000D02*
X171483231Y-115373496D01*
X170896810Y-66500000D02*
X170310389Y-67626504D01*
X170896810Y-66500000D02*
X171483231Y-67626504D01*
D14*
X153451780Y-78450000D02*
X153451780Y-78947840D01*
X153451780Y-77952160D02*
X153451780Y-78450000D01*
X154450000Y-78947840D02*
X153451780Y-78450000D01*
X154450000Y-77952160D02*
X154450000Y-78947840D01*
X153451780Y-78450000D02*
X154450000Y-77952160D01*
D15*
X155770800Y-79234860D02*
X155770800Y-77665140D01*
X153129200Y-79234860D02*
X153129200Y-77665140D01*
X153129200Y-79234860D02*
X155770800Y-79234860D01*
X153129200Y-77665140D02*
X155770800Y-77665140D01*
D16*
X157421800Y-77467020D02*
X157421800Y-79432980D01*
X151478200Y-79432980D02*
X151478200Y-77467020D01*
X157421800Y-79432980D02*
X151478200Y-79432980D01*
X151478200Y-77467020D02*
X157421800Y-77467020D01*
D17*
X154051220Y-79148500D02*
X154051220Y-77751500D01*
X154051220Y-77751500D02*
X154848780Y-77751500D01*
X154848780Y-79148500D02*
X154848780Y-77751500D01*
X154051220Y-79148500D02*
X154848780Y-79148500D01*
X155821600Y-78754800D02*
X155821600Y-78145200D01*
X155821600Y-78145200D02*
X156405800Y-78145200D01*
X156405800Y-78754800D02*
X156405800Y-78145200D01*
X155821600Y-78754800D02*
X156405800Y-78754800D01*
X152494200Y-78754800D02*
X152494200Y-78145200D01*
X152494200Y-78145200D02*
X153078400Y-78145200D01*
X153078400Y-78754800D02*
X153078400Y-78145200D01*
X152494200Y-78754800D02*
X153078400Y-78754800D01*
D12*
X149500000Y-82550000D02*
X131500000Y-82550000D01*
X149500000Y-108050000D02*
X131500000Y-108050000D01*
X149500000Y-82550000D02*
X149500000Y-108050000D01*
X131500000Y-82550000D02*
X131500000Y-108050000D01*
X149500000Y-88550000D02*
X131500000Y-88550000D01*
D18*
X130877981Y-88696000D02*
G75*
G03X130877981Y-88696000I-283981J0D01*
G01*
D14*
X124649000Y-75723400D02*
X127951000Y-75723400D01*
X127951000Y-75723400D02*
X127951000Y-82276600D01*
X127951000Y-82276600D02*
X124649000Y-82276600D01*
X124649000Y-82276600D02*
X124649000Y-75723400D01*
D12*
X156075000Y-86100000D02*
X156075000Y-82100000D01*
X150675000Y-87375000D02*
X150675000Y-82100000D01*
D19*
X132055000Y-115970000D02*
X130785000Y-115970000D01*
X130785000Y-115970000D02*
X130150000Y-115335000D01*
X130150000Y-115335000D02*
X130150000Y-114065000D01*
X130150000Y-114065000D02*
X130785000Y-113430000D01*
X130150000Y-115335000D02*
X129515000Y-115970000D01*
X129515000Y-115970000D02*
X128245000Y-115970000D01*
X128245000Y-115970000D02*
X127610000Y-115335000D01*
X127610000Y-115335000D02*
X127610000Y-114065000D01*
X127610000Y-114065000D02*
X128245000Y-113430000D01*
X128245000Y-113430000D02*
X129515000Y-113430000D01*
X129515000Y-113430000D02*
X130150000Y-114065000D01*
X135230000Y-115335000D02*
X134595000Y-115970000D01*
X134595000Y-115970000D02*
X133325000Y-115970000D01*
X133325000Y-115970000D02*
X132690000Y-115335000D01*
X132690000Y-115335000D02*
X132690000Y-114065000D01*
X132690000Y-114065000D02*
X133325000Y-113430000D01*
X133325000Y-113430000D02*
X134595000Y-113430000D01*
X134595000Y-113430000D02*
X135230000Y-114065000D01*
X132055000Y-115970000D02*
X132690000Y-115335000D01*
X132690000Y-114065000D02*
X132055000Y-113430000D01*
X130785000Y-113430000D02*
X132055000Y-113430000D01*
X139675000Y-115970000D02*
X138405000Y-115970000D01*
X138405000Y-115970000D02*
X137770000Y-115335000D01*
X137770000Y-115335000D02*
X137770000Y-114065000D01*
X137770000Y-114065000D02*
X138405000Y-113430000D01*
X137770000Y-115335000D02*
X137135000Y-115970000D01*
X137135000Y-115970000D02*
X135865000Y-115970000D01*
X135865000Y-115970000D02*
X135230000Y-115335000D01*
X135230000Y-115335000D02*
X135230000Y-114065000D01*
X135230000Y-114065000D02*
X135865000Y-113430000D01*
X135865000Y-113430000D02*
X137135000Y-113430000D01*
X137135000Y-113430000D02*
X137770000Y-114065000D01*
X142850000Y-115335000D02*
X142215000Y-115970000D01*
X142215000Y-115970000D02*
X140945000Y-115970000D01*
X140945000Y-115970000D02*
X140310000Y-115335000D01*
X140310000Y-115335000D02*
X140310000Y-114065000D01*
X140310000Y-114065000D02*
X140945000Y-113430000D01*
X140945000Y-113430000D02*
X142215000Y-113430000D01*
X142215000Y-113430000D02*
X142850000Y-114065000D01*
X139675000Y-115970000D02*
X140310000Y-115335000D01*
X140310000Y-114065000D02*
X139675000Y-113430000D01*
X138405000Y-113430000D02*
X139675000Y-113430000D01*
X147295000Y-115970000D02*
X146025000Y-115970000D01*
X146025000Y-115970000D02*
X145390000Y-115335000D01*
X145390000Y-115335000D02*
X145390000Y-114065000D01*
X145390000Y-114065000D02*
X146025000Y-113430000D01*
X145390000Y-115335000D02*
X144755000Y-115970000D01*
X144755000Y-115970000D02*
X143485000Y-115970000D01*
X143485000Y-115970000D02*
X142850000Y-115335000D01*
X142850000Y-115335000D02*
X142850000Y-114065000D01*
X142850000Y-114065000D02*
X143485000Y-113430000D01*
X143485000Y-113430000D02*
X144755000Y-113430000D01*
X144755000Y-113430000D02*
X145390000Y-114065000D01*
X147930000Y-115335000D02*
X147930000Y-114065000D01*
X147295000Y-115970000D02*
X147930000Y-115335000D01*
X147930000Y-114065000D02*
X147295000Y-113430000D01*
X146025000Y-113430000D02*
X147295000Y-113430000D01*
X126975000Y-115970000D02*
X125705000Y-115970000D01*
X125705000Y-115970000D02*
X125070000Y-115335000D01*
X125070000Y-115335000D02*
X125070000Y-114065000D01*
X125070000Y-114065000D02*
X125705000Y-113430000D01*
X126975000Y-115970000D02*
X127610000Y-115335000D01*
X127610000Y-114065000D02*
X126975000Y-113430000D01*
X125705000Y-113430000D02*
X126975000Y-113430000D01*
X122065000Y-88050000D02*
X121430000Y-87415000D01*
X121430000Y-87415000D02*
X121430000Y-86145000D01*
X121430000Y-86145000D02*
X122065000Y-85510000D01*
X122065000Y-85510000D02*
X123335000Y-85510000D01*
X123335000Y-85510000D02*
X123970000Y-86145000D01*
X123970000Y-86145000D02*
X123970000Y-87415000D01*
X123970000Y-87415000D02*
X123335000Y-88050000D01*
X121430000Y-92495000D02*
X121430000Y-91225000D01*
X121430000Y-91225000D02*
X122065000Y-90590000D01*
X122065000Y-90590000D02*
X123335000Y-90590000D01*
X123335000Y-90590000D02*
X123970000Y-91225000D01*
X122065000Y-90590000D02*
X121430000Y-89955000D01*
X121430000Y-89955000D02*
X121430000Y-88685000D01*
X121430000Y-88685000D02*
X122065000Y-88050000D01*
X122065000Y-88050000D02*
X123335000Y-88050000D01*
X123335000Y-88050000D02*
X123970000Y-88685000D01*
X123970000Y-88685000D02*
X123970000Y-89955000D01*
X123970000Y-89955000D02*
X123335000Y-90590000D01*
X122065000Y-95670000D02*
X121430000Y-95035000D01*
X121430000Y-95035000D02*
X121430000Y-93765000D01*
X121430000Y-93765000D02*
X122065000Y-93130000D01*
X122065000Y-93130000D02*
X123335000Y-93130000D01*
X123335000Y-93130000D02*
X123970000Y-93765000D01*
X123970000Y-93765000D02*
X123970000Y-95035000D01*
X123970000Y-95035000D02*
X123335000Y-95670000D01*
X121430000Y-92495000D02*
X122065000Y-93130000D01*
X123335000Y-93130000D02*
X123970000Y-92495000D01*
X123970000Y-91225000D02*
X123970000Y-92495000D01*
X121430000Y-100115000D02*
X121430000Y-98845000D01*
X121430000Y-98845000D02*
X122065000Y-98210000D01*
X122065000Y-98210000D02*
X123335000Y-98210000D01*
X123335000Y-98210000D02*
X123970000Y-98845000D01*
X122065000Y-98210000D02*
X121430000Y-97575000D01*
X121430000Y-97575000D02*
X121430000Y-96305000D01*
X121430000Y-96305000D02*
X122065000Y-95670000D01*
X122065000Y-95670000D02*
X123335000Y-95670000D01*
X123335000Y-95670000D02*
X123970000Y-96305000D01*
X123970000Y-96305000D02*
X123970000Y-97575000D01*
X123970000Y-97575000D02*
X123335000Y-98210000D01*
X122065000Y-103290000D02*
X121430000Y-102655000D01*
X121430000Y-102655000D02*
X121430000Y-101385000D01*
X121430000Y-101385000D02*
X122065000Y-100750000D01*
X122065000Y-100750000D02*
X123335000Y-100750000D01*
X123335000Y-100750000D02*
X123970000Y-101385000D01*
X123970000Y-101385000D02*
X123970000Y-102655000D01*
X123970000Y-102655000D02*
X123335000Y-103290000D01*
X121430000Y-100115000D02*
X122065000Y-100750000D01*
X123335000Y-100750000D02*
X123970000Y-100115000D01*
X123970000Y-98845000D02*
X123970000Y-100115000D01*
X121430000Y-107735000D02*
X121430000Y-106465000D01*
X121430000Y-106465000D02*
X122065000Y-105830000D01*
X122065000Y-105830000D02*
X123335000Y-105830000D01*
X123335000Y-105830000D02*
X123970000Y-106465000D01*
X122065000Y-105830000D02*
X121430000Y-105195000D01*
X121430000Y-105195000D02*
X121430000Y-103925000D01*
X121430000Y-103925000D02*
X122065000Y-103290000D01*
X122065000Y-103290000D02*
X123335000Y-103290000D01*
X123335000Y-103290000D02*
X123970000Y-103925000D01*
X123970000Y-103925000D02*
X123970000Y-105195000D01*
X123970000Y-105195000D02*
X123335000Y-105830000D01*
X122065000Y-110910000D02*
X121430000Y-110275000D01*
X121430000Y-110275000D02*
X121430000Y-109005000D01*
X121430000Y-109005000D02*
X122065000Y-108370000D01*
X122065000Y-108370000D02*
X123335000Y-108370000D01*
X123335000Y-108370000D02*
X123970000Y-109005000D01*
X123970000Y-109005000D02*
X123970000Y-110275000D01*
X123970000Y-110275000D02*
X123335000Y-110910000D01*
X121430000Y-107735000D02*
X122065000Y-108370000D01*
X123335000Y-108370000D02*
X123970000Y-107735000D01*
X123970000Y-106465000D02*
X123970000Y-107735000D01*
X121430000Y-115355000D02*
X121430000Y-114085000D01*
X121430000Y-114085000D02*
X122065000Y-113450000D01*
X122065000Y-113450000D02*
X123335000Y-113450000D01*
X123335000Y-113450000D02*
X123970000Y-114085000D01*
X122065000Y-113450000D02*
X121430000Y-112815000D01*
X121430000Y-112815000D02*
X121430000Y-111545000D01*
X121430000Y-111545000D02*
X122065000Y-110910000D01*
X122065000Y-110910000D02*
X123335000Y-110910000D01*
X123335000Y-110910000D02*
X123970000Y-111545000D01*
X123970000Y-111545000D02*
X123970000Y-112815000D01*
X123970000Y-112815000D02*
X123335000Y-113450000D01*
X122065000Y-115990000D02*
X123335000Y-115990000D01*
X121430000Y-115355000D02*
X122065000Y-115990000D01*
X123335000Y-115990000D02*
X123970000Y-115355000D01*
X123970000Y-114085000D02*
X123970000Y-115355000D01*
X122065000Y-85510000D02*
X121430000Y-84875000D01*
X121430000Y-84875000D02*
X121430000Y-83605000D01*
X121430000Y-83605000D02*
X122065000Y-82970000D01*
X122065000Y-82970000D02*
X123335000Y-82970000D01*
X123335000Y-82970000D02*
X123970000Y-83605000D01*
X123970000Y-83605000D02*
X123970000Y-84875000D01*
X123970000Y-84875000D02*
X123335000Y-85510000D01*
X159135000Y-113430000D02*
X159770000Y-114065000D01*
X159770000Y-114065000D02*
X159770000Y-115335000D01*
X159770000Y-115335000D02*
X159135000Y-115970000D01*
X159135000Y-115970000D02*
X157865000Y-115970000D01*
X157865000Y-115970000D02*
X157230000Y-115335000D01*
X157230000Y-115335000D02*
X157230000Y-114065000D01*
X157230000Y-114065000D02*
X157865000Y-113430000D01*
X159770000Y-108985000D02*
X159770000Y-110255000D01*
X159770000Y-110255000D02*
X159135000Y-110890000D01*
X159135000Y-110890000D02*
X157865000Y-110890000D01*
X157865000Y-110890000D02*
X157230000Y-110255000D01*
X159135000Y-110890000D02*
X159770000Y-111525000D01*
X159770000Y-111525000D02*
X159770000Y-112795000D01*
X159770000Y-112795000D02*
X159135000Y-113430000D01*
X159135000Y-113430000D02*
X157865000Y-113430000D01*
X157865000Y-113430000D02*
X157230000Y-112795000D01*
X157230000Y-112795000D02*
X157230000Y-111525000D01*
X157230000Y-111525000D02*
X157865000Y-110890000D01*
X159135000Y-105810000D02*
X159770000Y-106445000D01*
X159770000Y-106445000D02*
X159770000Y-107715000D01*
X159770000Y-107715000D02*
X159135000Y-108350000D01*
X159135000Y-108350000D02*
X157865000Y-108350000D01*
X157865000Y-108350000D02*
X157230000Y-107715000D01*
X157230000Y-107715000D02*
X157230000Y-106445000D01*
X157230000Y-106445000D02*
X157865000Y-105810000D01*
X159770000Y-108985000D02*
X159135000Y-108350000D01*
X157865000Y-108350000D02*
X157230000Y-108985000D01*
X157230000Y-110255000D02*
X157230000Y-108985000D01*
X159770000Y-101365000D02*
X159770000Y-102635000D01*
X159770000Y-102635000D02*
X159135000Y-103270000D01*
X159135000Y-103270000D02*
X157865000Y-103270000D01*
X157865000Y-103270000D02*
X157230000Y-102635000D01*
X159135000Y-103270000D02*
X159770000Y-103905000D01*
X159770000Y-103905000D02*
X159770000Y-105175000D01*
X159770000Y-105175000D02*
X159135000Y-105810000D01*
X159135000Y-105810000D02*
X157865000Y-105810000D01*
X157865000Y-105810000D02*
X157230000Y-105175000D01*
X157230000Y-105175000D02*
X157230000Y-103905000D01*
X157230000Y-103905000D02*
X157865000Y-103270000D01*
X159135000Y-98190000D02*
X159770000Y-98825000D01*
X159770000Y-98825000D02*
X159770000Y-100095000D01*
X159770000Y-100095000D02*
X159135000Y-100730000D01*
X159135000Y-100730000D02*
X157865000Y-100730000D01*
X157865000Y-100730000D02*
X157230000Y-100095000D01*
X157230000Y-100095000D02*
X157230000Y-98825000D01*
X157230000Y-98825000D02*
X157865000Y-98190000D01*
X159770000Y-101365000D02*
X159135000Y-100730000D01*
X157865000Y-100730000D02*
X157230000Y-101365000D01*
X157230000Y-102635000D02*
X157230000Y-101365000D01*
X159770000Y-93745000D02*
X159770000Y-95015000D01*
X159770000Y-95015000D02*
X159135000Y-95650000D01*
X159135000Y-95650000D02*
X157865000Y-95650000D01*
X157865000Y-95650000D02*
X157230000Y-95015000D01*
X159135000Y-95650000D02*
X159770000Y-96285000D01*
X159770000Y-96285000D02*
X159770000Y-97555000D01*
X159770000Y-97555000D02*
X159135000Y-98190000D01*
X159135000Y-98190000D02*
X157865000Y-98190000D01*
X157865000Y-98190000D02*
X157230000Y-97555000D01*
X157230000Y-97555000D02*
X157230000Y-96285000D01*
X157230000Y-96285000D02*
X157865000Y-95650000D01*
X159135000Y-90570000D02*
X159770000Y-91205000D01*
X159770000Y-91205000D02*
X159770000Y-92475000D01*
X159770000Y-92475000D02*
X159135000Y-93110000D01*
X159135000Y-93110000D02*
X157865000Y-93110000D01*
X157865000Y-93110000D02*
X157230000Y-92475000D01*
X157230000Y-92475000D02*
X157230000Y-91205000D01*
X157230000Y-91205000D02*
X157865000Y-90570000D01*
X159770000Y-93745000D02*
X159135000Y-93110000D01*
X157865000Y-93110000D02*
X157230000Y-93745000D01*
X157230000Y-95015000D02*
X157230000Y-93745000D01*
X159770000Y-86125000D02*
X159770000Y-87395000D01*
X159770000Y-87395000D02*
X159135000Y-88030000D01*
X159135000Y-88030000D02*
X157865000Y-88030000D01*
X157865000Y-88030000D02*
X157230000Y-87395000D01*
X159135000Y-88030000D02*
X159770000Y-88665000D01*
X159770000Y-88665000D02*
X159770000Y-89935000D01*
X159770000Y-89935000D02*
X159135000Y-90570000D01*
X159135000Y-90570000D02*
X157865000Y-90570000D01*
X157865000Y-90570000D02*
X157230000Y-89935000D01*
X157230000Y-89935000D02*
X157230000Y-88665000D01*
X157230000Y-88665000D02*
X157865000Y-88030000D01*
X159135000Y-85490000D02*
X157865000Y-85490000D01*
X159770000Y-86125000D02*
X159135000Y-85490000D01*
X157865000Y-85490000D02*
X157230000Y-86125000D01*
X157230000Y-87395000D02*
X157230000Y-86125000D01*
D20*
X147484000Y-72232000D02*
X147484000Y-68168000D01*
X147484000Y-68168000D02*
X149516000Y-68168000D01*
X149516000Y-68168000D02*
X149516000Y-72232000D01*
X149516000Y-72232000D02*
X147484000Y-72232000D01*
X146516000Y-72232000D02*
X144484000Y-72232000D01*
X146516000Y-68168000D02*
X146516000Y-72232000D01*
X144484000Y-68168000D02*
X146516000Y-68168000D01*
X144484000Y-72232000D02*
X144484000Y-68168000D01*
X125168000Y-83184000D02*
X129232000Y-83184000D01*
X129232000Y-83184000D02*
X129232000Y-85216000D01*
X129232000Y-85216000D02*
X125168000Y-85216000D01*
X125168000Y-85216000D02*
X125168000Y-83184000D01*
X140784000Y-81532000D02*
X140784000Y-77468000D01*
X140784000Y-77468000D02*
X142816000Y-77468000D01*
X142816000Y-77468000D02*
X142816000Y-81532000D01*
X142816000Y-81532000D02*
X140784000Y-81532000D01*
X132334000Y-81372000D02*
X132334000Y-77308000D01*
X132334000Y-77308000D02*
X134366000Y-77308000D01*
X134366000Y-77308000D02*
X134366000Y-81372000D01*
X134366000Y-81372000D02*
X132334000Y-81372000D01*
X147584000Y-78532000D02*
X147584000Y-74468000D01*
X147584000Y-74468000D02*
X149616000Y-74468000D01*
X149616000Y-74468000D02*
X149616000Y-78532000D01*
X149616000Y-78532000D02*
X147584000Y-78532000D01*
X146516000Y-78532000D02*
X144484000Y-78532000D01*
X146516000Y-74468000D02*
X146516000Y-78532000D01*
X144484000Y-74468000D02*
X146516000Y-74468000D01*
X144484000Y-78532000D02*
X144484000Y-74468000D01*
X135934000Y-77308000D02*
X137966000Y-77308000D01*
X135934000Y-81372000D02*
X135934000Y-77308000D01*
X137966000Y-81372000D02*
X135934000Y-81372000D01*
X137966000Y-77308000D02*
X137966000Y-81372000D01*
X155599180Y-113001400D02*
X148400820Y-113001400D01*
X148400820Y-113001400D02*
X148400820Y-115998600D01*
X148400820Y-115998600D02*
X150501400Y-115998600D01*
X150501400Y-115998600D02*
X153498600Y-115998600D01*
X153498600Y-115998600D02*
X155599180Y-115998600D01*
X155599180Y-115998600D02*
X155599180Y-113001400D01*
X152000000Y-116097660D02*
X152000000Y-116999360D01*
X152000000Y-116999360D02*
X150501400Y-116999360D01*
X150501400Y-116999360D02*
X150501400Y-115998600D01*
X153796745Y-114898780D02*
G75*
G03X153796745Y-114898780I-298145J0D01*
G01*
X153922780Y-114898780D02*
X153074420Y-114898780D01*
X153498600Y-114477140D02*
X153498600Y-115322960D01*
X150799545Y-114898780D02*
G75*
G03X150799545Y-114898780I-298145J0D01*
G01*
X150925580Y-114898780D02*
X150077220Y-114898780D01*
X150501400Y-114477140D02*
X150501400Y-115322960D01*
D19*
X134598000Y-71438000D02*
X134852000Y-71438000D01*
X134598000Y-71438000D02*
X134598000Y-72962000D01*
X134852000Y-72962000D02*
X134598000Y-72962000D01*
X134852000Y-73216000D02*
X134852000Y-74740000D01*
X141202000Y-72962000D02*
X140948000Y-72962000D01*
X141202000Y-72962000D02*
X141202000Y-71438000D01*
X140948000Y-71438000D02*
X141202000Y-71438000D01*
X134852000Y-74740000D02*
X135360000Y-75248000D01*
X135360000Y-69152000D02*
X134852000Y-69660000D01*
X134852000Y-69660000D02*
X134852000Y-71184000D01*
X140440000Y-75248000D02*
X140948000Y-74740000D01*
X140948000Y-74740000D02*
X140948000Y-73216000D01*
X140440000Y-69152000D02*
X140948000Y-69660000D01*
X140948000Y-69660000D02*
X140948000Y-71184000D01*
D16*
X139170000Y-73470000D02*
X139170000Y-70930000D01*
X136630000Y-70930000D02*
X139170000Y-70930000D01*
X136630000Y-70930000D02*
X136630000Y-73470000D01*
X139170000Y-73470000D02*
X136630000Y-73470000D01*
X139170000Y-75248000D02*
X139170000Y-74994000D01*
X136630000Y-74994000D02*
X139170000Y-74994000D01*
X136630000Y-74994000D02*
X136630000Y-75248000D01*
X136757000Y-69406000D02*
X139170000Y-69406000D01*
X136757000Y-69406000D02*
X136757000Y-69152000D01*
X139170000Y-69406000D02*
X139170000Y-69152000D01*
D19*
X135360000Y-69152000D02*
X135741000Y-69152000D01*
X140440000Y-69152000D02*
X140059000Y-69152000D01*
X140059000Y-69152000D02*
X139170000Y-69152000D01*
X140440000Y-75248000D02*
X140059000Y-75248000D01*
X135360000Y-75248000D02*
X135741000Y-75248000D01*
X135741000Y-75248000D02*
X136630000Y-75248000D01*
X136630000Y-75248000D02*
X139170000Y-75248000D01*
X139170000Y-75248000D02*
X140059000Y-75248000D01*
X139170000Y-69152000D02*
X136757000Y-69152000D01*
X136757000Y-69152000D02*
X135741000Y-69152000D01*
X134852000Y-71438000D02*
X134852000Y-71184000D01*
X134852000Y-72962000D02*
X134852000Y-73216000D01*
X140948000Y-71438000D02*
X140948000Y-71184000D01*
X140948000Y-72962000D02*
X140948000Y-73216000D01*
X139170000Y-70041000D02*
X136630000Y-70041000D01*
X136630000Y-74486000D02*
X139170000Y-74486000D01*
X140313000Y-73470000D02*
X140313000Y-72708000D01*
X140313000Y-71692000D02*
X140313000Y-70930000D01*
X140313000Y-72708000D02*
X140059000Y-71819000D01*
D21*
X139157236Y-72200000D02*
G75*
G03X139157236Y-72200000I-1257236J0D01*
G01*
X140418210Y-70041000D02*
G75*
G03X140418210Y-70041000I-359210J0D01*
G01*
X136100210Y-70168000D02*
G75*
G03X136100210Y-70168000I-359210J0D01*
G01*
X136100210Y-74359000D02*
G75*
G03X136100210Y-74359000I-359210J0D01*
G01*
X140418210Y-74359000D02*
G75*
G03X140418210Y-74359000I-359210J0D01*
G01*
D22*
X138349013Y-72200000D02*
G75*
G03X138349013Y-72200000I-449013J0D01*
G01*
D21*
X138079605Y-72200000D02*
G75*
G03X138079605Y-72200000I-179605J0D01*
G01*
D10*
X154107500Y-75510000D02*
X154107500Y-75060000D01*
X155957500Y-75510000D02*
X154107500Y-75510000D01*
X158507500Y-67710000D02*
X158257500Y-67710000D01*
X158507500Y-75510000D02*
X158257500Y-75510000D01*
X155957500Y-67710000D02*
X154107500Y-67710000D01*
X154107500Y-67710000D02*
X154107500Y-68160000D01*
X153557500Y-73310000D02*
X153557500Y-72860000D01*
X153557500Y-73310000D02*
X154007500Y-73310000D01*
D19*
X158361904Y-78990476D02*
X157561904Y-78990476D01*
X157561904Y-78800000D01*
X157600000Y-78685714D01*
X157676190Y-78609523D01*
X157752380Y-78571428D01*
X157904761Y-78533333D01*
X158019047Y-78533333D01*
X158171428Y-78571428D01*
X158247619Y-78609523D01*
X158323809Y-78685714D01*
X158361904Y-78800000D01*
X158361904Y-78990476D01*
X158361904Y-77771428D02*
X158361904Y-78228571D01*
X158361904Y-78000000D02*
X157561904Y-78000000D01*
X157676190Y-78076190D01*
X157752380Y-78152380D01*
X157790476Y-78228571D01*
D12*
X134548095Y-89052380D02*
X134548095Y-89861904D01*
X134595714Y-89957142D01*
X134643333Y-90004761D01*
X134738571Y-90052380D01*
X134929047Y-90052380D01*
X135024285Y-90004761D01*
X135071904Y-89957142D01*
X135119523Y-89861904D01*
X135119523Y-89052380D01*
X136119523Y-90052380D02*
X135548095Y-90052380D01*
X135833809Y-90052380D02*
X135833809Y-89052380D01*
X135738571Y-89195238D01*
X135643333Y-89290476D01*
X135548095Y-89338095D01*
X135187619Y-105258571D02*
X135520952Y-105258571D01*
X135663809Y-105782380D02*
X135187619Y-105782380D01*
X135187619Y-104782380D01*
X135663809Y-104782380D01*
X136044761Y-105734761D02*
X136187619Y-105782380D01*
X136425714Y-105782380D01*
X136520952Y-105734761D01*
X136568571Y-105687142D01*
X136616190Y-105591904D01*
X136616190Y-105496666D01*
X136568571Y-105401428D01*
X136520952Y-105353809D01*
X136425714Y-105306190D01*
X136235238Y-105258571D01*
X136140000Y-105210952D01*
X136092380Y-105163333D01*
X136044761Y-105068095D01*
X136044761Y-104972857D01*
X136092380Y-104877619D01*
X136140000Y-104830000D01*
X136235238Y-104782380D01*
X136473333Y-104782380D01*
X136616190Y-104830000D01*
X137044761Y-105782380D02*
X137044761Y-104782380D01*
X137425714Y-104782380D01*
X137520952Y-104830000D01*
X137568571Y-104877619D01*
X137616190Y-104972857D01*
X137616190Y-105115714D01*
X137568571Y-105210952D01*
X137520952Y-105258571D01*
X137425714Y-105306190D01*
X137044761Y-105306190D01*
X137949523Y-104782380D02*
X138568571Y-104782380D01*
X138235238Y-105163333D01*
X138378095Y-105163333D01*
X138473333Y-105210952D01*
X138520952Y-105258571D01*
X138568571Y-105353809D01*
X138568571Y-105591904D01*
X138520952Y-105687142D01*
X138473333Y-105734761D01*
X138378095Y-105782380D01*
X138092380Y-105782380D01*
X137997142Y-105734761D01*
X137949523Y-105687142D01*
X138949523Y-104877619D02*
X138997142Y-104830000D01*
X139092380Y-104782380D01*
X139330476Y-104782380D01*
X139425714Y-104830000D01*
X139473333Y-104877619D01*
X139520952Y-104972857D01*
X139520952Y-105068095D01*
X139473333Y-105210952D01*
X138901904Y-105782380D01*
X139520952Y-105782380D01*
X139949523Y-105401428D02*
X140711428Y-105401428D01*
X141092380Y-104782380D02*
X141330476Y-105782380D01*
X141520952Y-105068095D01*
X141711428Y-105782380D01*
X141949523Y-104782380D01*
X142901904Y-105782380D02*
X142568571Y-105306190D01*
X142330476Y-105782380D02*
X142330476Y-104782380D01*
X142711428Y-104782380D01*
X142806666Y-104830000D01*
X142854285Y-104877619D01*
X142901904Y-104972857D01*
X142901904Y-105115714D01*
X142854285Y-105210952D01*
X142806666Y-105258571D01*
X142711428Y-105306190D01*
X142330476Y-105306190D01*
X143520952Y-104782380D02*
X143711428Y-104782380D01*
X143806666Y-104830000D01*
X143901904Y-104925238D01*
X143949523Y-105115714D01*
X143949523Y-105449047D01*
X143901904Y-105639523D01*
X143806666Y-105734761D01*
X143711428Y-105782380D01*
X143520952Y-105782380D01*
X143425714Y-105734761D01*
X143330476Y-105639523D01*
X143282857Y-105449047D01*
X143282857Y-105115714D01*
X143330476Y-104925238D01*
X143425714Y-104830000D01*
X143520952Y-104782380D01*
X144568571Y-104782380D02*
X144759047Y-104782380D01*
X144854285Y-104830000D01*
X144949523Y-104925238D01*
X144997142Y-105115714D01*
X144997142Y-105449047D01*
X144949523Y-105639523D01*
X144854285Y-105734761D01*
X144759047Y-105782380D01*
X144568571Y-105782380D01*
X144473333Y-105734761D01*
X144378095Y-105639523D01*
X144330476Y-105449047D01*
X144330476Y-105115714D01*
X144378095Y-104925238D01*
X144473333Y-104830000D01*
X144568571Y-104782380D01*
X145425714Y-105782380D02*
X145425714Y-104782380D01*
X145759047Y-105496666D01*
X146092380Y-104782380D01*
X146092380Y-105782380D01*
D13*
X125071904Y-77314523D02*
X125719523Y-77314523D01*
X125795714Y-77276428D01*
X125833809Y-77238333D01*
X125871904Y-77162142D01*
X125871904Y-77009761D01*
X125833809Y-76933571D01*
X125795714Y-76895476D01*
X125719523Y-76857380D01*
X125071904Y-76857380D01*
X125071904Y-76552619D02*
X125071904Y-76057380D01*
X125376666Y-76324047D01*
X125376666Y-76209761D01*
X125414761Y-76133571D01*
X125452857Y-76095476D01*
X125529047Y-76057380D01*
X125719523Y-76057380D01*
X125795714Y-76095476D01*
X125833809Y-76133571D01*
X125871904Y-76209761D01*
X125871904Y-76438333D01*
X125833809Y-76514523D01*
X125795714Y-76552619D01*
D12*
X154761904Y-85559523D02*
X155409523Y-85559523D01*
X155485714Y-85521428D01*
X155523809Y-85483333D01*
X155561904Y-85407142D01*
X155561904Y-85254761D01*
X155523809Y-85178571D01*
X155485714Y-85140476D01*
X155409523Y-85102380D01*
X154761904Y-85102380D01*
X154838095Y-84759523D02*
X154800000Y-84721428D01*
X154761904Y-84645238D01*
X154761904Y-84454761D01*
X154800000Y-84378571D01*
X154838095Y-84340476D01*
X154914285Y-84302380D01*
X154990476Y-84302380D01*
X155104761Y-84340476D01*
X155561904Y-84797619D01*
X155561904Y-84302380D01*
D23*
X135875684Y-112759047D02*
X135875684Y-111552547D01*
X136277851Y-112414333D01*
X136680017Y-111552547D01*
X136680017Y-112759047D01*
X137829065Y-111552547D02*
X137254541Y-111552547D01*
X137197089Y-112127071D01*
X137254541Y-112069619D01*
X137369446Y-112012166D01*
X137656708Y-112012166D01*
X137771612Y-112069619D01*
X137829065Y-112127071D01*
X137886517Y-112241976D01*
X137886517Y-112529238D01*
X137829065Y-112644142D01*
X137771612Y-112701595D01*
X137656708Y-112759047D01*
X137369446Y-112759047D01*
X137254541Y-112701595D01*
X137197089Y-112644142D01*
X125130952Y-97930934D02*
X126337452Y-97930934D01*
X125475666Y-98333101D01*
X126337452Y-98735267D01*
X125130952Y-98735267D01*
X126337452Y-99194887D02*
X126337452Y-99941767D01*
X125877833Y-99539601D01*
X125877833Y-99711958D01*
X125820380Y-99826863D01*
X125762928Y-99884315D01*
X125648023Y-99941767D01*
X125360761Y-99941767D01*
X125245857Y-99884315D01*
X125188404Y-99826863D01*
X125130952Y-99711958D01*
X125130952Y-99367244D01*
X125188404Y-99252339D01*
X125245857Y-99194887D01*
X156219047Y-101404315D02*
X155012547Y-101404315D01*
X155874333Y-101002148D01*
X155012547Y-100599982D01*
X156219047Y-100599982D01*
X155012547Y-99508387D02*
X155012547Y-99738196D01*
X155070000Y-99853101D01*
X155127452Y-99910553D01*
X155299809Y-100025458D01*
X155529619Y-100082910D01*
X155989238Y-100082910D01*
X156104142Y-100025458D01*
X156161595Y-99968006D01*
X156219047Y-99853101D01*
X156219047Y-99623291D01*
X156161595Y-99508387D01*
X156104142Y-99450934D01*
X155989238Y-99393482D01*
X155701976Y-99393482D01*
X155587071Y-99450934D01*
X155529619Y-99508387D01*
X155472166Y-99623291D01*
X155472166Y-99853101D01*
X155529619Y-99968006D01*
X155587071Y-100025458D01*
X155701976Y-100082910D01*
D19*
X150515714Y-71873333D02*
X150553809Y-71911428D01*
X150591904Y-72025714D01*
X150591904Y-72101904D01*
X150553809Y-72216190D01*
X150477619Y-72292380D01*
X150401428Y-72330476D01*
X150249047Y-72368571D01*
X150134761Y-72368571D01*
X149982380Y-72330476D01*
X149906190Y-72292380D01*
X149830000Y-72216190D01*
X149791904Y-72101904D01*
X149791904Y-72025714D01*
X149830000Y-71911428D01*
X149868095Y-71873333D01*
X150591904Y-71111428D02*
X150591904Y-71568571D01*
X150591904Y-71340000D02*
X149791904Y-71340000D01*
X149906190Y-71416190D01*
X149982380Y-71492380D01*
X150020476Y-71568571D01*
X150639904Y-69787142D02*
X150639904Y-70244285D01*
X150639904Y-70015714D02*
X149839904Y-70015714D01*
X149954190Y-70091904D01*
X150030380Y-70168095D01*
X150068476Y-70244285D01*
X149839904Y-69291904D02*
X149839904Y-69215714D01*
X149878000Y-69139523D01*
X149916095Y-69101428D01*
X149992285Y-69063333D01*
X150144666Y-69025238D01*
X150335142Y-69025238D01*
X150487523Y-69063333D01*
X150563714Y-69101428D01*
X150601809Y-69139523D01*
X150639904Y-69215714D01*
X150639904Y-69291904D01*
X150601809Y-69368095D01*
X150563714Y-69406190D01*
X150487523Y-69444285D01*
X150335142Y-69482380D01*
X150144666Y-69482380D01*
X149992285Y-69444285D01*
X149916095Y-69406190D01*
X149878000Y-69368095D01*
X149839904Y-69291904D01*
X150106571Y-68682380D02*
X150906571Y-68682380D01*
X150144666Y-68682380D02*
X150106571Y-68606190D01*
X150106571Y-68453809D01*
X150144666Y-68377619D01*
X150182761Y-68339523D01*
X150258952Y-68301428D01*
X150487523Y-68301428D01*
X150563714Y-68339523D01*
X150601809Y-68377619D01*
X150639904Y-68453809D01*
X150639904Y-68606190D01*
X150601809Y-68682380D01*
X150220857Y-67691904D02*
X150220857Y-67958571D01*
X150639904Y-67958571D02*
X149839904Y-67958571D01*
X149839904Y-67577619D01*
X143975714Y-71793333D02*
X144013809Y-71831428D01*
X144051904Y-71945714D01*
X144051904Y-72021904D01*
X144013809Y-72136190D01*
X143937619Y-72212380D01*
X143861428Y-72250476D01*
X143709047Y-72288571D01*
X143594761Y-72288571D01*
X143442380Y-72250476D01*
X143366190Y-72212380D01*
X143290000Y-72136190D01*
X143251904Y-72021904D01*
X143251904Y-71945714D01*
X143290000Y-71831428D01*
X143328095Y-71793333D01*
X143328095Y-71488571D02*
X143290000Y-71450476D01*
X143251904Y-71374285D01*
X143251904Y-71183809D01*
X143290000Y-71107619D01*
X143328095Y-71069523D01*
X143404285Y-71031428D01*
X143480476Y-71031428D01*
X143594761Y-71069523D01*
X144051904Y-71526666D01*
X144051904Y-71031428D01*
X144051904Y-69757142D02*
X144051904Y-70214285D01*
X144051904Y-69985714D02*
X143251904Y-69985714D01*
X143366190Y-70061904D01*
X143442380Y-70138095D01*
X143480476Y-70214285D01*
X143251904Y-69261904D02*
X143251904Y-69185714D01*
X143290000Y-69109523D01*
X143328095Y-69071428D01*
X143404285Y-69033333D01*
X143556666Y-68995238D01*
X143747142Y-68995238D01*
X143899523Y-69033333D01*
X143975714Y-69071428D01*
X144013809Y-69109523D01*
X144051904Y-69185714D01*
X144051904Y-69261904D01*
X144013809Y-69338095D01*
X143975714Y-69376190D01*
X143899523Y-69414285D01*
X143747142Y-69452380D01*
X143556666Y-69452380D01*
X143404285Y-69414285D01*
X143328095Y-69376190D01*
X143290000Y-69338095D01*
X143251904Y-69261904D01*
X143518571Y-68652380D02*
X144318571Y-68652380D01*
X143556666Y-68652380D02*
X143518571Y-68576190D01*
X143518571Y-68423809D01*
X143556666Y-68347619D01*
X143594761Y-68309523D01*
X143670952Y-68271428D01*
X143899523Y-68271428D01*
X143975714Y-68309523D01*
X144013809Y-68347619D01*
X144051904Y-68423809D01*
X144051904Y-68576190D01*
X144013809Y-68652380D01*
X143632857Y-67661904D02*
X143632857Y-67928571D01*
X144051904Y-67928571D02*
X143251904Y-67928571D01*
X143251904Y-67547619D01*
X125420666Y-86482857D02*
X125372285Y-86531238D01*
X125227142Y-86579619D01*
X125130380Y-86579619D01*
X124985238Y-86531238D01*
X124888476Y-86434476D01*
X124840095Y-86337714D01*
X124791714Y-86144190D01*
X124791714Y-85999047D01*
X124840095Y-85805523D01*
X124888476Y-85708761D01*
X124985238Y-85612000D01*
X125130380Y-85563619D01*
X125227142Y-85563619D01*
X125372285Y-85612000D01*
X125420666Y-85660380D01*
X125759333Y-85563619D02*
X126388285Y-85563619D01*
X126049619Y-85950666D01*
X126194761Y-85950666D01*
X126291523Y-85999047D01*
X126339904Y-86047428D01*
X126388285Y-86144190D01*
X126388285Y-86386095D01*
X126339904Y-86482857D01*
X126291523Y-86531238D01*
X126194761Y-86579619D01*
X125904476Y-86579619D01*
X125807714Y-86531238D01*
X125759333Y-86482857D01*
X127805238Y-86579619D02*
X127224666Y-86579619D01*
X127514952Y-86579619D02*
X127514952Y-85563619D01*
X127418190Y-85708761D01*
X127321428Y-85805523D01*
X127224666Y-85853904D01*
X128676095Y-85902285D02*
X128676095Y-86579619D01*
X128240666Y-85902285D02*
X128240666Y-86434476D01*
X128289047Y-86531238D01*
X128385809Y-86579619D01*
X128530952Y-86579619D01*
X128627714Y-86531238D01*
X128676095Y-86482857D01*
X129498571Y-86047428D02*
X129159904Y-86047428D01*
X129159904Y-86579619D02*
X129159904Y-85563619D01*
X129643714Y-85563619D01*
X140571904Y-81717619D02*
X139771904Y-81717619D01*
X140343333Y-81450952D01*
X139771904Y-81184285D01*
X140571904Y-81184285D01*
X139848095Y-80841428D02*
X139810000Y-80803333D01*
X139771904Y-80727142D01*
X139771904Y-80536666D01*
X139810000Y-80460476D01*
X139848095Y-80422380D01*
X139924285Y-80384285D01*
X140000476Y-80384285D01*
X140114761Y-80422380D01*
X140571904Y-80879523D01*
X140571904Y-80384285D01*
X140451904Y-78634285D02*
X140070952Y-78900952D01*
X140451904Y-79091428D02*
X139651904Y-79091428D01*
X139651904Y-78786666D01*
X139690000Y-78710476D01*
X139728095Y-78672380D01*
X139804285Y-78634285D01*
X139918571Y-78634285D01*
X139994761Y-78672380D01*
X140032857Y-78710476D01*
X140070952Y-78786666D01*
X140070952Y-79091428D01*
X140032857Y-78291428D02*
X140032857Y-78024761D01*
X140451904Y-77910476D02*
X140451904Y-78291428D01*
X139651904Y-78291428D01*
X139651904Y-77910476D01*
X140451904Y-77567619D02*
X139651904Y-77567619D01*
X139651904Y-77377142D01*
X139690000Y-77262857D01*
X139766190Y-77186666D01*
X139842380Y-77148571D01*
X139994761Y-77110476D01*
X140109047Y-77110476D01*
X140261428Y-77148571D01*
X140337619Y-77186666D01*
X140413809Y-77262857D01*
X140451904Y-77377142D01*
X140451904Y-77567619D01*
X131971904Y-81133333D02*
X131590952Y-81400000D01*
X131971904Y-81590476D02*
X131171904Y-81590476D01*
X131171904Y-81285714D01*
X131210000Y-81209523D01*
X131248095Y-81171428D01*
X131324285Y-81133333D01*
X131438571Y-81133333D01*
X131514761Y-81171428D01*
X131552857Y-81209523D01*
X131590952Y-81285714D01*
X131590952Y-81590476D01*
X131971904Y-80371428D02*
X131971904Y-80828571D01*
X131971904Y-80600000D02*
X131171904Y-80600000D01*
X131286190Y-80676190D01*
X131362380Y-80752380D01*
X131400476Y-80828571D01*
X131881904Y-78863333D02*
X131881904Y-79320476D01*
X131881904Y-79091904D02*
X131081904Y-79091904D01*
X131196190Y-79168095D01*
X131272380Y-79244285D01*
X131310476Y-79320476D01*
X131081904Y-78368095D02*
X131081904Y-78291904D01*
X131120000Y-78215714D01*
X131158095Y-78177619D01*
X131234285Y-78139523D01*
X131386666Y-78101428D01*
X131577142Y-78101428D01*
X131729523Y-78139523D01*
X131805714Y-78177619D01*
X131843809Y-78215714D01*
X131881904Y-78291904D01*
X131881904Y-78368095D01*
X131843809Y-78444285D01*
X131805714Y-78482380D01*
X131729523Y-78520476D01*
X131577142Y-78558571D01*
X131386666Y-78558571D01*
X131234285Y-78520476D01*
X131158095Y-78482380D01*
X131120000Y-78444285D01*
X131081904Y-78368095D01*
X131881904Y-77758571D02*
X131081904Y-77758571D01*
X131577142Y-77682380D02*
X131881904Y-77453809D01*
X131348571Y-77453809D02*
X131653333Y-77758571D01*
X131881904Y-77149047D02*
X131881904Y-76958571D01*
X131729523Y-76958571D01*
X131691428Y-77034761D01*
X131615238Y-77110952D01*
X131500952Y-77149047D01*
X131310476Y-77149047D01*
X131196190Y-77110952D01*
X131120000Y-77034761D01*
X131081904Y-76920476D01*
X131081904Y-76768095D01*
X131120000Y-76653809D01*
X131196190Y-76577619D01*
X131310476Y-76539523D01*
X131500952Y-76539523D01*
X131615238Y-76577619D01*
X131691428Y-76653809D01*
X131729523Y-76730000D01*
X131881904Y-76730000D01*
X131881904Y-76539523D01*
X150721904Y-78253333D02*
X150340952Y-78520000D01*
X150721904Y-78710476D02*
X149921904Y-78710476D01*
X149921904Y-78405714D01*
X149960000Y-78329523D01*
X149998095Y-78291428D01*
X150074285Y-78253333D01*
X150188571Y-78253333D01*
X150264761Y-78291428D01*
X150302857Y-78329523D01*
X150340952Y-78405714D01*
X150340952Y-78710476D01*
X149998095Y-77948571D02*
X149960000Y-77910476D01*
X149921904Y-77834285D01*
X149921904Y-77643809D01*
X149960000Y-77567619D01*
X149998095Y-77529523D01*
X150074285Y-77491428D01*
X150150476Y-77491428D01*
X150264761Y-77529523D01*
X150721904Y-77986666D01*
X150721904Y-77491428D01*
X150138571Y-76075714D02*
X150671904Y-76075714D01*
X149833809Y-76266190D02*
X150405238Y-76456666D01*
X150405238Y-75961428D01*
X150671904Y-75618571D02*
X150671904Y-75466190D01*
X150633809Y-75390000D01*
X150595714Y-75351904D01*
X150481428Y-75275714D01*
X150329047Y-75237619D01*
X150024285Y-75237619D01*
X149948095Y-75275714D01*
X149910000Y-75313809D01*
X149871904Y-75390000D01*
X149871904Y-75542380D01*
X149910000Y-75618571D01*
X149948095Y-75656666D01*
X150024285Y-75694761D01*
X150214761Y-75694761D01*
X150290952Y-75656666D01*
X150329047Y-75618571D01*
X150367142Y-75542380D01*
X150367142Y-75390000D01*
X150329047Y-75313809D01*
X150290952Y-75275714D01*
X150214761Y-75237619D01*
X150671904Y-74932857D02*
X150671904Y-74742380D01*
X150519523Y-74742380D01*
X150481428Y-74818571D01*
X150405238Y-74894761D01*
X150290952Y-74932857D01*
X150100476Y-74932857D01*
X149986190Y-74894761D01*
X149910000Y-74818571D01*
X149871904Y-74704285D01*
X149871904Y-74551904D01*
X149910000Y-74437619D01*
X149986190Y-74361428D01*
X150100476Y-74323333D01*
X150290952Y-74323333D01*
X150405238Y-74361428D01*
X150481428Y-74437619D01*
X150519523Y-74513809D01*
X150671904Y-74513809D01*
X150671904Y-74323333D01*
X144121904Y-78123333D02*
X143740952Y-78390000D01*
X144121904Y-78580476D02*
X143321904Y-78580476D01*
X143321904Y-78275714D01*
X143360000Y-78199523D01*
X143398095Y-78161428D01*
X143474285Y-78123333D01*
X143588571Y-78123333D01*
X143664761Y-78161428D01*
X143702857Y-78199523D01*
X143740952Y-78275714D01*
X143740952Y-78580476D01*
X143321904Y-77856666D02*
X143321904Y-77361428D01*
X143626666Y-77628095D01*
X143626666Y-77513809D01*
X143664761Y-77437619D01*
X143702857Y-77399523D01*
X143779047Y-77361428D01*
X143969523Y-77361428D01*
X144045714Y-77399523D01*
X144083809Y-77437619D01*
X144121904Y-77513809D01*
X144121904Y-77742380D01*
X144083809Y-77818571D01*
X144045714Y-77856666D01*
X143598571Y-76145714D02*
X144131904Y-76145714D01*
X143293809Y-76336190D02*
X143865238Y-76526666D01*
X143865238Y-76031428D01*
X144131904Y-75688571D02*
X144131904Y-75536190D01*
X144093809Y-75460000D01*
X144055714Y-75421904D01*
X143941428Y-75345714D01*
X143789047Y-75307619D01*
X143484285Y-75307619D01*
X143408095Y-75345714D01*
X143370000Y-75383809D01*
X143331904Y-75460000D01*
X143331904Y-75612380D01*
X143370000Y-75688571D01*
X143408095Y-75726666D01*
X143484285Y-75764761D01*
X143674761Y-75764761D01*
X143750952Y-75726666D01*
X143789047Y-75688571D01*
X143827142Y-75612380D01*
X143827142Y-75460000D01*
X143789047Y-75383809D01*
X143750952Y-75345714D01*
X143674761Y-75307619D01*
X144131904Y-75002857D02*
X144131904Y-74812380D01*
X143979523Y-74812380D01*
X143941428Y-74888571D01*
X143865238Y-74964761D01*
X143750952Y-75002857D01*
X143560476Y-75002857D01*
X143446190Y-74964761D01*
X143370000Y-74888571D01*
X143331904Y-74774285D01*
X143331904Y-74621904D01*
X143370000Y-74507619D01*
X143446190Y-74431428D01*
X143560476Y-74393333D01*
X143750952Y-74393333D01*
X143865238Y-74431428D01*
X143941428Y-74507619D01*
X143979523Y-74583809D01*
X144131904Y-74583809D01*
X144131904Y-74393333D01*
X135611904Y-81203333D02*
X135230952Y-81470000D01*
X135611904Y-81660476D02*
X134811904Y-81660476D01*
X134811904Y-81355714D01*
X134850000Y-81279523D01*
X134888095Y-81241428D01*
X134964285Y-81203333D01*
X135078571Y-81203333D01*
X135154761Y-81241428D01*
X135192857Y-81279523D01*
X135230952Y-81355714D01*
X135230952Y-81660476D01*
X135078571Y-80517619D02*
X135611904Y-80517619D01*
X134773809Y-80708095D02*
X135345238Y-80898571D01*
X135345238Y-80403333D01*
X134838095Y-79377619D02*
X134800000Y-79339523D01*
X134761904Y-79263333D01*
X134761904Y-79072857D01*
X134800000Y-78996666D01*
X134838095Y-78958571D01*
X134914285Y-78920476D01*
X134990476Y-78920476D01*
X135104761Y-78958571D01*
X135561904Y-79415714D01*
X135561904Y-78920476D01*
X134838095Y-78615714D02*
X134800000Y-78577619D01*
X134761904Y-78501428D01*
X134761904Y-78310952D01*
X134800000Y-78234761D01*
X134838095Y-78196666D01*
X134914285Y-78158571D01*
X134990476Y-78158571D01*
X135104761Y-78196666D01*
X135561904Y-78653809D01*
X135561904Y-78158571D01*
X134761904Y-77663333D02*
X134761904Y-77587142D01*
X134800000Y-77510952D01*
X134838095Y-77472857D01*
X134914285Y-77434761D01*
X135066666Y-77396666D01*
X135257142Y-77396666D01*
X135409523Y-77434761D01*
X135485714Y-77472857D01*
X135523809Y-77510952D01*
X135561904Y-77587142D01*
X135561904Y-77663333D01*
X135523809Y-77739523D01*
X135485714Y-77777619D01*
X135409523Y-77815714D01*
X135257142Y-77853809D01*
X135066666Y-77853809D01*
X134914285Y-77815714D01*
X134838095Y-77777619D01*
X134800000Y-77739523D01*
X134761904Y-77663333D01*
X135561904Y-77091904D02*
X135561904Y-76901428D01*
X135409523Y-76901428D01*
X135371428Y-76977619D01*
X135295238Y-77053809D01*
X135180952Y-77091904D01*
X134990476Y-77091904D01*
X134876190Y-77053809D01*
X134800000Y-76977619D01*
X134761904Y-76863333D01*
X134761904Y-76710952D01*
X134800000Y-76596666D01*
X134876190Y-76520476D01*
X134990476Y-76482380D01*
X135180952Y-76482380D01*
X135295238Y-76520476D01*
X135371428Y-76596666D01*
X135409523Y-76672857D01*
X135561904Y-76672857D01*
X135561904Y-76482380D01*
D13*
X151470476Y-114153809D02*
X151584761Y-114191904D01*
X151775238Y-114191904D01*
X151851428Y-114153809D01*
X151889523Y-114115714D01*
X151927619Y-114039523D01*
X151927619Y-113963333D01*
X151889523Y-113887142D01*
X151851428Y-113849047D01*
X151775238Y-113810952D01*
X151622857Y-113772857D01*
X151546666Y-113734761D01*
X151508571Y-113696666D01*
X151470476Y-113620476D01*
X151470476Y-113544285D01*
X151508571Y-113468095D01*
X151546666Y-113430000D01*
X151622857Y-113391904D01*
X151813333Y-113391904D01*
X151927619Y-113430000D01*
X152689523Y-114191904D02*
X152232380Y-114191904D01*
X152460952Y-114191904D02*
X152460952Y-113391904D01*
X152384761Y-113506190D01*
X152308571Y-113582380D01*
X152232380Y-113620476D01*
D24*
X148951428Y-111071904D02*
X148951428Y-110271904D01*
X149256190Y-110271904D01*
X149332380Y-110310000D01*
X149370476Y-110348095D01*
X149408571Y-110424285D01*
X149408571Y-110538571D01*
X149370476Y-110614761D01*
X149332380Y-110652857D01*
X149256190Y-110690952D01*
X148951428Y-110690952D01*
X150208571Y-111071904D02*
X149941904Y-110690952D01*
X149751428Y-111071904D02*
X149751428Y-110271904D01*
X150056190Y-110271904D01*
X150132380Y-110310000D01*
X150170476Y-110348095D01*
X150208571Y-110424285D01*
X150208571Y-110538571D01*
X150170476Y-110614761D01*
X150132380Y-110652857D01*
X150056190Y-110690952D01*
X149751428Y-110690952D01*
X150703809Y-110271904D02*
X150856190Y-110271904D01*
X150932380Y-110310000D01*
X151008571Y-110386190D01*
X151046666Y-110538571D01*
X151046666Y-110805238D01*
X151008571Y-110957619D01*
X150932380Y-111033809D01*
X150856190Y-111071904D01*
X150703809Y-111071904D01*
X150627619Y-111033809D01*
X150551428Y-110957619D01*
X150513333Y-110805238D01*
X150513333Y-110538571D01*
X150551428Y-110386190D01*
X150627619Y-110310000D01*
X150703809Y-110271904D01*
X151808571Y-110310000D02*
X151732380Y-110271904D01*
X151618095Y-110271904D01*
X151503809Y-110310000D01*
X151427619Y-110386190D01*
X151389523Y-110462380D01*
X151351428Y-110614761D01*
X151351428Y-110729047D01*
X151389523Y-110881428D01*
X151427619Y-110957619D01*
X151503809Y-111033809D01*
X151618095Y-111071904D01*
X151694285Y-111071904D01*
X151808571Y-111033809D01*
X151846666Y-110995714D01*
X151846666Y-110729047D01*
X151694285Y-110729047D01*
D20*
X139402380Y-68504047D02*
X139583809Y-68564523D01*
X139886190Y-68564523D01*
X140007142Y-68504047D01*
X140067619Y-68443571D01*
X140128095Y-68322619D01*
X140128095Y-68201666D01*
X140067619Y-68080714D01*
X140007142Y-68020238D01*
X139886190Y-67959761D01*
X139644285Y-67899285D01*
X139523333Y-67838809D01*
X139462857Y-67778333D01*
X139402380Y-67657380D01*
X139402380Y-67536428D01*
X139462857Y-67415476D01*
X139523333Y-67355000D01*
X139644285Y-67294523D01*
X139946666Y-67294523D01*
X140128095Y-67355000D01*
X140611904Y-67415476D02*
X140672380Y-67355000D01*
X140793333Y-67294523D01*
X141095714Y-67294523D01*
X141216666Y-67355000D01*
X141277142Y-67415476D01*
X141337619Y-67536428D01*
X141337619Y-67657380D01*
X141277142Y-67838809D01*
X140551428Y-68564523D01*
X141337619Y-68564523D01*
X135044523Y-68564523D02*
X134621190Y-67959761D01*
X134318809Y-68564523D02*
X134318809Y-67294523D01*
X134802619Y-67294523D01*
X134923571Y-67355000D01*
X134984047Y-67415476D01*
X135044523Y-67536428D01*
X135044523Y-67717857D01*
X134984047Y-67838809D01*
X134923571Y-67899285D01*
X134802619Y-67959761D01*
X134318809Y-67959761D01*
X135528333Y-68504047D02*
X135709761Y-68564523D01*
X136012142Y-68564523D01*
X136133095Y-68504047D01*
X136193571Y-68443571D01*
X136254047Y-68322619D01*
X136254047Y-68201666D01*
X136193571Y-68080714D01*
X136133095Y-68020238D01*
X136012142Y-67959761D01*
X135770238Y-67899285D01*
X135649285Y-67838809D01*
X135588809Y-67778333D01*
X135528333Y-67657380D01*
X135528333Y-67536428D01*
X135588809Y-67415476D01*
X135649285Y-67355000D01*
X135770238Y-67294523D01*
X136072619Y-67294523D01*
X136254047Y-67355000D01*
X136616904Y-67294523D02*
X137342619Y-67294523D01*
X136979761Y-68564523D02*
X136979761Y-67294523D01*
X141945857Y-75060523D02*
X141220142Y-75060523D01*
X141583000Y-75060523D02*
X141583000Y-73790523D01*
X141462047Y-73971952D01*
X141341095Y-74092904D01*
X141220142Y-74153380D01*
X133346142Y-73784476D02*
X133406619Y-73724000D01*
X133527571Y-73663523D01*
X133829952Y-73663523D01*
X133950904Y-73724000D01*
X134011380Y-73784476D01*
X134071857Y-73905428D01*
X134071857Y-74026380D01*
X134011380Y-74207809D01*
X133285666Y-74933523D01*
X134071857Y-74933523D01*
X141413666Y-69345523D02*
X142199857Y-69345523D01*
X141776523Y-69829333D01*
X141957952Y-69829333D01*
X142078904Y-69889809D01*
X142139380Y-69950285D01*
X142199857Y-70071238D01*
X142199857Y-70373619D01*
X142139380Y-70494571D01*
X142078904Y-70555047D01*
X141957952Y-70615523D01*
X141595095Y-70615523D01*
X141474142Y-70555047D01*
X141413666Y-70494571D01*
X133950904Y-69768857D02*
X133950904Y-70615523D01*
X133648523Y-69285047D02*
X133346142Y-70192190D01*
X134132333Y-70192190D01*
D12*
X152209880Y-71943333D02*
X152924166Y-71943333D01*
X153067023Y-71990952D01*
X153162261Y-72086190D01*
X153209880Y-72229047D01*
X153209880Y-72324285D01*
X153209880Y-70943333D02*
X153209880Y-71514761D01*
X153209880Y-71229047D02*
X152209880Y-71229047D01*
X152352738Y-71324285D01*
X152447976Y-71419523D01*
X152495595Y-71514761D01*
M02*
