G04 #@! TF.GenerationSoftware,KiCad,Pcbnew,(5.1.5-0-10_14)*
G04 #@! TF.CreationDate,2020-09-21T09:42:30+02:00*
G04 #@! TF.ProjectId,BarDuino2.2.micro,42617244-7569-46e6-9f32-2e322e6d6963,rev?*
G04 #@! TF.SameCoordinates,Original*
G04 #@! TF.FileFunction,Soldermask,Top*
G04 #@! TF.FilePolarity,Negative*
%FSLAX46Y46*%
G04 Gerber Fmt 4.6, Leading zero omitted, Abs format (unit mm)*
G04 Created by KiCad (PCBNEW (5.1.5-0-10_14)) date 2020-09-21 09:42:30*
%MOMM*%
%LPD*%
G04 APERTURE LIST*
%ADD10C,0.100000*%
G04 APERTURE END LIST*
D10*
G36*
X126509295Y-113086896D02*
G01*
X126672084Y-113136278D01*
X126672087Y-113136279D01*
X126822107Y-113216466D01*
X126822108Y-113216467D01*
X126822112Y-113216469D01*
X126953612Y-113324388D01*
X127061531Y-113455888D01*
X127061533Y-113455892D01*
X127061534Y-113455893D01*
X127141721Y-113605913D01*
X127141722Y-113605916D01*
X127191104Y-113768705D01*
X127203600Y-113895580D01*
X127203600Y-115504420D01*
X127191104Y-115631295D01*
X127141722Y-115794083D01*
X127141721Y-115794087D01*
X127061534Y-115944107D01*
X127061531Y-115944112D01*
X126953612Y-116075612D01*
X126822111Y-116183531D01*
X126822107Y-116183534D01*
X126672087Y-116263721D01*
X126629726Y-116276571D01*
X126509294Y-116313104D01*
X126340000Y-116329778D01*
X126170705Y-116313104D01*
X126007916Y-116263722D01*
X126007913Y-116263721D01*
X125857893Y-116183534D01*
X125857892Y-116183533D01*
X125857888Y-116183531D01*
X125726388Y-116075612D01*
X125618469Y-115944111D01*
X125618468Y-115944110D01*
X125618466Y-115944107D01*
X125538279Y-115794087D01*
X125525429Y-115751726D01*
X125488896Y-115631294D01*
X125476400Y-115504419D01*
X125476401Y-113895580D01*
X125488897Y-113768705D01*
X125538279Y-113605916D01*
X125538280Y-113605913D01*
X125618467Y-113455893D01*
X125618468Y-113455892D01*
X125618470Y-113455888D01*
X125726389Y-113324388D01*
X125857889Y-113216469D01*
X125857893Y-113216467D01*
X125857894Y-113216466D01*
X126007914Y-113136279D01*
X126007917Y-113136278D01*
X126170706Y-113086896D01*
X126340000Y-113070222D01*
X126509295Y-113086896D01*
G37*
G36*
X129049295Y-113086896D02*
G01*
X129212084Y-113136278D01*
X129212087Y-113136279D01*
X129362107Y-113216466D01*
X129362108Y-113216467D01*
X129362112Y-113216469D01*
X129493612Y-113324388D01*
X129601531Y-113455888D01*
X129601533Y-113455892D01*
X129601534Y-113455893D01*
X129681721Y-113605913D01*
X129681722Y-113605916D01*
X129731104Y-113768705D01*
X129743600Y-113895580D01*
X129743600Y-115504420D01*
X129731104Y-115631295D01*
X129681722Y-115794083D01*
X129681721Y-115794087D01*
X129601534Y-115944107D01*
X129601531Y-115944112D01*
X129493612Y-116075612D01*
X129362111Y-116183531D01*
X129362107Y-116183534D01*
X129212087Y-116263721D01*
X129169726Y-116276571D01*
X129049294Y-116313104D01*
X128880000Y-116329778D01*
X128710705Y-116313104D01*
X128547916Y-116263722D01*
X128547913Y-116263721D01*
X128397893Y-116183534D01*
X128397892Y-116183533D01*
X128397888Y-116183531D01*
X128266388Y-116075612D01*
X128158469Y-115944111D01*
X128158468Y-115944110D01*
X128158466Y-115944107D01*
X128078279Y-115794087D01*
X128065429Y-115751726D01*
X128028896Y-115631294D01*
X128016400Y-115504419D01*
X128016401Y-113895580D01*
X128028897Y-113768705D01*
X128078279Y-113605916D01*
X128078280Y-113605913D01*
X128158467Y-113455893D01*
X128158468Y-113455892D01*
X128158470Y-113455888D01*
X128266389Y-113324388D01*
X128397889Y-113216469D01*
X128397893Y-113216467D01*
X128397894Y-113216466D01*
X128547914Y-113136279D01*
X128547917Y-113136278D01*
X128710706Y-113086896D01*
X128880000Y-113070222D01*
X129049295Y-113086896D01*
G37*
G36*
X131589295Y-113086896D02*
G01*
X131752084Y-113136278D01*
X131752087Y-113136279D01*
X131902107Y-113216466D01*
X131902108Y-113216467D01*
X131902112Y-113216469D01*
X132033612Y-113324388D01*
X132141531Y-113455888D01*
X132141533Y-113455892D01*
X132141534Y-113455893D01*
X132221721Y-113605913D01*
X132221722Y-113605916D01*
X132271104Y-113768705D01*
X132283600Y-113895580D01*
X132283600Y-115504420D01*
X132271104Y-115631295D01*
X132221722Y-115794083D01*
X132221721Y-115794087D01*
X132141534Y-115944107D01*
X132141531Y-115944112D01*
X132033612Y-116075612D01*
X131902111Y-116183531D01*
X131902107Y-116183534D01*
X131752087Y-116263721D01*
X131709726Y-116276571D01*
X131589294Y-116313104D01*
X131420000Y-116329778D01*
X131250705Y-116313104D01*
X131087916Y-116263722D01*
X131087913Y-116263721D01*
X130937893Y-116183534D01*
X130937892Y-116183533D01*
X130937888Y-116183531D01*
X130806388Y-116075612D01*
X130698469Y-115944111D01*
X130698468Y-115944110D01*
X130698466Y-115944107D01*
X130618279Y-115794087D01*
X130605429Y-115751726D01*
X130568896Y-115631294D01*
X130556400Y-115504419D01*
X130556401Y-113895580D01*
X130568897Y-113768705D01*
X130618279Y-113605916D01*
X130618280Y-113605913D01*
X130698467Y-113455893D01*
X130698468Y-113455892D01*
X130698470Y-113455888D01*
X130806389Y-113324388D01*
X130937889Y-113216469D01*
X130937893Y-113216467D01*
X130937894Y-113216466D01*
X131087914Y-113136279D01*
X131087917Y-113136278D01*
X131250706Y-113086896D01*
X131420000Y-113070222D01*
X131589295Y-113086896D01*
G37*
G36*
X134129295Y-113086896D02*
G01*
X134292084Y-113136278D01*
X134292087Y-113136279D01*
X134442107Y-113216466D01*
X134442108Y-113216467D01*
X134442112Y-113216469D01*
X134573612Y-113324388D01*
X134681531Y-113455888D01*
X134681533Y-113455892D01*
X134681534Y-113455893D01*
X134761721Y-113605913D01*
X134761722Y-113605916D01*
X134811104Y-113768705D01*
X134823600Y-113895580D01*
X134823600Y-115504420D01*
X134811104Y-115631295D01*
X134761722Y-115794083D01*
X134761721Y-115794087D01*
X134681534Y-115944107D01*
X134681531Y-115944112D01*
X134573612Y-116075612D01*
X134442111Y-116183531D01*
X134442107Y-116183534D01*
X134292087Y-116263721D01*
X134249726Y-116276571D01*
X134129294Y-116313104D01*
X133960000Y-116329778D01*
X133790705Y-116313104D01*
X133627916Y-116263722D01*
X133627913Y-116263721D01*
X133477893Y-116183534D01*
X133477892Y-116183533D01*
X133477888Y-116183531D01*
X133346388Y-116075612D01*
X133238469Y-115944111D01*
X133238468Y-115944110D01*
X133238466Y-115944107D01*
X133158279Y-115794087D01*
X133145429Y-115751726D01*
X133108896Y-115631294D01*
X133096400Y-115504419D01*
X133096401Y-113895580D01*
X133108897Y-113768705D01*
X133158279Y-113605916D01*
X133158280Y-113605913D01*
X133238467Y-113455893D01*
X133238468Y-113455892D01*
X133238470Y-113455888D01*
X133346389Y-113324388D01*
X133477889Y-113216469D01*
X133477893Y-113216467D01*
X133477894Y-113216466D01*
X133627914Y-113136279D01*
X133627917Y-113136278D01*
X133790706Y-113086896D01*
X133960000Y-113070222D01*
X134129295Y-113086896D01*
G37*
G36*
X136669295Y-113086896D02*
G01*
X136832084Y-113136278D01*
X136832087Y-113136279D01*
X136982107Y-113216466D01*
X136982108Y-113216467D01*
X136982112Y-113216469D01*
X137113612Y-113324388D01*
X137221531Y-113455888D01*
X137221533Y-113455892D01*
X137221534Y-113455893D01*
X137301721Y-113605913D01*
X137301722Y-113605916D01*
X137351104Y-113768705D01*
X137363600Y-113895580D01*
X137363600Y-115504420D01*
X137351104Y-115631295D01*
X137301722Y-115794083D01*
X137301721Y-115794087D01*
X137221534Y-115944107D01*
X137221531Y-115944112D01*
X137113612Y-116075612D01*
X136982111Y-116183531D01*
X136982107Y-116183534D01*
X136832087Y-116263721D01*
X136789726Y-116276571D01*
X136669294Y-116313104D01*
X136500000Y-116329778D01*
X136330705Y-116313104D01*
X136167916Y-116263722D01*
X136167913Y-116263721D01*
X136017893Y-116183534D01*
X136017892Y-116183533D01*
X136017888Y-116183531D01*
X135886388Y-116075612D01*
X135778469Y-115944111D01*
X135778468Y-115944110D01*
X135778466Y-115944107D01*
X135698279Y-115794087D01*
X135685429Y-115751726D01*
X135648896Y-115631294D01*
X135636400Y-115504419D01*
X135636401Y-113895580D01*
X135648897Y-113768705D01*
X135698279Y-113605916D01*
X135698280Y-113605913D01*
X135778467Y-113455893D01*
X135778468Y-113455892D01*
X135778470Y-113455888D01*
X135886389Y-113324388D01*
X136017889Y-113216469D01*
X136017893Y-113216467D01*
X136017894Y-113216466D01*
X136167914Y-113136279D01*
X136167917Y-113136278D01*
X136330706Y-113086896D01*
X136500000Y-113070222D01*
X136669295Y-113086896D01*
G37*
G36*
X139209295Y-113086896D02*
G01*
X139372084Y-113136278D01*
X139372087Y-113136279D01*
X139522107Y-113216466D01*
X139522108Y-113216467D01*
X139522112Y-113216469D01*
X139653612Y-113324388D01*
X139761531Y-113455888D01*
X139761533Y-113455892D01*
X139761534Y-113455893D01*
X139841721Y-113605913D01*
X139841722Y-113605916D01*
X139891104Y-113768705D01*
X139903600Y-113895580D01*
X139903600Y-115504420D01*
X139891104Y-115631295D01*
X139841722Y-115794083D01*
X139841721Y-115794087D01*
X139761534Y-115944107D01*
X139761531Y-115944112D01*
X139653612Y-116075612D01*
X139522111Y-116183531D01*
X139522107Y-116183534D01*
X139372087Y-116263721D01*
X139329726Y-116276571D01*
X139209294Y-116313104D01*
X139040000Y-116329778D01*
X138870705Y-116313104D01*
X138707916Y-116263722D01*
X138707913Y-116263721D01*
X138557893Y-116183534D01*
X138557892Y-116183533D01*
X138557888Y-116183531D01*
X138426388Y-116075612D01*
X138318469Y-115944111D01*
X138318468Y-115944110D01*
X138318466Y-115944107D01*
X138238279Y-115794087D01*
X138225429Y-115751726D01*
X138188896Y-115631294D01*
X138176400Y-115504419D01*
X138176401Y-113895580D01*
X138188897Y-113768705D01*
X138238279Y-113605916D01*
X138238280Y-113605913D01*
X138318467Y-113455893D01*
X138318468Y-113455892D01*
X138318470Y-113455888D01*
X138426389Y-113324388D01*
X138557889Y-113216469D01*
X138557893Y-113216467D01*
X138557894Y-113216466D01*
X138707914Y-113136279D01*
X138707917Y-113136278D01*
X138870706Y-113086896D01*
X139040000Y-113070222D01*
X139209295Y-113086896D01*
G37*
G36*
X141749295Y-113086896D02*
G01*
X141912084Y-113136278D01*
X141912087Y-113136279D01*
X142062107Y-113216466D01*
X142062108Y-113216467D01*
X142062112Y-113216469D01*
X142193612Y-113324388D01*
X142301531Y-113455888D01*
X142301533Y-113455892D01*
X142301534Y-113455893D01*
X142381721Y-113605913D01*
X142381722Y-113605916D01*
X142431104Y-113768705D01*
X142443600Y-113895580D01*
X142443600Y-115504420D01*
X142431104Y-115631295D01*
X142381722Y-115794083D01*
X142381721Y-115794087D01*
X142301534Y-115944107D01*
X142301531Y-115944112D01*
X142193612Y-116075612D01*
X142062111Y-116183531D01*
X142062107Y-116183534D01*
X141912087Y-116263721D01*
X141869726Y-116276571D01*
X141749294Y-116313104D01*
X141580000Y-116329778D01*
X141410705Y-116313104D01*
X141247916Y-116263722D01*
X141247913Y-116263721D01*
X141097893Y-116183534D01*
X141097892Y-116183533D01*
X141097888Y-116183531D01*
X140966388Y-116075612D01*
X140858469Y-115944111D01*
X140858468Y-115944110D01*
X140858466Y-115944107D01*
X140778279Y-115794087D01*
X140765429Y-115751726D01*
X140728896Y-115631294D01*
X140716400Y-115504419D01*
X140716401Y-113895580D01*
X140728897Y-113768705D01*
X140778279Y-113605916D01*
X140778280Y-113605913D01*
X140858467Y-113455893D01*
X140858468Y-113455892D01*
X140858470Y-113455888D01*
X140966389Y-113324388D01*
X141097889Y-113216469D01*
X141097893Y-113216467D01*
X141097894Y-113216466D01*
X141247914Y-113136279D01*
X141247917Y-113136278D01*
X141410706Y-113086896D01*
X141580000Y-113070222D01*
X141749295Y-113086896D01*
G37*
G36*
X144289295Y-113086896D02*
G01*
X144452084Y-113136278D01*
X144452087Y-113136279D01*
X144602107Y-113216466D01*
X144602108Y-113216467D01*
X144602112Y-113216469D01*
X144733612Y-113324388D01*
X144841531Y-113455888D01*
X144841533Y-113455892D01*
X144841534Y-113455893D01*
X144921721Y-113605913D01*
X144921722Y-113605916D01*
X144971104Y-113768705D01*
X144983600Y-113895580D01*
X144983600Y-115504420D01*
X144971104Y-115631295D01*
X144921722Y-115794083D01*
X144921721Y-115794087D01*
X144841534Y-115944107D01*
X144841531Y-115944112D01*
X144733612Y-116075612D01*
X144602111Y-116183531D01*
X144602107Y-116183534D01*
X144452087Y-116263721D01*
X144409726Y-116276571D01*
X144289294Y-116313104D01*
X144120000Y-116329778D01*
X143950705Y-116313104D01*
X143787916Y-116263722D01*
X143787913Y-116263721D01*
X143637893Y-116183534D01*
X143637892Y-116183533D01*
X143637888Y-116183531D01*
X143506388Y-116075612D01*
X143398469Y-115944111D01*
X143398468Y-115944110D01*
X143398466Y-115944107D01*
X143318279Y-115794087D01*
X143305429Y-115751726D01*
X143268896Y-115631294D01*
X143256400Y-115504419D01*
X143256401Y-113895580D01*
X143268897Y-113768705D01*
X143318279Y-113605916D01*
X143318280Y-113605913D01*
X143398467Y-113455893D01*
X143398468Y-113455892D01*
X143398470Y-113455888D01*
X143506389Y-113324388D01*
X143637889Y-113216469D01*
X143637893Y-113216467D01*
X143637894Y-113216466D01*
X143787914Y-113136279D01*
X143787917Y-113136278D01*
X143950706Y-113086896D01*
X144120000Y-113070222D01*
X144289295Y-113086896D01*
G37*
G36*
X146829295Y-113086896D02*
G01*
X146992084Y-113136278D01*
X146992087Y-113136279D01*
X147142107Y-113216466D01*
X147142108Y-113216467D01*
X147142112Y-113216469D01*
X147273612Y-113324388D01*
X147381531Y-113455888D01*
X147381533Y-113455892D01*
X147381534Y-113455893D01*
X147461721Y-113605913D01*
X147461722Y-113605916D01*
X147511104Y-113768705D01*
X147523600Y-113895580D01*
X147523600Y-115504420D01*
X147511104Y-115631295D01*
X147461722Y-115794083D01*
X147461721Y-115794087D01*
X147381534Y-115944107D01*
X147381531Y-115944112D01*
X147273612Y-116075612D01*
X147142111Y-116183531D01*
X147142107Y-116183534D01*
X146992087Y-116263721D01*
X146949726Y-116276571D01*
X146829294Y-116313104D01*
X146660000Y-116329778D01*
X146490705Y-116313104D01*
X146327916Y-116263722D01*
X146327913Y-116263721D01*
X146177893Y-116183534D01*
X146177892Y-116183533D01*
X146177888Y-116183531D01*
X146046388Y-116075612D01*
X145938469Y-115944111D01*
X145938468Y-115944110D01*
X145938466Y-115944107D01*
X145858279Y-115794087D01*
X145845429Y-115751726D01*
X145808896Y-115631294D01*
X145796400Y-115504419D01*
X145796401Y-113895580D01*
X145808897Y-113768705D01*
X145858279Y-113605916D01*
X145858280Y-113605913D01*
X145938467Y-113455893D01*
X145938468Y-113455892D01*
X145938470Y-113455888D01*
X146046389Y-113324388D01*
X146177889Y-113216469D01*
X146177893Y-113216467D01*
X146177894Y-113216466D01*
X146327914Y-113136279D01*
X146327917Y-113136278D01*
X146490706Y-113086896D01*
X146660000Y-113070222D01*
X146829295Y-113086896D01*
G37*
G36*
X123546712Y-113860565D02*
G01*
X123631295Y-113868896D01*
X123794084Y-113918278D01*
X123794087Y-113918279D01*
X123944107Y-113998466D01*
X123944108Y-113998467D01*
X123944112Y-113998469D01*
X124075612Y-114106388D01*
X124183531Y-114237888D01*
X124183533Y-114237892D01*
X124183534Y-114237893D01*
X124263721Y-114387913D01*
X124263722Y-114387916D01*
X124313104Y-114550705D01*
X124329778Y-114720000D01*
X124313104Y-114889295D01*
X124269789Y-115032084D01*
X124263721Y-115052087D01*
X124183534Y-115202107D01*
X124183531Y-115202112D01*
X124075612Y-115333612D01*
X123944112Y-115441531D01*
X123944108Y-115441533D01*
X123944107Y-115441534D01*
X123794087Y-115521721D01*
X123794084Y-115521722D01*
X123631295Y-115571104D01*
X123546712Y-115579435D01*
X123504421Y-115583600D01*
X121895579Y-115583600D01*
X121853288Y-115579435D01*
X121768705Y-115571104D01*
X121605916Y-115521722D01*
X121605913Y-115521721D01*
X121455893Y-115441534D01*
X121455892Y-115441533D01*
X121455888Y-115441531D01*
X121324388Y-115333612D01*
X121216469Y-115202112D01*
X121216466Y-115202107D01*
X121136279Y-115052087D01*
X121130211Y-115032084D01*
X121086896Y-114889295D01*
X121070222Y-114720000D01*
X121086896Y-114550705D01*
X121136278Y-114387916D01*
X121136279Y-114387913D01*
X121216466Y-114237893D01*
X121216467Y-114237892D01*
X121216469Y-114237888D01*
X121324388Y-114106388D01*
X121455888Y-113998469D01*
X121455892Y-113998467D01*
X121455893Y-113998466D01*
X121605913Y-113918279D01*
X121605916Y-113918278D01*
X121768705Y-113868896D01*
X121853288Y-113860565D01*
X121895579Y-113856400D01*
X123504421Y-113856400D01*
X123546712Y-113860565D01*
G37*
G36*
X159346712Y-113840565D02*
G01*
X159431295Y-113848896D01*
X159585190Y-113895580D01*
X159594087Y-113898279D01*
X159744107Y-113978466D01*
X159744108Y-113978467D01*
X159744112Y-113978469D01*
X159875612Y-114086388D01*
X159983531Y-114217888D01*
X159983533Y-114217892D01*
X159983534Y-114217893D01*
X160063721Y-114367913D01*
X160063722Y-114367916D01*
X160113104Y-114530705D01*
X160129778Y-114700000D01*
X160113104Y-114869295D01*
X160063722Y-115032084D01*
X160063721Y-115032087D01*
X159983534Y-115182107D01*
X159983531Y-115182112D01*
X159875612Y-115313612D01*
X159744112Y-115421531D01*
X159744108Y-115421533D01*
X159744107Y-115421534D01*
X159594087Y-115501721D01*
X159594084Y-115501722D01*
X159431295Y-115551104D01*
X159346712Y-115559435D01*
X159304421Y-115563600D01*
X157695579Y-115563600D01*
X157653288Y-115559435D01*
X157568705Y-115551104D01*
X157405916Y-115501722D01*
X157405913Y-115501721D01*
X157255893Y-115421534D01*
X157255892Y-115421533D01*
X157255888Y-115421531D01*
X157124388Y-115313612D01*
X157016469Y-115182112D01*
X157016466Y-115182107D01*
X156936279Y-115032087D01*
X156936278Y-115032084D01*
X156886896Y-114869295D01*
X156870222Y-114700000D01*
X156886896Y-114530705D01*
X156936278Y-114367916D01*
X156936279Y-114367913D01*
X157016466Y-114217893D01*
X157016467Y-114217892D01*
X157016469Y-114217888D01*
X157124388Y-114086388D01*
X157255888Y-113978469D01*
X157255892Y-113978467D01*
X157255893Y-113978466D01*
X157405913Y-113898279D01*
X157414810Y-113895580D01*
X157568705Y-113848896D01*
X157653288Y-113840565D01*
X157695579Y-113836400D01*
X159304421Y-113836400D01*
X159346712Y-113840565D01*
G37*
G36*
X123546712Y-111320565D02*
G01*
X123631295Y-111328896D01*
X123794084Y-111378278D01*
X123794087Y-111378279D01*
X123944107Y-111458466D01*
X123944108Y-111458467D01*
X123944112Y-111458469D01*
X124075612Y-111566388D01*
X124183531Y-111697888D01*
X124183533Y-111697892D01*
X124183534Y-111697893D01*
X124263721Y-111847913D01*
X124263722Y-111847916D01*
X124313104Y-112010705D01*
X124329778Y-112180000D01*
X124313104Y-112349295D01*
X124269789Y-112492084D01*
X124263721Y-112512087D01*
X124183534Y-112662107D01*
X124183531Y-112662112D01*
X124075612Y-112793612D01*
X123944112Y-112901531D01*
X123944108Y-112901533D01*
X123944107Y-112901534D01*
X123794087Y-112981721D01*
X123794084Y-112981722D01*
X123631295Y-113031104D01*
X123546712Y-113039435D01*
X123504421Y-113043600D01*
X121895579Y-113043600D01*
X121853288Y-113039435D01*
X121768705Y-113031104D01*
X121605916Y-112981722D01*
X121605913Y-112981721D01*
X121455893Y-112901534D01*
X121455892Y-112901533D01*
X121455888Y-112901531D01*
X121324388Y-112793612D01*
X121216469Y-112662112D01*
X121216466Y-112662107D01*
X121136279Y-112512087D01*
X121130211Y-112492084D01*
X121086896Y-112349295D01*
X121070222Y-112180000D01*
X121086896Y-112010705D01*
X121136278Y-111847916D01*
X121136279Y-111847913D01*
X121216466Y-111697893D01*
X121216467Y-111697892D01*
X121216469Y-111697888D01*
X121324388Y-111566388D01*
X121455888Y-111458469D01*
X121455892Y-111458467D01*
X121455893Y-111458466D01*
X121605913Y-111378279D01*
X121605916Y-111378278D01*
X121768705Y-111328896D01*
X121853288Y-111320565D01*
X121895579Y-111316400D01*
X123504421Y-111316400D01*
X123546712Y-111320565D01*
G37*
G36*
X159346712Y-111300565D02*
G01*
X159431295Y-111308896D01*
X159594084Y-111358278D01*
X159594087Y-111358279D01*
X159744107Y-111438466D01*
X159744108Y-111438467D01*
X159744112Y-111438469D01*
X159875612Y-111546388D01*
X159983531Y-111677888D01*
X159983533Y-111677892D01*
X159983534Y-111677893D01*
X160063721Y-111827913D01*
X160063722Y-111827916D01*
X160113104Y-111990705D01*
X160129778Y-112160000D01*
X160113104Y-112329295D01*
X160063722Y-112492084D01*
X160063721Y-112492087D01*
X159983534Y-112642107D01*
X159983531Y-112642112D01*
X159875612Y-112773612D01*
X159744112Y-112881531D01*
X159744108Y-112881533D01*
X159744107Y-112881534D01*
X159594087Y-112961721D01*
X159594084Y-112961722D01*
X159431295Y-113011104D01*
X159346712Y-113019435D01*
X159304421Y-113023600D01*
X157695579Y-113023600D01*
X157653288Y-113019435D01*
X157568705Y-113011104D01*
X157405916Y-112961722D01*
X157405913Y-112961721D01*
X157255893Y-112881534D01*
X157255892Y-112881533D01*
X157255888Y-112881531D01*
X157124388Y-112773612D01*
X157016469Y-112642112D01*
X157016466Y-112642107D01*
X156936279Y-112492087D01*
X156936278Y-112492084D01*
X156886896Y-112329295D01*
X156870222Y-112160000D01*
X156886896Y-111990705D01*
X156936278Y-111827916D01*
X156936279Y-111827913D01*
X157016466Y-111677893D01*
X157016467Y-111677892D01*
X157016469Y-111677888D01*
X157124388Y-111546388D01*
X157255888Y-111438469D01*
X157255892Y-111438467D01*
X157255893Y-111438466D01*
X157405913Y-111358279D01*
X157405916Y-111358278D01*
X157568705Y-111308896D01*
X157653288Y-111300565D01*
X157695579Y-111296400D01*
X159304421Y-111296400D01*
X159346712Y-111300565D01*
G37*
G36*
X155049470Y-112851740D02*
G01*
X153949250Y-112851740D01*
X153949250Y-111550860D01*
X155049470Y-111550860D01*
X155049470Y-112851740D01*
G37*
G36*
X152550110Y-112851740D02*
G01*
X151449890Y-112851740D01*
X151449890Y-111550860D01*
X152550110Y-111550860D01*
X152550110Y-112851740D01*
G37*
G36*
X150050750Y-112851740D02*
G01*
X148950530Y-112851740D01*
X148950530Y-111550860D01*
X150050750Y-111550860D01*
X150050750Y-112851740D01*
G37*
G36*
X123546712Y-108780565D02*
G01*
X123631295Y-108788896D01*
X123794084Y-108838278D01*
X123794087Y-108838279D01*
X123944107Y-108918466D01*
X123944108Y-108918467D01*
X123944112Y-108918469D01*
X124075612Y-109026388D01*
X124183531Y-109157888D01*
X124183533Y-109157892D01*
X124183534Y-109157893D01*
X124263721Y-109307913D01*
X124263722Y-109307916D01*
X124313104Y-109470705D01*
X124329778Y-109640000D01*
X124313104Y-109809295D01*
X124269789Y-109952084D01*
X124263721Y-109972087D01*
X124183534Y-110122107D01*
X124183531Y-110122112D01*
X124075612Y-110253612D01*
X123944112Y-110361531D01*
X123944108Y-110361533D01*
X123944107Y-110361534D01*
X123794087Y-110441721D01*
X123794084Y-110441722D01*
X123631295Y-110491104D01*
X123546712Y-110499435D01*
X123504421Y-110503600D01*
X121895579Y-110503600D01*
X121853288Y-110499435D01*
X121768705Y-110491104D01*
X121605916Y-110441722D01*
X121605913Y-110441721D01*
X121455893Y-110361534D01*
X121455892Y-110361533D01*
X121455888Y-110361531D01*
X121324388Y-110253612D01*
X121216469Y-110122112D01*
X121216466Y-110122107D01*
X121136279Y-109972087D01*
X121130211Y-109952084D01*
X121086896Y-109809295D01*
X121070222Y-109640000D01*
X121086896Y-109470705D01*
X121136278Y-109307916D01*
X121136279Y-109307913D01*
X121216466Y-109157893D01*
X121216467Y-109157892D01*
X121216469Y-109157888D01*
X121324388Y-109026388D01*
X121455888Y-108918469D01*
X121455892Y-108918467D01*
X121455893Y-108918466D01*
X121605913Y-108838279D01*
X121605916Y-108838278D01*
X121768705Y-108788896D01*
X121853288Y-108780565D01*
X121895579Y-108776400D01*
X123504421Y-108776400D01*
X123546712Y-108780565D01*
G37*
G36*
X159346712Y-108760565D02*
G01*
X159431295Y-108768896D01*
X159594084Y-108818278D01*
X159594087Y-108818279D01*
X159744107Y-108898466D01*
X159744108Y-108898467D01*
X159744112Y-108898469D01*
X159875612Y-109006388D01*
X159983531Y-109137888D01*
X159983533Y-109137892D01*
X159983534Y-109137893D01*
X160063721Y-109287913D01*
X160063722Y-109287916D01*
X160113104Y-109450705D01*
X160129778Y-109620000D01*
X160113104Y-109789295D01*
X160063722Y-109952084D01*
X160063721Y-109952087D01*
X159983534Y-110102107D01*
X159983531Y-110102112D01*
X159875612Y-110233612D01*
X159744112Y-110341531D01*
X159744108Y-110341533D01*
X159744107Y-110341534D01*
X159594087Y-110421721D01*
X159594084Y-110421722D01*
X159431295Y-110471104D01*
X159346712Y-110479435D01*
X159304421Y-110483600D01*
X157695579Y-110483600D01*
X157653288Y-110479435D01*
X157568705Y-110471104D01*
X157405916Y-110421722D01*
X157405913Y-110421721D01*
X157255893Y-110341534D01*
X157255892Y-110341533D01*
X157255888Y-110341531D01*
X157124388Y-110233612D01*
X157016469Y-110102112D01*
X157016466Y-110102107D01*
X156936279Y-109952087D01*
X156936278Y-109952084D01*
X156886896Y-109789295D01*
X156870222Y-109620000D01*
X156886896Y-109450705D01*
X156936278Y-109287916D01*
X156936279Y-109287913D01*
X157016466Y-109137893D01*
X157016467Y-109137892D01*
X157016469Y-109137888D01*
X157124388Y-109006388D01*
X157255888Y-108898469D01*
X157255892Y-108898467D01*
X157255893Y-108898466D01*
X157405913Y-108818279D01*
X157405916Y-108818278D01*
X157568705Y-108768896D01*
X157653288Y-108760565D01*
X157695579Y-108756400D01*
X159304421Y-108756400D01*
X159346712Y-108760565D01*
G37*
G36*
X140266000Y-109351000D02*
G01*
X139464000Y-109351000D01*
X139464000Y-106749000D01*
X140266000Y-106749000D01*
X140266000Y-109351000D01*
G37*
G36*
X146616000Y-109351000D02*
G01*
X145814000Y-109351000D01*
X145814000Y-106749000D01*
X146616000Y-106749000D01*
X146616000Y-109351000D01*
G37*
G36*
X135186000Y-109351000D02*
G01*
X134384000Y-109351000D01*
X134384000Y-106749000D01*
X135186000Y-106749000D01*
X135186000Y-109351000D01*
G37*
G36*
X136456000Y-109351000D02*
G01*
X135654000Y-109351000D01*
X135654000Y-106749000D01*
X136456000Y-106749000D01*
X136456000Y-109351000D01*
G37*
G36*
X137726000Y-109351000D02*
G01*
X136924000Y-109351000D01*
X136924000Y-106749000D01*
X137726000Y-106749000D01*
X137726000Y-109351000D01*
G37*
G36*
X138996000Y-109351000D02*
G01*
X138194000Y-109351000D01*
X138194000Y-106749000D01*
X138996000Y-106749000D01*
X138996000Y-109351000D01*
G37*
G36*
X145346000Y-109351000D02*
G01*
X144544000Y-109351000D01*
X144544000Y-106749000D01*
X145346000Y-106749000D01*
X145346000Y-109351000D01*
G37*
G36*
X144076000Y-109351000D02*
G01*
X143274000Y-109351000D01*
X143274000Y-106749000D01*
X144076000Y-106749000D01*
X144076000Y-109351000D01*
G37*
G36*
X142806000Y-109351000D02*
G01*
X142004000Y-109351000D01*
X142004000Y-106749000D01*
X142806000Y-106749000D01*
X142806000Y-109351000D01*
G37*
G36*
X141536000Y-109351000D02*
G01*
X140734000Y-109351000D01*
X140734000Y-106749000D01*
X141536000Y-106749000D01*
X141536000Y-109351000D01*
G37*
G36*
X123546712Y-106240565D02*
G01*
X123631295Y-106248896D01*
X123794084Y-106298278D01*
X123794087Y-106298279D01*
X123944107Y-106378466D01*
X123944108Y-106378467D01*
X123944112Y-106378469D01*
X124075612Y-106486388D01*
X124183531Y-106617888D01*
X124183533Y-106617892D01*
X124183534Y-106617893D01*
X124263721Y-106767913D01*
X124263722Y-106767916D01*
X124313104Y-106930705D01*
X124329778Y-107100000D01*
X124313104Y-107269295D01*
X124269789Y-107412084D01*
X124263721Y-107432087D01*
X124183534Y-107582107D01*
X124183531Y-107582112D01*
X124075612Y-107713612D01*
X123944112Y-107821531D01*
X123944108Y-107821533D01*
X123944107Y-107821534D01*
X123794087Y-107901721D01*
X123794084Y-107901722D01*
X123631295Y-107951104D01*
X123546712Y-107959435D01*
X123504421Y-107963600D01*
X121895579Y-107963600D01*
X121853288Y-107959435D01*
X121768705Y-107951104D01*
X121605916Y-107901722D01*
X121605913Y-107901721D01*
X121455893Y-107821534D01*
X121455892Y-107821533D01*
X121455888Y-107821531D01*
X121324388Y-107713612D01*
X121216469Y-107582112D01*
X121216466Y-107582107D01*
X121136279Y-107432087D01*
X121130211Y-107412084D01*
X121086896Y-107269295D01*
X121070222Y-107100000D01*
X121086896Y-106930705D01*
X121136278Y-106767916D01*
X121136279Y-106767913D01*
X121216466Y-106617893D01*
X121216467Y-106617892D01*
X121216469Y-106617888D01*
X121324388Y-106486388D01*
X121455888Y-106378469D01*
X121455892Y-106378467D01*
X121455893Y-106378466D01*
X121605913Y-106298279D01*
X121605916Y-106298278D01*
X121768705Y-106248896D01*
X121853288Y-106240565D01*
X121895579Y-106236400D01*
X123504421Y-106236400D01*
X123546712Y-106240565D01*
G37*
G36*
X159346712Y-106220565D02*
G01*
X159431295Y-106228896D01*
X159594084Y-106278278D01*
X159594087Y-106278279D01*
X159744107Y-106358466D01*
X159744108Y-106358467D01*
X159744112Y-106358469D01*
X159875612Y-106466388D01*
X159983531Y-106597888D01*
X159983533Y-106597892D01*
X159983534Y-106597893D01*
X160063721Y-106747913D01*
X160063722Y-106747916D01*
X160113104Y-106910705D01*
X160129778Y-107080000D01*
X160113104Y-107249295D01*
X160063722Y-107412084D01*
X160063721Y-107412087D01*
X159983534Y-107562107D01*
X159983531Y-107562112D01*
X159875612Y-107693612D01*
X159744112Y-107801531D01*
X159744108Y-107801533D01*
X159744107Y-107801534D01*
X159594087Y-107881721D01*
X159594084Y-107881722D01*
X159431295Y-107931104D01*
X159346712Y-107939435D01*
X159304421Y-107943600D01*
X157695579Y-107943600D01*
X157653288Y-107939435D01*
X157568705Y-107931104D01*
X157405916Y-107881722D01*
X157405913Y-107881721D01*
X157255893Y-107801534D01*
X157255892Y-107801533D01*
X157255888Y-107801531D01*
X157124388Y-107693612D01*
X157016469Y-107562112D01*
X157016466Y-107562107D01*
X156936279Y-107412087D01*
X156936278Y-107412084D01*
X156886896Y-107249295D01*
X156870222Y-107080000D01*
X156886896Y-106910705D01*
X156936278Y-106747916D01*
X156936279Y-106747913D01*
X157016466Y-106597893D01*
X157016467Y-106597892D01*
X157016469Y-106597888D01*
X157124388Y-106466388D01*
X157255888Y-106358469D01*
X157255892Y-106358467D01*
X157255893Y-106358466D01*
X157405913Y-106278279D01*
X157405916Y-106278278D01*
X157568705Y-106228896D01*
X157653288Y-106220565D01*
X157695579Y-106216400D01*
X159304421Y-106216400D01*
X159346712Y-106220565D01*
G37*
G36*
X132801000Y-106961000D02*
G01*
X130199000Y-106961000D01*
X130199000Y-106159000D01*
X132801000Y-106159000D01*
X132801000Y-106961000D01*
G37*
G36*
X150801000Y-106961000D02*
G01*
X148199000Y-106961000D01*
X148199000Y-106159000D01*
X150801000Y-106159000D01*
X150801000Y-106961000D01*
G37*
G36*
X150801000Y-105691000D02*
G01*
X148199000Y-105691000D01*
X148199000Y-104889000D01*
X150801000Y-104889000D01*
X150801000Y-105691000D01*
G37*
G36*
X132801000Y-105691000D02*
G01*
X130199000Y-105691000D01*
X130199000Y-104889000D01*
X132801000Y-104889000D01*
X132801000Y-105691000D01*
G37*
G36*
X123546712Y-103700565D02*
G01*
X123631295Y-103708896D01*
X123794084Y-103758278D01*
X123794087Y-103758279D01*
X123944107Y-103838466D01*
X123944108Y-103838467D01*
X123944112Y-103838469D01*
X124075612Y-103946388D01*
X124183531Y-104077888D01*
X124183533Y-104077892D01*
X124183534Y-104077893D01*
X124263721Y-104227913D01*
X124263722Y-104227916D01*
X124313104Y-104390705D01*
X124329778Y-104560000D01*
X124313104Y-104729295D01*
X124263722Y-104892084D01*
X124263721Y-104892087D01*
X124183534Y-105042107D01*
X124183531Y-105042112D01*
X124075612Y-105173612D01*
X123944112Y-105281531D01*
X123944108Y-105281533D01*
X123944107Y-105281534D01*
X123794087Y-105361721D01*
X123794084Y-105361722D01*
X123631295Y-105411104D01*
X123546712Y-105419435D01*
X123504421Y-105423600D01*
X121895579Y-105423600D01*
X121853288Y-105419435D01*
X121768705Y-105411104D01*
X121605916Y-105361722D01*
X121605913Y-105361721D01*
X121455893Y-105281534D01*
X121455892Y-105281533D01*
X121455888Y-105281531D01*
X121324388Y-105173612D01*
X121216469Y-105042112D01*
X121216466Y-105042107D01*
X121136279Y-104892087D01*
X121136278Y-104892084D01*
X121086896Y-104729295D01*
X121070222Y-104560000D01*
X121086896Y-104390705D01*
X121136278Y-104227916D01*
X121136279Y-104227913D01*
X121216466Y-104077893D01*
X121216467Y-104077892D01*
X121216469Y-104077888D01*
X121324388Y-103946388D01*
X121455888Y-103838469D01*
X121455892Y-103838467D01*
X121455893Y-103838466D01*
X121605913Y-103758279D01*
X121605916Y-103758278D01*
X121768705Y-103708896D01*
X121853288Y-103700565D01*
X121895579Y-103696400D01*
X123504421Y-103696400D01*
X123546712Y-103700565D01*
G37*
G36*
X159346712Y-103680565D02*
G01*
X159431295Y-103688896D01*
X159594084Y-103738278D01*
X159594087Y-103738279D01*
X159744107Y-103818466D01*
X159744108Y-103818467D01*
X159744112Y-103818469D01*
X159875612Y-103926388D01*
X159983531Y-104057888D01*
X159983533Y-104057892D01*
X159983534Y-104057893D01*
X160063721Y-104207913D01*
X160063722Y-104207916D01*
X160113104Y-104370705D01*
X160129778Y-104540000D01*
X160113104Y-104709295D01*
X160063722Y-104872084D01*
X160063721Y-104872087D01*
X159983534Y-105022107D01*
X159983531Y-105022112D01*
X159875612Y-105153612D01*
X159744112Y-105261531D01*
X159744108Y-105261533D01*
X159744107Y-105261534D01*
X159594087Y-105341721D01*
X159594084Y-105341722D01*
X159431295Y-105391104D01*
X159346712Y-105399435D01*
X159304421Y-105403600D01*
X157695579Y-105403600D01*
X157653288Y-105399435D01*
X157568705Y-105391104D01*
X157405916Y-105341722D01*
X157405913Y-105341721D01*
X157255893Y-105261534D01*
X157255892Y-105261533D01*
X157255888Y-105261531D01*
X157124388Y-105153612D01*
X157016469Y-105022112D01*
X157016466Y-105022107D01*
X156936279Y-104872087D01*
X156936278Y-104872084D01*
X156886896Y-104709295D01*
X156870222Y-104540000D01*
X156886896Y-104370705D01*
X156936278Y-104207916D01*
X156936279Y-104207913D01*
X157016466Y-104057893D01*
X157016467Y-104057892D01*
X157016469Y-104057888D01*
X157124388Y-103926388D01*
X157255888Y-103818469D01*
X157255892Y-103818467D01*
X157255893Y-103818466D01*
X157405913Y-103738279D01*
X157405916Y-103738278D01*
X157568705Y-103688896D01*
X157653288Y-103680565D01*
X157695579Y-103676400D01*
X159304421Y-103676400D01*
X159346712Y-103680565D01*
G37*
G36*
X150801000Y-104421000D02*
G01*
X148199000Y-104421000D01*
X148199000Y-103619000D01*
X150801000Y-103619000D01*
X150801000Y-104421000D01*
G37*
G36*
X132801000Y-104421000D02*
G01*
X130199000Y-104421000D01*
X130199000Y-103619000D01*
X132801000Y-103619000D01*
X132801000Y-104421000D01*
G37*
G36*
X150801000Y-103151000D02*
G01*
X148199000Y-103151000D01*
X148199000Y-102349000D01*
X150801000Y-102349000D01*
X150801000Y-103151000D01*
G37*
G36*
X132801000Y-103151000D02*
G01*
X130199000Y-103151000D01*
X130199000Y-102349000D01*
X132801000Y-102349000D01*
X132801000Y-103151000D01*
G37*
G36*
X123546712Y-101160565D02*
G01*
X123631295Y-101168896D01*
X123794084Y-101218278D01*
X123794087Y-101218279D01*
X123944107Y-101298466D01*
X123944108Y-101298467D01*
X123944112Y-101298469D01*
X124075612Y-101406388D01*
X124183531Y-101537888D01*
X124183533Y-101537892D01*
X124183534Y-101537893D01*
X124263721Y-101687913D01*
X124263722Y-101687916D01*
X124313104Y-101850705D01*
X124329778Y-102020000D01*
X124313104Y-102189295D01*
X124263722Y-102352084D01*
X124263721Y-102352087D01*
X124183534Y-102502107D01*
X124183531Y-102502112D01*
X124075612Y-102633612D01*
X123944112Y-102741531D01*
X123944108Y-102741533D01*
X123944107Y-102741534D01*
X123794087Y-102821721D01*
X123794084Y-102821722D01*
X123631295Y-102871104D01*
X123546712Y-102879435D01*
X123504421Y-102883600D01*
X121895579Y-102883600D01*
X121853288Y-102879435D01*
X121768705Y-102871104D01*
X121605916Y-102821722D01*
X121605913Y-102821721D01*
X121455893Y-102741534D01*
X121455892Y-102741533D01*
X121455888Y-102741531D01*
X121324388Y-102633612D01*
X121216469Y-102502112D01*
X121216466Y-102502107D01*
X121136279Y-102352087D01*
X121136278Y-102352084D01*
X121086896Y-102189295D01*
X121070222Y-102020000D01*
X121086896Y-101850705D01*
X121136278Y-101687916D01*
X121136279Y-101687913D01*
X121216466Y-101537893D01*
X121216467Y-101537892D01*
X121216469Y-101537888D01*
X121324388Y-101406388D01*
X121455888Y-101298469D01*
X121455892Y-101298467D01*
X121455893Y-101298466D01*
X121605913Y-101218279D01*
X121605916Y-101218278D01*
X121768705Y-101168896D01*
X121853288Y-101160565D01*
X121895579Y-101156400D01*
X123504421Y-101156400D01*
X123546712Y-101160565D01*
G37*
G36*
X159346712Y-101140565D02*
G01*
X159431295Y-101148896D01*
X159594084Y-101198278D01*
X159594087Y-101198279D01*
X159744107Y-101278466D01*
X159744108Y-101278467D01*
X159744112Y-101278469D01*
X159875612Y-101386388D01*
X159983531Y-101517888D01*
X159983533Y-101517892D01*
X159983534Y-101517893D01*
X160063721Y-101667913D01*
X160063722Y-101667916D01*
X160113104Y-101830705D01*
X160129778Y-102000000D01*
X160113104Y-102169295D01*
X160063722Y-102332084D01*
X160063721Y-102332087D01*
X159983534Y-102482107D01*
X159983531Y-102482112D01*
X159875612Y-102613612D01*
X159744112Y-102721531D01*
X159744108Y-102721533D01*
X159744107Y-102721534D01*
X159594087Y-102801721D01*
X159594084Y-102801722D01*
X159431295Y-102851104D01*
X159346712Y-102859435D01*
X159304421Y-102863600D01*
X157695579Y-102863600D01*
X157653288Y-102859435D01*
X157568705Y-102851104D01*
X157405916Y-102801722D01*
X157405913Y-102801721D01*
X157255893Y-102721534D01*
X157255892Y-102721533D01*
X157255888Y-102721531D01*
X157124388Y-102613612D01*
X157016469Y-102482112D01*
X157016466Y-102482107D01*
X156936279Y-102332087D01*
X156936278Y-102332084D01*
X156886896Y-102169295D01*
X156870222Y-102000000D01*
X156886896Y-101830705D01*
X156936278Y-101667916D01*
X156936279Y-101667913D01*
X157016466Y-101517893D01*
X157016467Y-101517892D01*
X157016469Y-101517888D01*
X157124388Y-101386388D01*
X157255888Y-101278469D01*
X157255892Y-101278467D01*
X157255893Y-101278466D01*
X157405913Y-101198279D01*
X157405916Y-101198278D01*
X157568705Y-101148896D01*
X157653288Y-101140565D01*
X157695579Y-101136400D01*
X159304421Y-101136400D01*
X159346712Y-101140565D01*
G37*
G36*
X150801000Y-101881000D02*
G01*
X148199000Y-101881000D01*
X148199000Y-101079000D01*
X150801000Y-101079000D01*
X150801000Y-101881000D01*
G37*
G36*
X132801000Y-101881000D02*
G01*
X130199000Y-101881000D01*
X130199000Y-101079000D01*
X132801000Y-101079000D01*
X132801000Y-101881000D01*
G37*
G36*
X143251000Y-100801000D02*
G01*
X137149000Y-100801000D01*
X137149000Y-94699000D01*
X143251000Y-94699000D01*
X143251000Y-100801000D01*
G37*
G36*
X132801000Y-100611000D02*
G01*
X130199000Y-100611000D01*
X130199000Y-99809000D01*
X132801000Y-99809000D01*
X132801000Y-100611000D01*
G37*
G36*
X150801000Y-100611000D02*
G01*
X148199000Y-100611000D01*
X148199000Y-99809000D01*
X150801000Y-99809000D01*
X150801000Y-100611000D01*
G37*
G36*
X123546712Y-98620565D02*
G01*
X123631295Y-98628896D01*
X123794084Y-98678278D01*
X123794087Y-98678279D01*
X123944107Y-98758466D01*
X123944108Y-98758467D01*
X123944112Y-98758469D01*
X124075612Y-98866388D01*
X124183531Y-98997888D01*
X124183533Y-98997892D01*
X124183534Y-98997893D01*
X124263721Y-99147913D01*
X124263722Y-99147916D01*
X124313104Y-99310705D01*
X124329778Y-99480000D01*
X124313104Y-99649295D01*
X124263722Y-99812084D01*
X124263721Y-99812087D01*
X124183534Y-99962107D01*
X124183531Y-99962112D01*
X124075612Y-100093612D01*
X123944112Y-100201531D01*
X123944108Y-100201533D01*
X123944107Y-100201534D01*
X123794087Y-100281721D01*
X123794084Y-100281722D01*
X123631295Y-100331104D01*
X123546712Y-100339435D01*
X123504421Y-100343600D01*
X121895579Y-100343600D01*
X121853288Y-100339435D01*
X121768705Y-100331104D01*
X121605916Y-100281722D01*
X121605913Y-100281721D01*
X121455893Y-100201534D01*
X121455892Y-100201533D01*
X121455888Y-100201531D01*
X121324388Y-100093612D01*
X121216469Y-99962112D01*
X121216466Y-99962107D01*
X121136279Y-99812087D01*
X121136278Y-99812084D01*
X121086896Y-99649295D01*
X121070222Y-99480000D01*
X121086896Y-99310705D01*
X121136278Y-99147916D01*
X121136279Y-99147913D01*
X121216466Y-98997893D01*
X121216467Y-98997892D01*
X121216469Y-98997888D01*
X121324388Y-98866388D01*
X121455888Y-98758469D01*
X121455892Y-98758467D01*
X121455893Y-98758466D01*
X121605913Y-98678279D01*
X121605916Y-98678278D01*
X121768705Y-98628896D01*
X121853288Y-98620565D01*
X121895579Y-98616400D01*
X123504421Y-98616400D01*
X123546712Y-98620565D01*
G37*
G36*
X159346712Y-98600565D02*
G01*
X159431295Y-98608896D01*
X159594084Y-98658278D01*
X159594087Y-98658279D01*
X159744107Y-98738466D01*
X159744108Y-98738467D01*
X159744112Y-98738469D01*
X159875612Y-98846388D01*
X159983531Y-98977888D01*
X159983533Y-98977892D01*
X159983534Y-98977893D01*
X160063721Y-99127913D01*
X160063722Y-99127916D01*
X160113104Y-99290705D01*
X160129778Y-99460000D01*
X160113104Y-99629295D01*
X160063722Y-99792084D01*
X160063721Y-99792087D01*
X159983534Y-99942107D01*
X159983531Y-99942112D01*
X159875612Y-100073612D01*
X159744112Y-100181531D01*
X159744108Y-100181533D01*
X159744107Y-100181534D01*
X159594087Y-100261721D01*
X159594084Y-100261722D01*
X159431295Y-100311104D01*
X159346712Y-100319435D01*
X159304421Y-100323600D01*
X157695579Y-100323600D01*
X157653288Y-100319435D01*
X157568705Y-100311104D01*
X157405916Y-100261722D01*
X157405913Y-100261721D01*
X157255893Y-100181534D01*
X157255892Y-100181533D01*
X157255888Y-100181531D01*
X157124388Y-100073612D01*
X157016469Y-99942112D01*
X157016466Y-99942107D01*
X156936279Y-99792087D01*
X156936278Y-99792084D01*
X156886896Y-99629295D01*
X156870222Y-99460000D01*
X156886896Y-99290705D01*
X156936278Y-99127916D01*
X156936279Y-99127913D01*
X157016466Y-98977893D01*
X157016467Y-98977892D01*
X157016469Y-98977888D01*
X157124388Y-98846388D01*
X157255888Y-98738469D01*
X157255892Y-98738467D01*
X157255893Y-98738466D01*
X157405913Y-98658279D01*
X157405916Y-98658278D01*
X157568705Y-98608896D01*
X157653288Y-98600565D01*
X157695579Y-98596400D01*
X159304421Y-98596400D01*
X159346712Y-98600565D01*
G37*
G36*
X150801000Y-99341000D02*
G01*
X148199000Y-99341000D01*
X148199000Y-98539000D01*
X150801000Y-98539000D01*
X150801000Y-99341000D01*
G37*
G36*
X132801000Y-99341000D02*
G01*
X130199000Y-99341000D01*
X130199000Y-98539000D01*
X132801000Y-98539000D01*
X132801000Y-99341000D01*
G37*
G36*
X150801000Y-98071000D02*
G01*
X148199000Y-98071000D01*
X148199000Y-97269000D01*
X150801000Y-97269000D01*
X150801000Y-98071000D01*
G37*
G36*
X132801000Y-98071000D02*
G01*
X130199000Y-98071000D01*
X130199000Y-97269000D01*
X132801000Y-97269000D01*
X132801000Y-98071000D01*
G37*
G36*
X123546712Y-96080565D02*
G01*
X123631295Y-96088896D01*
X123794084Y-96138278D01*
X123794087Y-96138279D01*
X123944107Y-96218466D01*
X123944108Y-96218467D01*
X123944112Y-96218469D01*
X124075612Y-96326388D01*
X124183531Y-96457888D01*
X124183533Y-96457892D01*
X124183534Y-96457893D01*
X124263721Y-96607913D01*
X124263722Y-96607916D01*
X124313104Y-96770705D01*
X124329778Y-96940000D01*
X124313104Y-97109295D01*
X124263722Y-97272084D01*
X124263721Y-97272087D01*
X124183534Y-97422107D01*
X124183531Y-97422112D01*
X124075612Y-97553612D01*
X123944112Y-97661531D01*
X123944108Y-97661533D01*
X123944107Y-97661534D01*
X123794087Y-97741721D01*
X123794084Y-97741722D01*
X123631295Y-97791104D01*
X123546712Y-97799435D01*
X123504421Y-97803600D01*
X121895579Y-97803600D01*
X121853288Y-97799435D01*
X121768705Y-97791104D01*
X121605916Y-97741722D01*
X121605913Y-97741721D01*
X121455893Y-97661534D01*
X121455892Y-97661533D01*
X121455888Y-97661531D01*
X121324388Y-97553612D01*
X121216469Y-97422112D01*
X121216466Y-97422107D01*
X121136279Y-97272087D01*
X121136278Y-97272084D01*
X121086896Y-97109295D01*
X121070222Y-96940000D01*
X121086896Y-96770705D01*
X121136278Y-96607916D01*
X121136279Y-96607913D01*
X121216466Y-96457893D01*
X121216467Y-96457892D01*
X121216469Y-96457888D01*
X121324388Y-96326388D01*
X121455888Y-96218469D01*
X121455892Y-96218467D01*
X121455893Y-96218466D01*
X121605913Y-96138279D01*
X121605916Y-96138278D01*
X121768705Y-96088896D01*
X121853288Y-96080565D01*
X121895579Y-96076400D01*
X123504421Y-96076400D01*
X123546712Y-96080565D01*
G37*
G36*
X159346712Y-96060565D02*
G01*
X159431295Y-96068896D01*
X159594084Y-96118278D01*
X159594087Y-96118279D01*
X159744107Y-96198466D01*
X159744108Y-96198467D01*
X159744112Y-96198469D01*
X159875612Y-96306388D01*
X159983531Y-96437888D01*
X159983533Y-96437892D01*
X159983534Y-96437893D01*
X160063721Y-96587913D01*
X160063722Y-96587916D01*
X160113104Y-96750705D01*
X160129778Y-96920000D01*
X160113104Y-97089295D01*
X160063722Y-97252084D01*
X160063721Y-97252087D01*
X159983534Y-97402107D01*
X159983531Y-97402112D01*
X159875612Y-97533612D01*
X159744112Y-97641531D01*
X159744108Y-97641533D01*
X159744107Y-97641534D01*
X159594087Y-97721721D01*
X159594084Y-97721722D01*
X159431295Y-97771104D01*
X159346712Y-97779435D01*
X159304421Y-97783600D01*
X157695579Y-97783600D01*
X157653288Y-97779435D01*
X157568705Y-97771104D01*
X157405916Y-97721722D01*
X157405913Y-97721721D01*
X157255893Y-97641534D01*
X157255892Y-97641533D01*
X157255888Y-97641531D01*
X157124388Y-97533612D01*
X157016469Y-97402112D01*
X157016466Y-97402107D01*
X156936279Y-97252087D01*
X156936278Y-97252084D01*
X156886896Y-97089295D01*
X156870222Y-96920000D01*
X156886896Y-96750705D01*
X156936278Y-96587916D01*
X156936279Y-96587913D01*
X157016466Y-96437893D01*
X157016467Y-96437892D01*
X157016469Y-96437888D01*
X157124388Y-96306388D01*
X157255888Y-96198469D01*
X157255892Y-96198467D01*
X157255893Y-96198466D01*
X157405913Y-96118279D01*
X157405916Y-96118278D01*
X157568705Y-96068896D01*
X157653288Y-96060565D01*
X157695579Y-96056400D01*
X159304421Y-96056400D01*
X159346712Y-96060565D01*
G37*
G36*
X150801000Y-96801000D02*
G01*
X148199000Y-96801000D01*
X148199000Y-95999000D01*
X150801000Y-95999000D01*
X150801000Y-96801000D01*
G37*
G36*
X132801000Y-96801000D02*
G01*
X130199000Y-96801000D01*
X130199000Y-95999000D01*
X132801000Y-95999000D01*
X132801000Y-96801000D01*
G37*
G36*
X150801000Y-95531000D02*
G01*
X148199000Y-95531000D01*
X148199000Y-94729000D01*
X150801000Y-94729000D01*
X150801000Y-95531000D01*
G37*
G36*
X132801000Y-95531000D02*
G01*
X130199000Y-95531000D01*
X130199000Y-94729000D01*
X132801000Y-94729000D01*
X132801000Y-95531000D01*
G37*
G36*
X123546712Y-93540565D02*
G01*
X123631295Y-93548896D01*
X123794084Y-93598278D01*
X123794087Y-93598279D01*
X123944107Y-93678466D01*
X123944108Y-93678467D01*
X123944112Y-93678469D01*
X124075612Y-93786388D01*
X124183531Y-93917888D01*
X124183533Y-93917892D01*
X124183534Y-93917893D01*
X124263721Y-94067913D01*
X124263722Y-94067916D01*
X124313104Y-94230705D01*
X124329778Y-94400000D01*
X124313104Y-94569295D01*
X124263722Y-94732084D01*
X124263721Y-94732087D01*
X124183534Y-94882107D01*
X124183531Y-94882112D01*
X124075612Y-95013612D01*
X123944112Y-95121531D01*
X123944108Y-95121533D01*
X123944107Y-95121534D01*
X123794087Y-95201721D01*
X123794084Y-95201722D01*
X123631295Y-95251104D01*
X123546712Y-95259435D01*
X123504421Y-95263600D01*
X121895579Y-95263600D01*
X121853288Y-95259435D01*
X121768705Y-95251104D01*
X121605916Y-95201722D01*
X121605913Y-95201721D01*
X121455893Y-95121534D01*
X121455892Y-95121533D01*
X121455888Y-95121531D01*
X121324388Y-95013612D01*
X121216469Y-94882112D01*
X121216466Y-94882107D01*
X121136279Y-94732087D01*
X121136278Y-94732084D01*
X121086896Y-94569295D01*
X121070222Y-94400000D01*
X121086896Y-94230705D01*
X121136278Y-94067916D01*
X121136279Y-94067913D01*
X121216466Y-93917893D01*
X121216467Y-93917892D01*
X121216469Y-93917888D01*
X121324388Y-93786388D01*
X121455888Y-93678469D01*
X121455892Y-93678467D01*
X121455893Y-93678466D01*
X121605913Y-93598279D01*
X121605916Y-93598278D01*
X121768705Y-93548896D01*
X121853288Y-93540565D01*
X121895579Y-93536400D01*
X123504421Y-93536400D01*
X123546712Y-93540565D01*
G37*
G36*
X159346712Y-93520565D02*
G01*
X159431295Y-93528896D01*
X159594084Y-93578278D01*
X159594087Y-93578279D01*
X159744107Y-93658466D01*
X159744108Y-93658467D01*
X159744112Y-93658469D01*
X159875612Y-93766388D01*
X159983531Y-93897888D01*
X159983533Y-93897892D01*
X159983534Y-93897893D01*
X160063721Y-94047913D01*
X160063722Y-94047916D01*
X160113104Y-94210705D01*
X160129778Y-94380000D01*
X160113104Y-94549295D01*
X160067691Y-94699000D01*
X160063721Y-94712087D01*
X159983534Y-94862107D01*
X159983531Y-94862112D01*
X159875612Y-94993612D01*
X159744112Y-95101531D01*
X159744108Y-95101533D01*
X159744107Y-95101534D01*
X159594087Y-95181721D01*
X159594084Y-95181722D01*
X159431295Y-95231104D01*
X159346712Y-95239435D01*
X159304421Y-95243600D01*
X157695579Y-95243600D01*
X157653288Y-95239435D01*
X157568705Y-95231104D01*
X157405916Y-95181722D01*
X157405913Y-95181721D01*
X157255893Y-95101534D01*
X157255892Y-95101533D01*
X157255888Y-95101531D01*
X157124388Y-94993612D01*
X157016469Y-94862112D01*
X157016466Y-94862107D01*
X156936279Y-94712087D01*
X156932309Y-94699000D01*
X156886896Y-94549295D01*
X156870222Y-94380000D01*
X156886896Y-94210705D01*
X156936278Y-94047916D01*
X156936279Y-94047913D01*
X157016466Y-93897893D01*
X157016467Y-93897892D01*
X157016469Y-93897888D01*
X157124388Y-93766388D01*
X157255888Y-93658469D01*
X157255892Y-93658467D01*
X157255893Y-93658466D01*
X157405913Y-93578279D01*
X157405916Y-93578278D01*
X157568705Y-93528896D01*
X157653288Y-93520565D01*
X157695579Y-93516400D01*
X159304421Y-93516400D01*
X159346712Y-93520565D01*
G37*
G36*
X132801000Y-94261000D02*
G01*
X130199000Y-94261000D01*
X130199000Y-93459000D01*
X132801000Y-93459000D01*
X132801000Y-94261000D01*
G37*
G36*
X150801000Y-94261000D02*
G01*
X148199000Y-94261000D01*
X148199000Y-93459000D01*
X150801000Y-93459000D01*
X150801000Y-94261000D01*
G37*
G36*
X132801000Y-92991000D02*
G01*
X130199000Y-92991000D01*
X130199000Y-92189000D01*
X132801000Y-92189000D01*
X132801000Y-92991000D01*
G37*
G36*
X150801000Y-92991000D02*
G01*
X148199000Y-92991000D01*
X148199000Y-92189000D01*
X150801000Y-92189000D01*
X150801000Y-92991000D01*
G37*
G36*
X123546712Y-91000565D02*
G01*
X123631295Y-91008896D01*
X123794084Y-91058278D01*
X123794087Y-91058279D01*
X123944107Y-91138466D01*
X123944108Y-91138467D01*
X123944112Y-91138469D01*
X124075612Y-91246388D01*
X124183531Y-91377888D01*
X124183533Y-91377892D01*
X124183534Y-91377893D01*
X124263721Y-91527913D01*
X124263722Y-91527916D01*
X124313104Y-91690705D01*
X124329778Y-91860000D01*
X124313104Y-92029295D01*
X124263722Y-92192084D01*
X124263721Y-92192087D01*
X124183534Y-92342107D01*
X124183531Y-92342112D01*
X124075612Y-92473612D01*
X123944112Y-92581531D01*
X123944108Y-92581533D01*
X123944107Y-92581534D01*
X123794087Y-92661721D01*
X123794084Y-92661722D01*
X123631295Y-92711104D01*
X123546712Y-92719435D01*
X123504421Y-92723600D01*
X121895579Y-92723600D01*
X121853288Y-92719435D01*
X121768705Y-92711104D01*
X121605916Y-92661722D01*
X121605913Y-92661721D01*
X121455893Y-92581534D01*
X121455892Y-92581533D01*
X121455888Y-92581531D01*
X121324388Y-92473612D01*
X121216469Y-92342112D01*
X121216466Y-92342107D01*
X121136279Y-92192087D01*
X121136278Y-92192084D01*
X121086896Y-92029295D01*
X121070222Y-91860000D01*
X121086896Y-91690705D01*
X121136278Y-91527916D01*
X121136279Y-91527913D01*
X121216466Y-91377893D01*
X121216467Y-91377892D01*
X121216469Y-91377888D01*
X121324388Y-91246388D01*
X121455888Y-91138469D01*
X121455892Y-91138467D01*
X121455893Y-91138466D01*
X121605913Y-91058279D01*
X121605916Y-91058278D01*
X121768705Y-91008896D01*
X121853288Y-91000565D01*
X121895579Y-90996400D01*
X123504421Y-90996400D01*
X123546712Y-91000565D01*
G37*
G36*
X159346712Y-90980565D02*
G01*
X159431295Y-90988896D01*
X159594084Y-91038278D01*
X159594087Y-91038279D01*
X159744107Y-91118466D01*
X159744108Y-91118467D01*
X159744112Y-91118469D01*
X159875612Y-91226388D01*
X159983531Y-91357888D01*
X159983533Y-91357892D01*
X159983534Y-91357893D01*
X160063721Y-91507913D01*
X160063722Y-91507916D01*
X160113104Y-91670705D01*
X160129778Y-91840000D01*
X160113104Y-92009295D01*
X160063722Y-92172084D01*
X160063721Y-92172087D01*
X159983534Y-92322107D01*
X159983531Y-92322112D01*
X159875612Y-92453612D01*
X159744112Y-92561531D01*
X159744108Y-92561533D01*
X159744107Y-92561534D01*
X159594087Y-92641721D01*
X159594084Y-92641722D01*
X159431295Y-92691104D01*
X159346712Y-92699435D01*
X159304421Y-92703600D01*
X157695579Y-92703600D01*
X157653288Y-92699435D01*
X157568705Y-92691104D01*
X157405916Y-92641722D01*
X157405913Y-92641721D01*
X157255893Y-92561534D01*
X157255892Y-92561533D01*
X157255888Y-92561531D01*
X157124388Y-92453612D01*
X157016469Y-92322112D01*
X157016466Y-92322107D01*
X156936279Y-92172087D01*
X156936278Y-92172084D01*
X156886896Y-92009295D01*
X156870222Y-91840000D01*
X156886896Y-91670705D01*
X156936278Y-91507916D01*
X156936279Y-91507913D01*
X157016466Y-91357893D01*
X157016467Y-91357892D01*
X157016469Y-91357888D01*
X157124388Y-91226388D01*
X157255888Y-91118469D01*
X157255892Y-91118467D01*
X157255893Y-91118466D01*
X157405913Y-91038279D01*
X157405916Y-91038278D01*
X157568705Y-90988896D01*
X157653288Y-90980565D01*
X157695579Y-90976400D01*
X159304421Y-90976400D01*
X159346712Y-90980565D01*
G37*
G36*
X132801000Y-91721000D02*
G01*
X130199000Y-91721000D01*
X130199000Y-90919000D01*
X132801000Y-90919000D01*
X132801000Y-91721000D01*
G37*
G36*
X150801000Y-91721000D02*
G01*
X148199000Y-91721000D01*
X148199000Y-90919000D01*
X150801000Y-90919000D01*
X150801000Y-91721000D01*
G37*
G36*
X132801000Y-90451000D02*
G01*
X130199000Y-90451000D01*
X130199000Y-89649000D01*
X132801000Y-89649000D01*
X132801000Y-90451000D01*
G37*
G36*
X150801000Y-90451000D02*
G01*
X148199000Y-90451000D01*
X148199000Y-89649000D01*
X150801000Y-89649000D01*
X150801000Y-90451000D01*
G37*
G36*
X123546712Y-88460565D02*
G01*
X123631295Y-88468896D01*
X123794084Y-88518278D01*
X123794087Y-88518279D01*
X123944107Y-88598466D01*
X123944108Y-88598467D01*
X123944112Y-88598469D01*
X124075612Y-88706388D01*
X124183531Y-88837888D01*
X124183533Y-88837892D01*
X124183534Y-88837893D01*
X124263721Y-88987913D01*
X124263722Y-88987916D01*
X124313104Y-89150705D01*
X124329778Y-89320000D01*
X124313104Y-89489295D01*
X124263722Y-89652084D01*
X124263721Y-89652087D01*
X124183534Y-89802107D01*
X124183531Y-89802112D01*
X124075612Y-89933612D01*
X123944112Y-90041531D01*
X123944108Y-90041533D01*
X123944107Y-90041534D01*
X123794087Y-90121721D01*
X123794084Y-90121722D01*
X123631295Y-90171104D01*
X123546712Y-90179435D01*
X123504421Y-90183600D01*
X121895579Y-90183600D01*
X121853288Y-90179435D01*
X121768705Y-90171104D01*
X121605916Y-90121722D01*
X121605913Y-90121721D01*
X121455893Y-90041534D01*
X121455892Y-90041533D01*
X121455888Y-90041531D01*
X121324388Y-89933612D01*
X121216469Y-89802112D01*
X121216466Y-89802107D01*
X121136279Y-89652087D01*
X121136278Y-89652084D01*
X121086896Y-89489295D01*
X121070222Y-89320000D01*
X121086896Y-89150705D01*
X121136278Y-88987916D01*
X121136279Y-88987913D01*
X121216466Y-88837893D01*
X121216467Y-88837892D01*
X121216469Y-88837888D01*
X121324388Y-88706388D01*
X121455888Y-88598469D01*
X121455892Y-88598467D01*
X121455893Y-88598466D01*
X121605913Y-88518279D01*
X121605916Y-88518278D01*
X121768705Y-88468896D01*
X121853288Y-88460565D01*
X121895579Y-88456400D01*
X123504421Y-88456400D01*
X123546712Y-88460565D01*
G37*
G36*
X159346712Y-88440565D02*
G01*
X159431295Y-88448896D01*
X159594084Y-88498278D01*
X159594087Y-88498279D01*
X159744107Y-88578466D01*
X159744108Y-88578467D01*
X159744112Y-88578469D01*
X159875612Y-88686388D01*
X159983531Y-88817888D01*
X159983533Y-88817892D01*
X159983534Y-88817893D01*
X160063721Y-88967913D01*
X160063722Y-88967916D01*
X160113104Y-89130705D01*
X160129778Y-89300000D01*
X160113104Y-89469295D01*
X160063722Y-89632084D01*
X160063721Y-89632087D01*
X159983534Y-89782107D01*
X159983531Y-89782112D01*
X159875612Y-89913612D01*
X159744112Y-90021531D01*
X159744108Y-90021533D01*
X159744107Y-90021534D01*
X159594087Y-90101721D01*
X159594084Y-90101722D01*
X159431295Y-90151104D01*
X159346712Y-90159435D01*
X159304421Y-90163600D01*
X157695579Y-90163600D01*
X157653288Y-90159435D01*
X157568705Y-90151104D01*
X157405916Y-90101722D01*
X157405913Y-90101721D01*
X157255893Y-90021534D01*
X157255892Y-90021533D01*
X157255888Y-90021531D01*
X157124388Y-89913612D01*
X157016469Y-89782112D01*
X157016466Y-89782107D01*
X156936279Y-89632087D01*
X156936278Y-89632084D01*
X156886896Y-89469295D01*
X156870222Y-89300000D01*
X156886896Y-89130705D01*
X156936278Y-88967916D01*
X156936279Y-88967913D01*
X157016466Y-88817893D01*
X157016467Y-88817892D01*
X157016469Y-88817888D01*
X157124388Y-88686388D01*
X157255888Y-88578469D01*
X157255892Y-88578467D01*
X157255893Y-88578466D01*
X157405913Y-88498279D01*
X157405916Y-88498278D01*
X157568705Y-88448896D01*
X157653288Y-88440565D01*
X157695579Y-88436400D01*
X159304421Y-88436400D01*
X159346712Y-88440565D01*
G37*
G36*
X123546712Y-85920565D02*
G01*
X123631295Y-85928896D01*
X123794084Y-85978278D01*
X123794087Y-85978279D01*
X123944107Y-86058466D01*
X123944108Y-86058467D01*
X123944112Y-86058469D01*
X124075612Y-86166388D01*
X124183531Y-86297888D01*
X124183533Y-86297892D01*
X124183534Y-86297893D01*
X124263721Y-86447913D01*
X124263722Y-86447916D01*
X124313104Y-86610705D01*
X124329778Y-86780000D01*
X124313104Y-86949295D01*
X124269789Y-87092084D01*
X124263721Y-87112087D01*
X124183534Y-87262107D01*
X124183531Y-87262112D01*
X124075612Y-87393612D01*
X123944112Y-87501531D01*
X123944108Y-87501533D01*
X123944107Y-87501534D01*
X123794087Y-87581721D01*
X123794084Y-87581722D01*
X123631295Y-87631104D01*
X123546712Y-87639435D01*
X123504421Y-87643600D01*
X121895579Y-87643600D01*
X121853288Y-87639435D01*
X121768705Y-87631104D01*
X121605916Y-87581722D01*
X121605913Y-87581721D01*
X121455893Y-87501534D01*
X121455892Y-87501533D01*
X121455888Y-87501531D01*
X121324388Y-87393612D01*
X121216469Y-87262112D01*
X121216466Y-87262107D01*
X121136279Y-87112087D01*
X121130211Y-87092084D01*
X121086896Y-86949295D01*
X121070222Y-86780000D01*
X121086896Y-86610705D01*
X121136278Y-86447916D01*
X121136279Y-86447913D01*
X121216466Y-86297893D01*
X121216467Y-86297892D01*
X121216469Y-86297888D01*
X121324388Y-86166388D01*
X121455888Y-86058469D01*
X121455892Y-86058467D01*
X121455893Y-86058466D01*
X121605913Y-85978279D01*
X121605916Y-85978278D01*
X121768705Y-85928896D01*
X121853288Y-85920565D01*
X121895579Y-85916400D01*
X123504421Y-85916400D01*
X123546712Y-85920565D01*
G37*
G36*
X159346712Y-85900565D02*
G01*
X159431295Y-85908896D01*
X159594084Y-85958278D01*
X159594087Y-85958279D01*
X159744107Y-86038466D01*
X159744108Y-86038467D01*
X159744112Y-86038469D01*
X159875612Y-86146388D01*
X159983531Y-86277888D01*
X159983533Y-86277892D01*
X159983534Y-86277893D01*
X160063721Y-86427913D01*
X160063722Y-86427916D01*
X160113104Y-86590705D01*
X160129778Y-86760000D01*
X160113104Y-86929295D01*
X160063722Y-87092084D01*
X160063721Y-87092087D01*
X159983534Y-87242107D01*
X159983531Y-87242112D01*
X159875612Y-87373612D01*
X159744112Y-87481531D01*
X159744108Y-87481533D01*
X159744107Y-87481534D01*
X159594087Y-87561721D01*
X159594084Y-87561722D01*
X159431295Y-87611104D01*
X159346712Y-87619435D01*
X159304421Y-87623600D01*
X157695579Y-87623600D01*
X157653288Y-87619435D01*
X157568705Y-87611104D01*
X157405916Y-87561722D01*
X157405913Y-87561721D01*
X157255893Y-87481534D01*
X157255892Y-87481533D01*
X157255888Y-87481531D01*
X157124388Y-87373612D01*
X157016469Y-87242112D01*
X157016466Y-87242107D01*
X156936279Y-87092087D01*
X156936278Y-87092084D01*
X156886896Y-86929295D01*
X156870222Y-86760000D01*
X156886896Y-86590705D01*
X156936278Y-86427916D01*
X156936279Y-86427913D01*
X157016466Y-86277893D01*
X157016467Y-86277892D01*
X157016469Y-86277888D01*
X157124388Y-86146388D01*
X157255888Y-86038469D01*
X157255892Y-86038467D01*
X157255893Y-86038466D01*
X157405913Y-85958279D01*
X157405916Y-85958278D01*
X157568705Y-85908896D01*
X157653288Y-85900565D01*
X157695579Y-85896400D01*
X159304421Y-85896400D01*
X159346712Y-85900565D01*
G37*
G36*
X155873500Y-87351000D02*
G01*
X150926500Y-87351000D01*
X150926500Y-86049000D01*
X155873500Y-86049000D01*
X155873500Y-87351000D01*
G37*
G36*
X129537000Y-85203500D02*
G01*
X128165000Y-85203500D01*
X128165000Y-83196500D01*
X129537000Y-83196500D01*
X129537000Y-85203500D01*
G37*
G36*
X126235000Y-85203500D02*
G01*
X124863000Y-85203500D01*
X124863000Y-83196500D01*
X126235000Y-83196500D01*
X126235000Y-85203500D01*
G37*
G36*
X123546712Y-83380565D02*
G01*
X123631295Y-83388896D01*
X123794084Y-83438278D01*
X123794087Y-83438279D01*
X123944107Y-83518466D01*
X123944108Y-83518467D01*
X123944112Y-83518469D01*
X124075612Y-83626388D01*
X124183531Y-83757888D01*
X124183533Y-83757892D01*
X124183534Y-83757893D01*
X124263721Y-83907913D01*
X124263722Y-83907916D01*
X124313104Y-84070705D01*
X124329778Y-84240000D01*
X124313104Y-84409295D01*
X124263722Y-84572084D01*
X124263721Y-84572087D01*
X124183534Y-84722107D01*
X124183531Y-84722112D01*
X124075612Y-84853612D01*
X123944112Y-84961531D01*
X123944108Y-84961533D01*
X123944107Y-84961534D01*
X123794087Y-85041721D01*
X123794084Y-85041722D01*
X123631295Y-85091104D01*
X123546712Y-85099435D01*
X123504421Y-85103600D01*
X121895579Y-85103600D01*
X121853288Y-85099435D01*
X121768705Y-85091104D01*
X121605916Y-85041722D01*
X121605913Y-85041721D01*
X121455893Y-84961534D01*
X121455892Y-84961533D01*
X121455888Y-84961531D01*
X121324388Y-84853612D01*
X121216469Y-84722112D01*
X121216466Y-84722107D01*
X121136279Y-84572087D01*
X121136278Y-84572084D01*
X121086896Y-84409295D01*
X121070222Y-84240000D01*
X121086896Y-84070705D01*
X121136278Y-83907916D01*
X121136279Y-83907913D01*
X121216466Y-83757893D01*
X121216467Y-83757892D01*
X121216469Y-83757888D01*
X121324388Y-83626388D01*
X121455888Y-83518469D01*
X121455892Y-83518467D01*
X121455893Y-83518466D01*
X121605913Y-83438279D01*
X121605916Y-83438278D01*
X121768705Y-83388896D01*
X121853288Y-83380565D01*
X121895579Y-83376400D01*
X123504421Y-83376400D01*
X123546712Y-83380565D01*
G37*
G36*
X155873500Y-82151000D02*
G01*
X150926500Y-82151000D01*
X150926500Y-80849000D01*
X155873500Y-80849000D01*
X155873500Y-82151000D01*
G37*
G36*
X130618000Y-82022600D02*
G01*
X128179600Y-82022600D01*
X128179600Y-80600200D01*
X130618000Y-80600200D01*
X130618000Y-82022600D01*
G37*
G36*
X142803500Y-81837000D02*
G01*
X140796500Y-81837000D01*
X140796500Y-80465000D01*
X142803500Y-80465000D01*
X142803500Y-81837000D01*
G37*
G36*
X134353500Y-81677000D02*
G01*
X132346500Y-81677000D01*
X132346500Y-80305000D01*
X134353500Y-80305000D01*
X134353500Y-81677000D01*
G37*
G36*
X137953500Y-81677000D02*
G01*
X135946500Y-81677000D01*
X135946500Y-80305000D01*
X137953500Y-80305000D01*
X137953500Y-81677000D01*
G37*
G36*
X124402600Y-80901600D02*
G01*
X121999400Y-80901600D01*
X121999400Y-77098400D01*
X124402600Y-77098400D01*
X124402600Y-80901600D01*
G37*
G36*
X130618000Y-79711200D02*
G01*
X128179600Y-79711200D01*
X128179600Y-78288800D01*
X130618000Y-78288800D01*
X130618000Y-79711200D01*
G37*
G36*
X156999090Y-78899780D02*
G01*
X155299430Y-78899780D01*
X155299430Y-78000220D01*
X156999090Y-78000220D01*
X156999090Y-78899780D01*
G37*
G36*
X153600570Y-78899780D02*
G01*
X151900910Y-78899780D01*
X151900910Y-78000220D01*
X153600570Y-78000220D01*
X153600570Y-78899780D01*
G37*
G36*
X146503500Y-78837000D02*
G01*
X144496500Y-78837000D01*
X144496500Y-77465000D01*
X146503500Y-77465000D01*
X146503500Y-78837000D01*
G37*
G36*
X149603500Y-78837000D02*
G01*
X147596500Y-78837000D01*
X147596500Y-77465000D01*
X149603500Y-77465000D01*
X149603500Y-78837000D01*
G37*
G36*
X142803500Y-78535000D02*
G01*
X140796500Y-78535000D01*
X140796500Y-77163000D01*
X142803500Y-77163000D01*
X142803500Y-78535000D01*
G37*
G36*
X137953500Y-78375000D02*
G01*
X135946500Y-78375000D01*
X135946500Y-77003000D01*
X137953500Y-77003000D01*
X137953500Y-78375000D01*
G37*
G36*
X134353500Y-78375000D02*
G01*
X132346500Y-78375000D01*
X132346500Y-77003000D01*
X134353500Y-77003000D01*
X134353500Y-78375000D01*
G37*
G36*
X130618000Y-77399800D02*
G01*
X128179600Y-77399800D01*
X128179600Y-75977400D01*
X130618000Y-75977400D01*
X130618000Y-77399800D01*
G37*
G36*
X158108500Y-75071886D02*
G01*
X158109102Y-75084138D01*
X158111649Y-75110000D01*
X158109102Y-75135862D01*
X158108500Y-75148114D01*
X158108500Y-75221406D01*
X158099543Y-75238164D01*
X158095415Y-75249701D01*
X158080460Y-75299000D01*
X158061854Y-75360336D01*
X158001406Y-75473425D01*
X157920054Y-75572554D01*
X157820925Y-75653906D01*
X157707836Y-75714354D01*
X157675904Y-75724040D01*
X157585118Y-75751580D01*
X157521355Y-75757860D01*
X157489474Y-75761000D01*
X156725526Y-75761000D01*
X156693645Y-75757860D01*
X156629882Y-75751580D01*
X156539096Y-75724040D01*
X156507164Y-75714354D01*
X156394075Y-75653906D01*
X156294946Y-75572554D01*
X156213594Y-75473425D01*
X156153146Y-75360336D01*
X156134540Y-75299000D01*
X156119587Y-75249708D01*
X156110213Y-75227075D01*
X156106500Y-75221518D01*
X156106500Y-75148114D01*
X156105898Y-75135862D01*
X156103351Y-75110000D01*
X156105898Y-75084138D01*
X156106500Y-75071886D01*
X156106500Y-73859000D01*
X158108500Y-73859000D01*
X158108500Y-75071886D01*
G37*
G36*
X149603500Y-75535000D02*
G01*
X147596500Y-75535000D01*
X147596500Y-74163000D01*
X149603500Y-74163000D01*
X149603500Y-75535000D01*
G37*
G36*
X146503500Y-75535000D02*
G01*
X144496500Y-75535000D01*
X144496500Y-74163000D01*
X146503500Y-74163000D01*
X146503500Y-75535000D01*
G37*
G36*
X135792000Y-75299000D02*
G01*
X133404000Y-75299000D01*
X133404000Y-73673000D01*
X135792000Y-73673000D01*
X135792000Y-75299000D01*
G37*
G36*
X142396000Y-75299000D02*
G01*
X140008000Y-75299000D01*
X140008000Y-73673000D01*
X142396000Y-73673000D01*
X142396000Y-75299000D01*
G37*
G36*
X154633848Y-68363820D02*
G01*
X154633850Y-68363821D01*
X154633851Y-68363821D01*
X154775074Y-68422317D01*
X154775077Y-68422319D01*
X154902169Y-68507239D01*
X155010261Y-68615331D01*
X155095181Y-68742423D01*
X155095183Y-68742426D01*
X155153679Y-68883649D01*
X155183500Y-69033571D01*
X155183500Y-69186429D01*
X155153679Y-69336351D01*
X155095183Y-69477574D01*
X155095181Y-69477577D01*
X155010261Y-69604669D01*
X154902169Y-69712761D01*
X154817440Y-69769375D01*
X154775074Y-69797683D01*
X154724772Y-69818519D01*
X154703164Y-69830068D01*
X154684222Y-69845614D01*
X154668677Y-69864556D01*
X154657126Y-69886166D01*
X154650013Y-69909615D01*
X154647611Y-69934001D01*
X154650013Y-69958387D01*
X154657126Y-69981836D01*
X154668677Y-70003447D01*
X154684223Y-70022389D01*
X154703165Y-70037934D01*
X154724775Y-70049485D01*
X154748224Y-70056598D01*
X154772610Y-70059000D01*
X155133500Y-70059000D01*
X155133500Y-73161000D01*
X154772610Y-73161000D01*
X154748224Y-73163402D01*
X154724775Y-73170515D01*
X154703164Y-73182066D01*
X154684222Y-73197611D01*
X154668677Y-73216553D01*
X154657126Y-73238164D01*
X154650013Y-73261613D01*
X154647611Y-73285999D01*
X154650013Y-73310385D01*
X154657126Y-73333834D01*
X154668677Y-73355445D01*
X154684222Y-73374387D01*
X154703164Y-73389932D01*
X154724772Y-73401481D01*
X154775074Y-73422317D01*
X154775075Y-73422318D01*
X154902169Y-73507239D01*
X155010261Y-73615331D01*
X155048794Y-73673000D01*
X155095183Y-73742426D01*
X155153679Y-73883649D01*
X155183500Y-74033571D01*
X155183500Y-74186429D01*
X155153679Y-74336351D01*
X155095183Y-74477574D01*
X155095181Y-74477577D01*
X155010261Y-74604669D01*
X154902169Y-74712761D01*
X154851564Y-74746574D01*
X154775074Y-74797683D01*
X154633851Y-74856179D01*
X154633850Y-74856179D01*
X154633848Y-74856180D01*
X154483931Y-74886000D01*
X154331069Y-74886000D01*
X154181152Y-74856180D01*
X154181150Y-74856179D01*
X154181149Y-74856179D01*
X154039926Y-74797683D01*
X153963436Y-74746574D01*
X153912831Y-74712761D01*
X153804739Y-74604669D01*
X153719819Y-74477577D01*
X153719817Y-74477574D01*
X153661321Y-74336351D01*
X153631500Y-74186429D01*
X153631500Y-74033571D01*
X153661321Y-73883649D01*
X153719817Y-73742426D01*
X153766206Y-73673000D01*
X153804739Y-73615331D01*
X153912831Y-73507239D01*
X154039925Y-73422318D01*
X154039926Y-73422317D01*
X154090228Y-73401481D01*
X154111836Y-73389932D01*
X154130778Y-73374386D01*
X154146323Y-73355444D01*
X154157874Y-73333834D01*
X154164987Y-73310385D01*
X154167389Y-73285999D01*
X154164987Y-73261613D01*
X154157874Y-73238164D01*
X154146323Y-73216553D01*
X154130777Y-73197611D01*
X154111835Y-73182066D01*
X154090225Y-73170515D01*
X154066776Y-73163402D01*
X154042390Y-73161000D01*
X153681500Y-73161000D01*
X153681500Y-70059000D01*
X154042390Y-70059000D01*
X154066776Y-70056598D01*
X154090225Y-70049485D01*
X154111836Y-70037934D01*
X154130778Y-70022389D01*
X154146323Y-70003447D01*
X154157874Y-69981836D01*
X154164987Y-69958387D01*
X154167389Y-69934001D01*
X154164987Y-69909615D01*
X154157874Y-69886166D01*
X154146323Y-69864555D01*
X154130778Y-69845613D01*
X154111836Y-69830068D01*
X154090228Y-69818519D01*
X154039926Y-69797683D01*
X153997560Y-69769375D01*
X153912831Y-69712761D01*
X153804739Y-69604669D01*
X153719819Y-69477577D01*
X153719817Y-69477574D01*
X153661321Y-69336351D01*
X153631500Y-69186429D01*
X153631500Y-69033571D01*
X153661321Y-68883649D01*
X153719817Y-68742426D01*
X153719819Y-68742423D01*
X153804739Y-68615331D01*
X153912831Y-68507239D01*
X154039923Y-68422319D01*
X154039926Y-68422317D01*
X154181149Y-68363821D01*
X154181150Y-68363821D01*
X154181152Y-68363820D01*
X154331069Y-68334000D01*
X154483931Y-68334000D01*
X154633848Y-68363820D01*
G37*
G36*
X158108500Y-73411000D02*
G01*
X156106500Y-73411000D01*
X156106500Y-71809000D01*
X158108500Y-71809000D01*
X158108500Y-73411000D01*
G37*
G36*
X146503500Y-72537000D02*
G01*
X144496500Y-72537000D01*
X144496500Y-71165000D01*
X146503500Y-71165000D01*
X146503500Y-72537000D01*
G37*
G36*
X149503500Y-72537000D02*
G01*
X147496500Y-72537000D01*
X147496500Y-71165000D01*
X149503500Y-71165000D01*
X149503500Y-72537000D01*
G37*
G36*
X158108500Y-71411000D02*
G01*
X156106500Y-71411000D01*
X156106500Y-69809000D01*
X158108500Y-69809000D01*
X158108500Y-71411000D01*
G37*
G36*
X142396000Y-70727000D02*
G01*
X140008000Y-70727000D01*
X140008000Y-69101000D01*
X142396000Y-69101000D01*
X142396000Y-70727000D01*
G37*
G36*
X135792000Y-70727000D02*
G01*
X133404000Y-70727000D01*
X133404000Y-69101000D01*
X135792000Y-69101000D01*
X135792000Y-70727000D01*
G37*
G36*
X157521355Y-67462140D02*
G01*
X157585118Y-67468420D01*
X157675904Y-67495960D01*
X157707836Y-67505646D01*
X157820925Y-67566094D01*
X157920054Y-67647446D01*
X158001406Y-67746575D01*
X158061854Y-67859664D01*
X158061855Y-67859668D01*
X158095413Y-67970292D01*
X158104787Y-67992925D01*
X158108500Y-67998482D01*
X158108500Y-68071886D01*
X158109102Y-68084138D01*
X158111649Y-68110000D01*
X158109102Y-68135862D01*
X158108500Y-68148114D01*
X158108500Y-69361000D01*
X156106500Y-69361000D01*
X156106500Y-68148114D01*
X156105898Y-68135862D01*
X156103351Y-68110000D01*
X156105898Y-68084138D01*
X156106500Y-68071886D01*
X156106500Y-67998594D01*
X156115457Y-67981836D01*
X156119585Y-67970299D01*
X156153145Y-67859668D01*
X156153146Y-67859664D01*
X156213594Y-67746575D01*
X156294946Y-67647446D01*
X156394075Y-67566094D01*
X156507164Y-67505646D01*
X156539096Y-67495960D01*
X156629882Y-67468420D01*
X156693645Y-67462140D01*
X156725526Y-67459000D01*
X157489474Y-67459000D01*
X157521355Y-67462140D01*
G37*
G36*
X149503500Y-69235000D02*
G01*
X147496500Y-69235000D01*
X147496500Y-67863000D01*
X149503500Y-67863000D01*
X149503500Y-69235000D01*
G37*
G36*
X146503500Y-69235000D02*
G01*
X144496500Y-69235000D01*
X144496500Y-67863000D01*
X146503500Y-67863000D01*
X146503500Y-69235000D01*
G37*
M02*
